uploads/cpu.vcd
$date
	Sun Oct 20 00:08:51 2024
$end

$version
	Synopsys VCS version V-2023.12-SP2-1_Full64
$end

$timescale
	100ps
$end

$comment Csum: 1 181fda16c33094d1 $end


$scope module testbench $end
$var reg 32 ! out_fileno [31:0] $end
$var reg 32 " cpi_fileno [31:0] $end
$var reg 32 # wb_fileno [31:0] $end
$var reg 1 $ clock $end
$var reg 1 % reset $end
$var reg 32 & clock_count [31:0] $end
$var reg 32 ' instr_count [31:0] $end
$var reg 2 ( proc2mem_command [1:0] $end
$var reg 32 ) proc2mem_addr [31:0] $end
$var reg 4 * mem2proc_transaction_tag [3:0] $end
$var reg 4 + mem2proc_data_tag [3:0] $end
$var reg 2 , proc2mem_size [1:0] $end
$var reg 4 - error_status [3:0] $end
$var reg 32 . if_NPC_dbg [31:0] $end
$var reg 32 / if_inst_dbg [31:0] $end
$var reg 1 0 if_valid_dbg $end
$var reg 32 1 if_id_NPC_dbg [31:0] $end
$var reg 32 2 if_id_inst_dbg [31:0] $end
$var reg 1 3 if_id_valid_dbg $end
$var reg 32 4 id_ex_NPC_dbg [31:0] $end
$var reg 32 5 id_ex_inst_dbg [31:0] $end
$var reg 1 6 id_ex_valid_dbg $end
$var reg 32 7 ex_mem_NPC_dbg [31:0] $end
$var reg 32 8 ex_mem_inst_dbg [31:0] $end
$var reg 1 9 ex_mem_valid_dbg $end
$var reg 32 : mem_wb_NPC_dbg [31:0] $end
$var reg 32 ; mem_wb_inst_dbg [31:0] $end
$var reg 1 < mem_wb_valid_dbg $end

$scope task output_cpi_file $end
$var real 64 = cpi $end
$upscope $end


$scope task show_final_mem_and_status $end
$var reg 4 > final_status [3:0] $end
$var reg 32 ? showing_data [31:0] $end

$scope begin unnamed$$_0 $end
$upscope $end

$upscope $end


$scope task output_reg_writeback_and_maybe_halt $end
$var reg 32 @ pc [31:0] $end
$var reg 32 A inst [31:0] $end
$var reg 64 B block [63:0] $end

$scope begin unnamed$$_0 $end
$upscope $end

$upscope $end

$var reg 64 C proc2mem_data [63:0] $end
$var reg 64 D mem2proc_data [63:0] $end
$var reg 72 E committed_insts [71:0] $end

$scope module verisimpleV $end
$var wire 1 F clock $end
$var wire 1 G reset $end
$var reg 4 H mem2proc_transaction_tag [3:0] $end
$var reg 4 I mem2proc_data_tag [3:0] $end
$var reg 2 J proc2mem_command [1:0] $end
$var reg 32 K proc2mem_addr [31:0] $end
$var reg 2 L proc2mem_size [1:0] $end
$var reg 32 M if_NPC_dbg [31:0] $end
$var reg 32 N if_inst_dbg [31:0] $end
$var reg 1 O if_valid_dbg $end
$var reg 32 P if_id_NPC_dbg [31:0] $end
$var reg 32 Q if_id_inst_dbg [31:0] $end
$var reg 1 R if_id_valid_dbg $end
$var reg 32 S id_ex_NPC_dbg [31:0] $end
$var reg 32 T id_ex_inst_dbg [31:0] $end
$var reg 1 U id_ex_valid_dbg $end
$var reg 32 V ex_mem_NPC_dbg [31:0] $end
$var reg 32 W ex_mem_inst_dbg [31:0] $end
$var reg 1 X ex_mem_valid_dbg $end
$var reg 32 Y mem_wb_NPC_dbg [31:0] $end
$var reg 32 Z mem_wb_inst_dbg [31:0] $end
$var reg 1 [ mem_wb_valid_dbg $end
$var reg 1 \ if_id_enable $end
$var reg 1 ] id_ex_enable $end
$var reg 1 ^ ex_mem_enable $end
$var reg 1 _ mem_wb_enable $end
$var reg 32 ` Imem_addr [31:0] $end
$var reg 32 a Dmem_addr [31:0] $end
$var reg 2 b Dmem_command [1:0] $end
$var reg 2 c Dmem_size [1:0] $end
$var reg 1 d stall_for_load $end
$var reg 1 e if_valid $end
$var reg 1 f start_valid_on_reset $end
$var reg 1 g wb_valid $end
$var reg 1 h forward_EX_MEM_rs1 $end
$var reg 1 i forward_EX_MEM_rs2 $end
$var reg 1 j forward_MEM_WB_rs1 $end
$var reg 1 k forward_MEM_WB_rs2 $end
$var reg 64 l mem2proc_data [63:0] $end
$var reg 64 m proc2mem_data [63:0] $end
$var reg 72 n committed_insts [71:0] $end
$var reg 97 o if_packet [96:0] $end
$var reg 97 p if_id_reg [96:0] $end
$var reg 183 q id_packet [182:0] $end
$var reg 183 r id_ex_reg [182:0] $end
$var reg 111 s ex_packet [110:0] $end
$var reg 111 t ex_mem_reg [110:0] $end
$var reg 73 u mem_packet [72:0] $end
$var reg 73 v mem_wb_reg [72:0] $end
$var reg 64 w Dmem_store_data [63:0] $end
$var reg 72 x wb_packet [71:0] $end
$var reg 183 y forward_packet [182:0] $end

$scope module stage_if_0 $end
$var wire 1 F clock $end
$var wire 1 G reset $end
$var wire 1 z if_valid $end
$var wire 1 { take_branch $end
$var reg 32 | branch_target [31:0] $end
$var reg 32 } Imem_addr [31:0] $end
$var reg 32 ~ PC_reg [31:0] $end
$var reg 64 "! Imem_data [63:0] $end
$var reg 97 "" if_packet [96:0] $end
$upscope $end


$scope module stage_id_0 $end
$var wire 1 F clock $end
$var wire 1 G reset $end
$var wire 1 "# wb_regfile_en $end
$var reg 5 "$ wb_regfile_idx [4:0] $end
$var reg 32 "% wb_regfile_data [31:0] $end
$var reg 1 "& has_dest_reg $end
$var reg 97 "' if_id_reg [96:0] $end
$var reg 183 "( id_packet [182:0] $end

$scope module regfile_0 $end
$var wire 1 F clock $end
$var reg 5 ") read_idx_1 [4:0] $end
$var reg 5 "* read_idx_2 [4:0] $end
$var reg 5 "+ write_idx [4:0] $end
$var wire 1 "# write_en $end
$var reg 32 ", write_data [31:0] $end
$var reg 32 "- read_out_1 [31:0] $end
$var reg 32 ". read_out_2 [31:0] $end
$var reg 992 "/ registers [991:0] $end
$upscope $end


$scope module decoder_0 $end
$var reg 1 "0 valid $end
$var reg 2 "1 opa_select [1:0] $end
$var reg 3 "2 opb_select [2:0] $end
$var reg 1 "3 has_dest $end
$var reg 4 "4 alu_func [3:0] $end
$var reg 1 "5 mult $end
$var reg 1 "6 rd_mem $end
$var reg 1 "7 wr_mem $end
$var reg 1 "8 cond_branch $end
$var reg 1 "9 uncond_branch $end
$var reg 1 ": csr_op $end
$var reg 1 "; halt $end
$var reg 1 "< illegal $end
$var reg 32 "= inst [31:0] $end
$upscope $end

$upscope $end


$scope module stage_ex_0 $end
$var reg 32 "> alu_result [31:0] $end
$var reg 32 "? mult_result [31:0] $end
$var reg 32 "@ opa_mux_out [31:0] $end
$var reg 32 "A opb_mux_out [31:0] $end
$var reg 1 "B take_conditional $end
$var reg 183 "C id_ex_reg [182:0] $end
$var reg 111 "D ex_packet [110:0] $end

$scope module alu_0 $end
$var reg 32 "E opa [31:0] $end
$var reg 32 "F opb [31:0] $end
$var reg 4 "G alu_func [3:0] $end
$var reg 32 "H result [31:0] $end
$upscope $end


$scope module mult_0 $end
$var reg 32 "I rs1 [31:0] $end
$var reg 32 "J rs2 [31:0] $end
$var reg 3 "K func [2:0] $end
$var reg 32 "L result [31:0] $end
$var reg 64 "M signed_mul [63:0] $end
$var reg 64 "N mixed_mul [63:0] $end
$var reg 64 "O unsigned_mul [63:0] $end
$upscope $end


$scope module conditional_branch_0 $end
$var reg 32 "P rs1 [31:0] $end
$var reg 32 "Q rs2 [31:0] $end
$var wire 3 "R func [2:0] $end
$var reg 1 "S take $end
$upscope $end

$upscope $end


$scope module stage_mem_0 $end
$var reg 2 "T Dmem_command [1:0] $end
$var reg 2 "U Dmem_size [1:0] $end
$var reg 32 "V Dmem_addr [31:0] $end
$var reg 32 "W load_data [31:0] $end
$var reg 111 "X ex_mem_reg [110:0] $end
$var reg 64 "Y Dmem_load_data [63:0] $end
$var reg 73 "Z mem_packet [72:0] $end
$var reg 64 "[ Dmem_store_data [63:0] $end
$upscope $end


$scope module stage_wb_0 $end
$var reg 73 "\ mem_wb_reg [72:0] $end
$var reg 72 "] wb_packet [71:0] $end
$upscope $end

$upscope $end


$scope module memory $end
$var wire 1 "^ clock $end
$var reg 32 "_ proc2mem_addr [31:0] $end
$var reg 2 "` proc2mem_size [1:0] $end
$var wire 2 "a proc2mem_command [1:0] $end
$var reg 4 "b mem2proc_transaction_tag [3:0] $end
$var reg 4 "c mem2proc_data_tag [3:0] $end
$var reg 4 "d next_mem2proc_transaction_tag [3:0] $end
$var reg 4 "e next_mem2proc_data_tag [3:0] $end
$var wire 29 "f block_addr [31:3] $end
$var wire 3 "g byte_addr [2:0] $end
$var reg 1 "h acquire_tag $end
$var reg 1 "i bus_filled $end
$var reg 1 "j valid_address $end
$var reg 64 "k proc2mem_data [63:0] $end
$var reg 64 "l mem2proc_data [63:0] $end
$var reg 64 "m next_mem2proc_data [63:0] $end
$var reg 64 "n load_data [63:0] $end
$var reg 64 "o block [63:0] $end

$scope begin unnamed$$_0 $end
$upscope $end


$scope begin unnamed$$_1 $end
$upscope $end


$scope begin unnamed$$_2 $end
$upscope $end

$upscope $end

$upscope $end

$enddefinitions $end

#0
$dumpvars
0$
1^
x9
xh
xi
xj
xk
x"3
x"&
1]
x6
x\
xe
1_
x<
1%
xz
xd
xf
x{
x"5
x"6
x0
x"7
x"8
x3
x"9
x";
x"<
x":
xO
xR
x"0
xX
xU
x[
1G
x"#
xg
bxx b
bxx c
bxxxxxxxxxxxxxxxxxxxxxxxxxxxxxxxx a
b00000000000000000000000000000000xxxxxxxxxxxxxxxxxxxxxxxxxxxxxxxx w
bxxxxxxxxxxxxxxxxxxxxxxxxxxxxx000 `
bxxxxxxxxxxxxxxxxxxxxxxxxxxxxxxxxxxxxxxxxxxxxxxxxxxxxxxxxxxxxxxxx "!
bxxxxxxxxxxxxxxxxxxxxxxxxxxxxxxxx ~
bxxxxxxxxxxxxxxxxxxxxxxxxxxxxxxxx |
bxxxxxxxxxxxxxxxxxxxxxxxxxxxxxxxxxxxxxxxxxxxxxxxxxxxxxxxxxxxxxxxxxxxxxxxx E
bxxxxxxxxxxxxxxxxxxxxxxxxxxxxxxxx 7
bxxxxxxxxxxxxxxxxxxxxxxxxxxxxxxxx 8
bxxxxxxxxxxxxxxxxxxxxxxxxxxxxxxxxxxxxxxxxxxxxxxxxxxxxxxxxxxxxxxxxxxxxxxxxxxxxxxxxxxxxxxxxxxxxxxxxxxxxxxxxxxxxxxx t
bxxxxxxxxxxxxxxxxxxxxxxxxxxxxxxxxxxxxxxxxxxxxxxxxxxxxxxxxxxxxxxxxxxxxxxxxxxxxxxxxxxxxxxxxxxxxxxxxxxxxxxxxxxxxxxx s
bxxxxxxxxxxxxxxxxxxxxxxxxxxxxxxxxxxxxxxxxxxxxxxxxxxxxxxxxxxxxxxxxxxxxxxxxxxxxxxxxxxxxxxxxxxxxxxxxxxxxxxxxxxxxxxxxxxxxxxxxxxxxxxxxxxxxxxxxxxxxxxxxxxxxxxxxxxxxxxxxxxxxxxxxxxxxxxxxxxxxxxx y
bxxxxxxxxxxxxxxxxxxxxxxxxxxxxxxxx 4
bxxxxxxxxxxxxxxxxxxxxxxxxxxxxxxxx 5
bxxxxxxxxxxxxxxxxxxxxxxxxxxxxxxxxxxxxxxxxxxxxxxxxxxxxxxxxxxxxxxxxxxxxxxxxxxxxxxxxxxxxxxxxxxxxxxxxxxxxxxxxxxxxxxxxxxxxxxxxxxxxxxxxxxxxxxxxxxxxxxxxxxxxxxxxxxxxxxxxxxxxxxxxxxxxxxxxxxxxxxx r
bxxxxxxxxxxxxxxxxxxxxxxxxxxxxxxxxxxxxxxxxxxxxxxxxxxxxxxxxxxxxxxxxxxxxxxxxxxxxxxxxxxxxxxxxxxxxxxxxxxxxxxxxxxxxxxxxxxxxxxxxxxxxxxxxxxxxxxxxxxxxxxxxxxxxxxxxxxxxxxxxxxxxxxxxxxxxxxxxxxxxxxx q
bxxxxxxxxxxxxxxxxxxxxxxxxxxxxxxxx 2
bxxxxxxxxxxxxxxxxxxxxxxxxxxxxxxxxxxxxxxxxxxxxxxxxxxxxxxxxxxxxxxxxxxxxxxxxxxxxxxxxxxxxxxxxxxxxxxxxx p
bxxxxxxxxxxxxxxxxxxxxxxxxxxxxxxxx /
bxxxxxxxxxxxxxxxxxxxxxxxxxxxxxxxxxxxxxxxxxxxxxxxxxxxxxxxxxxxxxxxxxxxxxxxxxxxxxxxxxxxxxxxxxxxxxxxxx o
bxxxxxxxxxxxxxxxxxxxxxxxxxxxxxxxx "=
bxxxx +
bxxxxxxxxxxxxxxxxxxxxxxxxxxxxxxxxxxxxxxxxxxxxxxxxxxxxxxxxxxxxxxxx D
bxxxx *
bxxxxxxxxxxxxxxxxxxxxxxxxxxxxxxxxxxxxxxxxxxxxxxxxxxxxxxxxxxxxxxxxxxxxxxxxx u
bxxxxxxxxxxxxxxxxxxxxxxxxxxxxxxxx :
bxxxxxxxxxxxxxxxxxxxxxxxxxxxxxxxx ;
bxxxxxxxxxxxxxxxxxxxxxxxxxxxxxxxxxxxxxxxxxxxxxxxxxxxxxxxxxxxxxxxxxxxxxxxxx v
bxxxxxxxxxxxxxxxxxxxxxxxxxxxxxxxx )
b00000000000000000000000000000000xxxxxxxxxxxxxxxxxxxxxxxxxxxxxxxx C
bxxxxxxxxxxxxxxxxxxxxxxxxxxxxxxxxxxxxxxxxxxxxxxxxxxxxxxxxxxxxxxxxxxxxxxxxxxxxxxxxxxxxxxxxxxxxxxxxxxxxxxxxxxxxxxxxxxxxxxxxxxxxxxxxxxxxxxxxxxxxxxxxxxxxxxxxxxxxxxxxxxxxxxxxxxxxxxxxxxxxxxxxxxxxxxxxxxxxxxxxxxxxxxxxxxxxxxxxxxxxxxxxxxxxxxxxxxxxxxxxxxxxxxxxxxxxxxxxxxxxxxxxxxxxxxxxxxxxxxxxxxxxxxxxxxxxxxxxxxxxxxxxxxxxxxxxxxxxxxxxxxxxxxxxxxxxxxxxxxxxxxxxxxxxxxxxxxxxxxxxxxxxxxxxxxxxxxxxxxxxxxxxxxxxxxxxxxxxxxxxxxxxxxxxxxxxxxxxxxxxxxxxxxxxxxxxxxxxxxxxxxxxxxxxxxxxxxxxxxxxxxxxxxxxxxxxxxxxxxxxxxxxxxxxxxxxxxxxxxxxxxxxxxxxxxxxxxxxxxxxxxxxxxxxxxxxxxxxxxxxxxxxxxxxxxxxxxxxxxxxxxxxxxxxxxxxxxxxxxxxxxxxxxxxxxxxxxxxxxxxxxxxxxxxxxxxxxxxxxxxxxxxxxxxxxxxxxxxxxxxxxxxxxxxxxxxxxxxxxxxxxxxxxxxxxxxxxxxxxxxxxxxxxxxxxxxxxxxxxxxxxxxxxxxxxxxxxxxxxxxxxxxxxxxxxxxxxxxxxxxxxxxxxxxxxxxxxxxxxxxxxxxxxxxxxxxxxxxxxxxxxxxxxxxxxxxxxxxxxxxxxxxxxxxxxxxxxxxxxxxxxxxxxxxxxxxxxxxxxxxxxxxxxxxxxxxxxxxxxxxxxxxxxxxxxxxxxxxxxxxxxxxxxxxxxxxxxxxxxxxxxxxxxxxxxxxxxxxxxxxxxxxxxxxxxxxxxxxxxxxxxxxxxxxxxxxxxxxxxxxxxxxxxxxxxxxxxxxxxxxxxxxxxxxxxxx "/
bxxxxxxxxxxxxxxxxxxxxxxxxxxxxxxxxxxxxxxxxxxxxxxxxxxxxxxxxxxxxxxxxxxxxxxxx x
bxxxxxxxxxxxxxxxxxxxxxxxxxxxxxxxx "%
bxxxxx "$
bxxxxxxxxxxxxxxxxxxxxxxxxxxxxxxxx ",
bxxxxx "+
bxxxx "4
b00000000000000000000000000000000 &
b1010 -
b00000000000000000000000000000000 '
bxx "1
bxxx "2
bxxxxxxxxxxxxxxxxxxxxxxxxxxxxxxxxxxxxxxxxxxxxxxxxxxxxxxxxxxxxxxxx B
bxxxxxxxxxxxxxxxxxxxxxxxxxxxxxxxx A
bxxxxxxxxxxxxxxxxxxxxxxxxxxxxxxxx @
bxx (
bxx ,
bxxxx >
bxxxxxxxxxxxxxxxxxxxxxxxxxxxxxxxxxxxxxxxxxxxxxxxxxxxxxxxxxxxxxxxxxxxxxxxxxxxxxxxxxxxxxxxxxxxxxxxxxxxxxxxxxxxxxxxxxxxxxxxxxxxxxxxxxxxxxxxxxxxxxxxxxxxxxxxxxxxxxxxxxxxxxxxxxxxxxxxxxxxxxxx "(
bxxxxxxxxxxxxxxxxxxxxxxxxxxxxxxxxxxxxxxxxxxxxxxxxxxxxxxxxxxxxxxxxxxxxxxxxxxxxxxxxxxxxxxxxxxxxxxxxx "'
bxxxxxxxxxxxxxxxxxxxxxxxxxxxxx000 }
bxxxxxxxxxxxxxxxxxxxxxxxxxxxxxxxxxxxxxxxxxxxxxxxxxxxxxxxxxxxxxxxxxxxxxxxxxxxxxxxxxxxxxxxxxxxxxxxxx ""
bxxxxxxxxxxxxxxxxxxxxxxxxxxxxxxxx .
bxxxxxxxxxxxxxxxxxxxxxxxxxxxxxxxx 1
bxxxxxxxxxxxxxxxxxxxxxxxxxxxxxxxx "-
bxxxxxxxxxxxxxxxxxxxxxxxxxxxxxxxx ".
bxxxxxxxxxxxxxxxxxxxxxxxxxxxxxxxx M
bxxxxxxxxxxxxxxxxxxxxxxxxxxxxxxxx P
bxxxxx "*
bxxxxx ")
bxxxxxxxxxxxxxxxxxxxxxxxxxxxxxxxxxxxxxxxxxxxxxxxxxxxxxxxxxxxxxxxxxxxxxxxx n
bxxxxxxxxxxxxxxxxxxxxxxxxxxxxxxxx V
bxxxxxxxxxxxxxxxxxxxxxxxxxxxxxxxx W
bxxxxxxxxxxxxxxxxxxxxxxxxxxxxxxxx S
bxxxxxxxxxxxxxxxxxxxxxxxxxxxxxxxx T
bxxxxxxxxxxxxxxxxxxxxxxxxxxxxxxxx Q
bxxxxxxxxxxxxxxxxxxxxxxxxxxxxxxxx N
bxxxx I
bxxxxxxxxxxxxxxxxxxxxxxxxxxxxxxxxxxxxxxxxxxxxxxxxxxxxxxxxxxxxxxxx l
bxxxx H
bxxxxxxxxxxxxxxxxxxxxxxxxxxxxxxxx Y
bxxxxxxxxxxxxxxxxxxxxxxxxxxxxxxxx Z
bxxxxxxxxxxxxxxxxxxxxxxxxxxxxxxxx K
b00000000000000000000000000000000xxxxxxxxxxxxxxxxxxxxxxxxxxxxxxxx m
bxx J
bxx L
b00000000000000000000000000000000 "
b00000000000000000000000000000000 !
b00000000000000000000000000000000 ?
b00000000000000000000000000000000 #
r0.000000000000000  =
x"h
x"i
x"j
bxxxxxxxxxxxxxxxxxxxxxxxxxxxxxxxxxxxxxxxxxxxxxxxxxxxxxxxxxxxxxxxx "o
bxxxxxxxxxxxxxxxxxxxxxxxxxxxxxxxxxxxxxxxxxxxxxxxxxxxxxxxxxxxxxxxx "n
bxxxx "c
bxxxxxxxxxxxxxxxxxxxxxxxxxxxxxxxxxxxxxxxxxxxxxxxxxxxxxxxxxxxxxxxx "l
bxxxx "b
bxxxx "e
bxxxxxxxxxxxxxxxxxxxxxxxxxxxxxxxxxxxxxxxxxxxxxxxxxxxxxxxxxxxxxxxx "m
bxxxx "d
bxxxxxxxxxxxxxxxxxxxxxxxxxxxxxxxx "_
b00000000000000000000000000000000xxxxxxxxxxxxxxxxxxxxxxxxxxxxxxxx "k
bxxxxxxxxxxxxxxxxxxxxxxxxxxxxx "f
bxxx "g
bxx "`
x"S
x"B
bxxxxxxxxxxxxxxxxxxxxxxxxxxxxxxxx ">
bxxxxxxxxxxxxxxxxxxxxxxxxxxxxxxxxxxxxxxxxxxxxxxxxxxxxxxxxxxxxxxxxxxxxxxxxxxxxxxxxxxxxxxxxxxxxxxxxxxxxxxxxxxxxxxx "D
bxxxxxxxxxxxxxxxxxxxxxxxxxxxxxxxxxxxxxxxxxxxxxxxxxxxxxxxxxxxxxxxxxxxxxxxxxxxxxxxxxxxxxxxxxxxxxxxxxxxxxxxxxxxxxxxxxxxxxxxxxxxxxxxxxxxxxxxxxxxxxxxxxxxxxxxxxxxxxxxxxxxxxxxxxxxxxxxxxxxxxxx "C
bxxxxxxxxxxxxxxxxxxxxxxxxxxxxxxxx "?
bxxxxxxxxxxxxxxxxxxxxxxxxxxxxxxxx "E
bxxxxxxxxxxxxxxxxxxxxxxxxxxxxxxxx "@
bxxxxxxxxxxxxxxxxxxxxxxxxxxxxxxxx "F
bxxxxxxxxxxxxxxxxxxxxxxxxxxxxxxxx "A
bxxxxxxxxxxxxxxxxxxxxxxxxxxxxxxxx "H
bxxxx "G
bxxx "R
bxxx "K
bxxxxxxxxxxxxxxxxxxxxxxxxxxxxxxxxxxxxxxxxxxxxxxxxxxxxxxxxxxxxxxxx "N
bxxxxxxxxxxxxxxxxxxxxxxxxxxxxxxxx "L
bxxxxxxxxxxxxxxxxxxxxxxxxxxxxxxxxxxxxxxxxxxxxxxxxxxxxxxxxxxxxxxxx "M
bxxxxxxxxxxxxxxxxxxxxxxxxxxxxxxxx "I
bxxxxxxxxxxxxxxxxxxxxxxxxxxxxxxxx "J
bxxxxxxxxxxxxxxxxxxxxxxxxxxxxxxxx "P
bxxxxxxxxxxxxxxxxxxxxxxxxxxxxxxxx "Q
bxxxxxxxxxxxxxxxxxxxxxxxxxxxxxxxxxxxxxxxxxxxxxxxxxxxxxxxxxxxxxxxx "O
bxx "T
bxx "U
bxxxxxxxxxxxxxxxxxxxxxxxxxxxxxxxx "V
bxxxxxxxxxxxxxxxxxxxxxxxxxxxxxxxxxxxxxxxxxxxxxxxxxxxxxxxxxxxxxxxx "Y
b00000000000000000000000000000000xxxxxxxxxxxxxxxxxxxxxxxxxxxxxxxx "[
bxxxxxxxxxxxxxxxxxxxxxxxxxxxxxxxxxxxxxxxxxxxxxxxxxxxxxxxxxxxxxxxxxxxxxxxxxxxxxxxxxxxxxxxxxxxxxxxxxxxxxxxxxxxxxxx "X
bxxxxxxxxxxxxxxxxxxxxxxxxxxxxxxxx "W
bxxxxxxxxxxxxxxxxxxxxxxxxxxxxxxxxxxxxxxxxxxxxxxxxxxxxxxxxxxxxxxxxxxxxxxxxx "Z
bxxxxxxxxxxxxxxxxxxxxxxxxxxxxxxxxxxxxxxxxxxxxxxxxxxxxxxxxxxxxxxxxxxxxxxxxx "\
bxxxxxxxxxxxxxxxxxxxxxxxxxxxxxxxxxxxxxxxxxxxxxxxxxxxxxxxxxxxxxxxxxxxxxxxx "]
0F
0"^
bxx "a
$end
#150
1$
1F
1"^
b0000 "b
b0000 *
b0000 H
b0000 "c
b0000 +
b0000 I
1f
b0000000000000000000000000001001100000000000000000000000000000000000000000000000000000000000000000 p
b00000000000000000000000000000000 P
0R
b00000000000000000000000000000000 1
03
b0000000000000000000000000001001100000000000000000000000000000000000000000000000000000000000000000 "'
b00000 "*
b00000 ")
0"0
b00000000000000000000000000010011 "=
b00000000000000000000000000010011 Q
b00000000000000000000000000010011 2
b000000000000000000000000000100110000000000000000000000000000000000000000000000000000000000000000000000000000000000000000000000000000000000000000000000000000000000000000000000000000000 r
0U
06
b00000000000000000000000000010011 T
b00000000000000000000000000010011 5
b00000000000000000000000000000000 S
b00000000000000000000000000000000 4
b00000000000000000000000000010011 W
b00000000000000000000000000010011 8
b000000000000000000000000000000000000000000000000000000000000000000000000000000000000000000000000000000000000000 t
b000000000000000000000000000000000000000000000000000000000000000000000000000000000000000000000000000000000000000 "X
b0000000000000000000000000000000000000000000000000000000000000000 "[
b00000000000000000000000000000000 "V
b00 "U
b00000000000000000000000000000000 |
0{
0X
09
b00000000000000000000000000000000 V
b00000000000000000000000000000000 7
b00000000000000000000000000010011 Z
b00000000000000000000000000010011 ;
b0000000000000000000000000000000000000000000000000000000000000000000000000 v
b0000000000000000000000000000000000000000000000000000000000000000000000000 "\
0[
0<
b00000000000000000000000000000000 Y
b00000000000000000000000000000000 :
0g
b00000000000000000000000000000000 ~
b00000000000000000000000000000000 }
b00000000000000000000000000000000 `
1e
1z
b00000000000000000000000000000000 ".
b00000000000000000000000000000000 "-
0"5
0"6
0"7
0"8
0"9
0";
0"<
0":
0"3
0"&
b0000 "4
b000 "2
b00 "1
b000000000000000000000000000100110000000000000000000000000000000000000000000000000000000000000000000000000000000000000000000000000000000000000000000000000000000000000000000000000000000 q
b000000000000000000000000000100110000000000000000000000000000000000000000000000000000000000000000000000000000000000000000000000000000000000000000000000000000000000000000000000000000000 "(
b000000000000000000000000000100110000000000000000000000000000000000000000000000000000000000000000000000000000000000000000000000000000000000000000000000000000000000000000000000000000000 y
b000000000000000000000000000100110000000000000000000000000000000000000000000000000000000000000000000000000000000000000000000000000000000000000000000000000000000000000000000000000000000 "C
b00000000000000000000000000000000 "P
b00000000000000000000000000000000 "Q
b00000000000000000000000000000000 "I
b00000000000000000000000000000000 "J
b0000000000000000000000000000000000000000000000000000000000000000 "M
b0000000000000000000000000000000000000000000000000000000000000000 "N
b0000000000000000000000000000000000000000000000000000000000000000 "O
b000 "R
b000 "K
b0000 "G
0d
1\
0k
0j
0i
0h
b0000000000000000000000000000000000000000000000000000000000000000 w
b00000000000000000000000000000000 a
b00 c
b0000000000000000000000000000000000000000000000000000000000000000000000000 "Z
b0000000000000000000000000000000000000000000000000000000000000000000000000 u
b000000000000000000000000000000000000000000000000000000000000000000000000 "]
b000000000000000000000000000000000000000000000000000000000000000000000000 x
b00000000000000000000000000000000 "%
b00000000000000000000000000000000 ",
b00000 "$
b00000 "+
0"#
b000000000000000000000000000000000000000000000000000000000000000000000000 n
b000000000000000000000000000000000000000000000000000000000000000000000000 E
bxxxxxxxxxxxxxxxxxxxxxxxxxxxxxxxx00000000000000000000000000000000000000000000000000000000000001001 ""
bxxxxxxxxxxxxxxxxxxxxxxxxxxxxxxxx0000000000000000000000000000000000000000000000000000000000000000000000000000000 "D
bxxxxxxxxxxxxxxxxxxxxxxxxxxxxxxxx0000000000000000000000000000000000000000000000000000000000000000000000000000000 s
b00 "T
b00 b
bxxxxxxxxxxxxxxxxxxxxxxxxxxxxxxxx00000000000000000000000000000000000000000000000000000000000001001 o
b00000000000000000000000000000100 M
1O
b00000000000000000000000000000100 .
10
b0000000000000000000000000000000000000000000000000000000000000000 m
b0000000000000000000000000000000000000000000000000000000000000000 C
b0000000000000000000000000000000000000000000000000000000000000000 "k
b11 L
b11 ,
b11 "`
b00000000000000000000000000000000 K
b00000000000000000000000000000000 )
b00000000000000000000000000000000 "_
b000 "g
b00000000000000000000000000000 "f
b01 J
b01 (
b01 "a
b00000000000000000000000000000000 "A
b00000000000000000000000000000000 "F
b00000000000000000000000000000000 "@
b00000000000000000000000000000000 "E
1"S
1"B
b00000000000000000000000000000000 "L
b00000000000000000000000000000000 "?
b00000000000000000000000000000000 "H
b00000000000000000000000000000000 ">
b000000000000000000000000000000000000000000000000000000000000000000000000000000000000000000000000000000000000000 "D
b000000000000000000000000000000000000000000000000000000000000000000000000000000000000000000000000000000000000000 s
#300
0$
0F
0"^
b0001 "d
b0000000000000000000000000000000000000000000000000000000000000000 "m
b0001 "e
1"j
b0000000000000000000000000000000000000000000000000000000000000000 "o
b0000000000000000000000000000000000000000000000000000000000000000 "n
1"i
0"h
b0001 "b
b0001 *
b0001 H
b0000000000000000000000000000000000000000000000000000000000000000 "l
b0000000000000000000000000000000000000000000000000000000000000000 D
b0000000000000000000000000000000000000000000000000000000000000000 l
b0000000000000000000000000000000000000000000000000000000000000000 "Y
b0000000000000000000000000000000000000000000000000000000000000000 "!
b0001 "c
b0001 +
b0001 I
b00000000000000000000000000000000 "W
b0000000000000000000000000000000000000000000000000000000000000000000000000000000000000000000001001 ""
b0000000000000000000000000000000000000000000000000000000000000000000000000000000000000000000001001 o
b00000000000000000000000000000000 N
b00000000000000000000000000000000 /
#450
1$
1F
1"^
#600
0$
0F
0"^
b0000000000100000000000010001001100000000000100000000000010010011 "m
b0000000000100000000000010001001100000000000100000000000010010011 "o
b0000000000100000000000010001001100000000000100000000000010010011 "n
b0000000000100000000000010001001100000000000100000000000010010011 "l
b0000000000100000000000010001001100000000000100000000000010010011 D
b0000000000100000000000010001001100000000000100000000000010010011 l
b0000000000100000000000010001001100000000000100000000000010010011 "Y
b0000000000100000000000010001001100000000000100000000000010010011 "!
b11111111111111111111111110010011 "W
b0000000000010000000000001001001100000000000000000000000000000000000000000000000000000000000001001 ""
b0000000000010000000000001001001100000000000000000000000000000000000000000000000000000000000001001 o
b00000000000100000000000010010011 N
b00000000000100000000000010010011 /
#750
1$
1F
1"^
#900
0$
0F
0"^
#1050
1$
1F
1"^
#1060
0%
0G
b00000000000000000000000000000010 #
#1200
0$
0F
0"^
#1220
b00000000000000000000000000000001 &
#1350
1$
1F
1"^
0f
b0000000000010000000000001001001100000000000000000000000000000000000000000000000000000000000001001 p
b00000000000000000000000000000100 P
1R
b00000000000000000000000000000100 1
13
b0000000000010000000000001001001100000000000000000000000000000000000000000000000000000000000001001 "'
b00001 "*
1"0
b00000000000100000000000010010011 "=
b00000000000100000000000010010011 Q
b00000000000100000000000010010011 2
b00000000000000000000000000000100 ~
bxxxxxxxxxxxxxxxxxxxxxxxxxxxxxxxx ".
1"3
1"&
b001 "2
b00000000000100000000000010010011000000000000000000000000000000000000000000000000000000000000010000000000000000000000000000000000xxxxxxxxxxxxxxxxxxxxxxxxxxxxxxxx00001000010000000000001 q
b00000000000100000000000010010011000000000000000000000000000000000000000000000000000000000000010000000000000000000000000000000000xxxxxxxxxxxxxxxxxxxxxxxxxxxxxxxx00001000010000000000001 "(
b0000000000010000000000001001001100000000000000000000000000000100000000000000000000000000000010001 o
b00000000000000000000000000001000 M
b00000000000000000000000000001000 .
b0000000000100000000000010001001100000000000000000000000000000100000000000000000000000000000010001 ""
b0000000000100000000000010001001100000000000000000000000000000100000000000000000000000000000010001 o
b00000000001000000000000100010011 N
b00000000001000000000000100010011 /
#1500
0$
0F
0"^
#1520
b00000000000000000000000000000010 &
