uploads/frizzy.vcd
$date
	Mon Nov  4 01:02:27 2024
$end

$version
	Synopsys VCS version V-2023.12-SP2-1_Full64
$end

$timescale
	100ps
$end

$comment Csum: 1 9ccf0edc74e7530b $end


$scope module testbench $end
$var reg 1 ! clock $end
$var reg 1 " reset $end
$var reg 1 # branch_mispredict $end
$var reg 3 $ branch_idx [2:0] $end
$var reg 2 % num_dispatch [1:0] $end
$var reg 36 & dispatch_complete_req [35:0] $end
$var reg 18 ' rob_complete_req [17:0] $end
$var reg 18 ( T_old [17:0] $end
$var reg 18 ) cdb [17:0] $end
$var reg 3 * rob_completed [2:0] $end
$var reg 6 + dispatch_completed [5:0] $end
$var reg 18 , free_PR [17:0] $end
$var reg 2 - open_spots [1:0] $end
$var reg 7 . available_spots_out [6:0] $end
$var reg 3 / rob_completed_CORRECT [2:0] $end
$var reg 6 0 dispatch_completed_CORRECT [5:0] $end
$var reg 18 1 free_PR_CORRECT [17:0] $end
$var reg 7 2 available_spots_CORRECT [6:0] $end
$var reg 64 3 ready_list_test [63:0] $end
$var reg 64 4 free_list_test [63:0] $end
$var reg 32 5 pr_ind [31:0] $end
$var reg 32 6 dispatch_size [31:0] $end
$var reg 32 7 complete_size [31:0] $end
$var reg 32 8 retire_size [31:0] $end
$var reg 32 9 num_completed [31:0] $end

$scope task exit_on_error $end
$var reg 1 : clock $end
$var reg 1 ; reset $end
$var reg 6 < available_spots_CORRECT [5:0] $end

$scope begin unnamed$$_0 $end
$upscope $end

$upscope $end


$scope task assert_correct_neg $end
$var reg 6 = available_spots [5:0] $end
$var reg 6 > available_spots_CORRECT [5:0] $end
$var reg 3 ? rob_completed [2:0] $end
$var reg 3 @ rob_completed_CORRECT [2:0] $end
$var reg 6 A dispatch_completed [5:0] $end
$var reg 6 B dispatch_completed_CORRECT [5:0] $end
$var reg 18 C free_PR [17:0] $end
$var reg 18 D free_PR_CORRECT [17:0] $end
$upscope $end


$scope task assert_correct_pos $end
$upscope $end


$scope task assert_checkpoint $end

$scope begin unnamed$$_0 $end
$upscope $end

$upscope $end


$scope task reset_inputs $end

$scope begin unnamed$$_0 $end
$upscope $end

$upscope $end


$scope task print_frizzy_table_entries $end

$scope begin unnamed$$_0 $end
$upscope $end

$upscope $end


$scope task dispatch_k_instructions $end
$var reg 2 E k [1:0] $end

$scope begin unnamed$$_0 $end

$scope begin unnamed$$_1 $end
$upscope $end


$scope begin unnamed$$_2 $end
$upscope $end


$scope begin unnamed$$_3 $end
$upscope $end

$upscope $end

$upscope $end


$scope task complete_k_instructions $end
$var reg 2 F k [1:0] $end

$scope begin unnamed$$_0 $end

$scope begin unnamed$$_1 $end
$upscope $end

$upscope $end

$upscope $end


$scope task retire_k_instructions $end
$var reg 2 G k [1:0] $end

$scope begin unnamed$$_0 $end

$scope begin unnamed$$_1 $end
$upscope $end

$upscope $end

$upscope $end

$var reg 128 H branch_recover [127:0] $end
$var reg 128 I checkpoint [127:0] $end
$var reg 128 J checkpoint_CORRECT [127:0] $end

$scope begin unnamed$$_0 $end
$upscope $end


$scope begin unnamed$$_1 $end
$upscope $end


$scope module DUT $end
$var reg 64 K ready_bits [63:0] $end
$var reg 64 L free_list [63:0] $end
$var wire 1 M clock $end
$var wire 1 N reset $end
$var wire 1 O branch_mispredict $end
$var wire 3 P branch_idx [2:0] $end
$var wire 2 Q num_dispatch [1:0] $end
$var reg 36 R dispatch_complete_req [35:0] $end
$var reg 18 S T_old [17:0] $end
$var reg 18 T rob_complete_req [17:0] $end
$var reg 18 U cdb [17:0] $end
$var reg 7 V available_spots_out [6:0] $end
$var reg 3 W rob_completed [2:0] $end
$var reg 6 X dispatch_completed [5:0] $end
$var reg 18 Y free_PR [17:0] $end
$var reg 2 Z open_spots [1:0] $end
$var reg 64 [ ready_bits_n [63:0] $end
$var reg 64 \ free_list_n [63:0] $end
$var reg 64 ] free_list_retired [63:0] $end
$var wor 64 ^ chkpt_ready_bits [63:0] $end
$var wor 64 _ chkpt_free_list [63:0] $end
$var reg 64 ` gnt [63:0] $end
$var reg 192 a gnt_bus [191:0] $end
$var reg 18 b encoder_free_list [17:0] $end
$var reg 7 c num_free_regs [6:0] $end
$var reg 7 d num_free_regs_retire [6:0] $end
$var reg 7 e num_free_regs_n [6:0] $end
$var reg 128 f branch_recover [127:0] $end
$var reg 128 g checkpoint [127:0] $end

$scope begin unnamed$$_0 $end
$upscope $end


$scope begin unnamed$$_1 $end
$upscope $end


$scope begin unnamed$$_2 $end
$upscope $end


$scope begin unnamed$$_3 $end
$upscope $end


$scope begin unnamed$$_4 $end

$scope begin unnamed$$_5 $end
$upscope $end

$upscope $end


$scope begin unnamed$$_6 $end
$upscope $end


$scope begin unnamed$$_7 $end

$scope begin unnamed$$_8 $end
$upscope $end

$upscope $end


$scope begin unnamed$$_9 $end

$scope begin unnamed$$_10 $end

$scope begin unnamed$$_11 $end
$upscope $end

$upscope $end

$upscope $end


$scope begin unnamed$$_12 $end
$upscope $end


$scope begin unnamed$$_13 $end
$upscope $end


$scope module psel $end
$var wire 64 h req [63:0] $end
$var wor 64 i gnt [63:0] $end
$var wand 192 j gnt_bus [191:0] $end
$var wire 1 k empty $end
$var wire 192 l tmp_reqs [191:0] $end
$var wire 192 m tmp_reqs_rev [191:0] $end
$var wire 192 n tmp_gnts [191:0] $end
$var wire 192 o tmp_gnts_rev [191:0] $end

$scope module foo[0].psel $end
$var wire 64 p req [63:0] $end
$var wand 64 q gnt [63:0] $end
$var wire 64 r req_r [63:0] $end
$var wand 64 s gnt_r [63:0] $end
$upscope $end


$scope module foo[1].psel $end
$var wire 64 t req [63:0] $end
$var wand 64 u gnt [63:0] $end
$var wire 64 v req_r [63:0] $end
$var wand 64 w gnt_r [63:0] $end
$upscope $end


$scope module foo[2].psel $end
$var wire 64 x req [63:0] $end
$var wand 64 y gnt [63:0] $end
$var wire 64 z req_r [63:0] $end
$var wand 64 { gnt_r [63:0] $end
$upscope $end

$upscope $end


$scope module psels[0].encoded_PR $end
$var wire 64 | one_hot_in [63:0] $end
$var wor 6 } num_out [5:0] $end
$upscope $end


$scope module psels[1].encoded_PR $end
$var wire 64 ~ one_hot_in [63:0] $end
$var wor 6 "! num_out [5:0] $end
$upscope $end


$scope module psels[2].encoded_PR $end
$var wire 64 "" one_hot_in [63:0] $end
$var wor 6 "# num_out [5:0] $end
$upscope $end

$upscope $end

$upscope $end

$enddefinitions $end

#0
$dumpvars
0#
0!
x:
x;
1"
b000000000000000000 (
bxxxxxxxxxxxxxxxxxxxxxxxxxxxxxxxxxxxxxxxxxxxxxxxxxxxxxxxxxxxxxxxxxxxxxxxxxxxxxxxxxxxxxxxxxxxxxxxxxxxxxxxxxxxxxxxxxxxxxxxxxxxxxxxx H
b000000000000000000 )
bxxxxxxxxxxxxxxxxxxxxxxxxxxxxxxxxxxxxxxxxxxxxxxxxxxxxxxxxxxxxxxxxxxxxxxxxxxxxxxxxxxxxxxxxxxxxxxxxxxxxxxxxxxxxxxxxxxxxxxxxxxxxxxxx J
bxxxxxxxxxxxxxxxxxxxxxxxxxxxxxxxxxxxxxxxxxxxxxxxxxxxxxxxxxxxxxxxxxxxxxxxxxxxxxxxxxxxxxxxxxxxxxxxxxxxxxxxxxxxxxxxxxxxxxxxxxxxxxxxx I
b000000000000000000000000000000000000 &
b000000 +
b000000 0
b000000000000000000 ,
b000000000000000000 1
b000000000000000000 '
bxxxxxx A
bxxxxxx B
bxxxxxxxxxxxxxxxxxx C
bxxxxxxxxxxxxxxxxxx D
bxxxxxx =
bxxxxxx >
bxxx ?
bxxx @
b0100000 2
bxxxxxxx .
b000 $
bxx F
bxx E
bxxxxxx <
b1111111111111111111111111111111100000000000000000000000000000000 4
b00 %
bxx -
b0000000000000000000000000000000011111111111111111111111111111111 3
bxx G
b000 *
b000 /
b00000000000000000000000000000011 7
b00000000000000000000000000000011 6
b00000000000000000000000000100000 9
b00000000000000000000000000000001 5
b00000000000000000000000000000011 8
xk
b000000000000000000 S
bxxxxxxxxxxxxxxxxxxxxxxxxxxxxxxxxxxxxxxxxxxxxxxxxxxxxxxxxxxxxxxxxxxxxxxxxxxxxxxxxxxxxxxxxxxxxxxxxxxxxxxxxxxxxxxxxxxxxxxxxxxxxxxxx f
b000000000000000000 U
bxxxxxxxxxxxxxxxxxxxxxxxxxxxxxxxxxxxxxxxxxxxxxxxxxxxxxxxxxxxxxxxxxxxxxxxxxxxxxxxxxxxxxxxxxxxxxxxxxxxxxxxxxxxxxxxxxxxxxxxxxxxxxxxx g
b000000000000000000000000000000000000 R
b000000 X
bxxxxxxxxxxxxxxxxxx b
b000000000000000000 Y
bxxxxxxxxxxxxxxxxxxxxxxxxxxxxxxxxxxxxxxxxxxxxxxxxxxxxxxxxxxxxxxxxxxxxxxxxxxxxxxxxxxxxxxxxxxxxxxxxxxxxxxxxxxxxxxxxxxxxxxxxxxxxxxxxxxxxxxxxxxxxxxxxxxxxxxxxxxxxxxxxxxxxxxxxxxxxxxxxxxxxxxxxxxxxxxxx a
b000000000000000000 T
bxxxxxxx V
bzzzzzzzzzzzzzzzzzzzzzzzzzzzzzzzzzzzzzzzzzzzzzzzzzzzzzzzzzzzzzzzz _
bzzzzzzzzzzzzzzzzzzzzzzzzzzzzzzzzzzzzzzzzzzzzzzzzzzzzzzzzzzzzzzzz ^
bxxxxxxxxxxxxxxxxxxxxxxxxxxxxxxxxxxxxxxxxxxxxxxxxxxxxxxxxxxxxxxxx L
bxxxxxxxxxxxxxxxxxxxxxxxxxxxxxxxxxxxxxxxxxxxxxxxxxxxxxxxxxxxxxxxx \
bxxxxxxxxxxxxxxxxxxxxxxxxxxxxxxxxxxxxxxxxxxxxxxxxxxxxxxxxxxxxxxxx ]
b0000000000000000000000000000000000000000000000000000000000000000 `
bxxxxxxxxxxxxxxxxxxxxxxxxxxxxxxxxxxxxxxxxxxxxxxxxxxxxxxxxxxxxxxxxxxxxxxxxxxxxxxxxxxxxxxxxxxxxxxxxxxxxxxxxxxxxxxxxxxxxxxxxxxxxxxxxxxxxxxxxxxxxxxxxxxxxxxxxxxxxxxxxxxxxxxxxxxxxxxxxxxxxxxxxxxxxxxxx j
bxxxxxxx c
bxxxxxxx e
bxxxxxxx d
bxx Z
bxxxxxxxxxxxxxxxxxxxxxxxxxxxxxxxxxxxxxxxxxxxxxxxxxxxxxxxxxxxxxxxx i
bxxxxxxxxxxxxxxxxxxxxxxxxxxxxxxxxxxxxxxxxxxxxxxxxxxxxxxxxxxxxxxxx K
bxxxxxxxxxxxxxxxxxxxxxxxxxxxxxxxxxxxxxxxxxxxxxxxxxxxxxxxxxxxxxxxx [
bxxxxxxxxxxxxxxxxxxxxxxxxxxxxxxxxxxxxxxxxxxxxxxxxxxxxxxxxxxxxxxxx h
b000 W
bxxxxxxxxxxxxxxxxxxxxxxxxxxxxxxxxxxxxxxxxxxxxxxxxxxxxxxxxxxxxxxxxxxxxxxxxxxxxxxxxxxxxxxxxxxxxxxxxxxxxxxxxxxxxxxxxxxxxxxxxxxxxxxxxxxxxxxxxxxxxxxxxxxxxxxxxxxxxxxxxxxxxxxxxxxxxxxxxxxxxxxxxxxxxxxxx o
bzzzzzzzzzzzzzzzzzzzzzzzzzzzzzzzzzzzzzzzzzzzzzzzzzzzzzzzzzzzzzzzzzzzzzzzzzzzzzzzzzzzzzzzzzzzzzzzzzzzzzzzzzzzzzzzzzzzzzzzzzzzzzzzzzzzzzzzzzzzzzzzzzzzzzzzzzzzzzzzzzzzzzzzzzzzzzzzzzzzzzzzzzzzzzzzz m
bxxxxxxxxxxxxxxxxxxxxxxxxxxxxxxxxxxxxxxxxxxxxxxxxxxxxxxxxxxxxxxxx s
bxxxxxxxxxxxxxxxxxxxxxxxxxxxxxxxxxxxxxxxxxxxxxxxxxxxxxxxxxxxxxxxx r
bxxxxxxxxxxxxxxxxxxxxxxxxxxxxxxxxxxxxxxxxxxxxxxxxxxxxxxxxxxxxxxxx w
bxxxxxxxxxxxxxxxxxxxxxxxxxxxxxxxxxxxxxxxxxxxxxxxxxxxxxxxxxxxxxxxx v
bxxxxxxxxxxxxxxxxxxxxxxxxxxxxxxxxxxxxxxxxxxxxxxxxxxxxxxxxxxxxxxxx {
bxxxxxxxxxxxxxxxxxxxxxxxxxxxxxxxxxxxxxxxxxxxxxxxxxxxxxxxxxxxxxxxx z
bxxxxxx }
bxxxxxx "!
bxxxxxx "#
0M
1N
0O
b000 P
b00 Q
bxxxxxxxxxxxxxxxxxxxxxxxxxxxxxxxxxxxxxxxxxxxxxxxxxxxxxxxxxxxxxxxxxxxxxxxxxxxxxxxxxxxxxxxxxxxxxxxxxxxxxxxxxxxxxxxxxxxxxxxxxxxxxxxxxxxxxxxxxxxxxxxxxxxxxxxxxxxxxxxxxxxxxxxxxxxxxxxxxxxxxxxxxxxxxxxx l
bxxxxxxxxxxxxxxxxxxxxxxxxxxxxxxxxxxxxxxxxxxxxxxxxxxxxxxxxxxxxxxxxxxxxxxxxxxxxxxxxxxxxxxxxxxxxxxxxxxxxxxxxxxxxxxxxxxxxxxxxxxxxxxxxxxxxxxxxxxxxxxxxxxxxxxxxxxxxxxxxxxxxxxxxxxxxxxxxxxxxxxxxxxxxxxxx n
bxxxxxxxxxxxxxxxxxxxxxxxxxxxxxxxxxxxxxxxxxxxxxxxxxxxxxxxxxxxxxxxx p
bxxxxxxxxxxxxxxxxxxxxxxxxxxxxxxxxxxxxxxxxxxxxxxxxxxxxxxxxxxxxxxxx q
bxxxxxxxxxxxxxxxxxxxxxxxxxxxxxxxxxxxxxxxxxxxxxxxxxxxxxxxxxxxxxxxx x
bxxxxxxxxxxxxxxxxxxxxxxxxxxxxxxxxxxxxxxxxxxxxxxxxxxxxxxxxxxxxxxxx y
bxxxxxxxxxxxxxxxxxxxxxxxxxxxxxxxxxxxxxxxxxxxxxxxxxxxxxxxxxxxxxxxx |
bxxxxxxxxxxxxxxxxxxxxxxxxxxxxxxxxxxxxxxxxxxxxxxxxxxxxxxxxxxxxxxxx ~
bxxxxxxxxxxxxxxxxxxxxxxxxxxxxxxxxxxxxxxxxxxxxxxxxxxxxxxxxxxxxxxxx ""
bxxxxxxxxxxxxxxxxxxxxxxxxxxxxxxxxxxxxxxxxxxxxxxxxxxxxxxxxxxxxxxxx t
bxxxxxxxxxxxxxxxxxxxxxxxxxxxxxxxxxxxxxxxxxxxxxxxxxxxxxxxxxxxxxxxx u
$end
#150
1!
1M
b0000000000000000000000000000000011111111111111111111111111111111 K
b1111111111111111111111111111111100000000000000000000000000000000 L
b0100000 c
b0100000 d
b0100000 V
b0100000 .
b11 Z
b0100000 e
b00000000000000000000000000000000111111111111111111111111111111111111111111111111111111111111111100000000000000000000000000000000 g
b00000000000000000000000000000000111111111111111111111111111111111111111111111111111111111111111100000000000000000000000000000000 I
b1111111111111111111111111111111100000000000000000000000000000000 ]
b1111111111111111111111111111111100000000000000000000000000000000 h
b1111111111111111111111111111111100000000000000000000000000000000 p
bxxxxxxxxxxxxxxxxxxxxxxxxxxxxxxxx00000000000000000000000000000000 x
0k
b1111111111111111111111111111111100000000000000000000000000000000 \
b0000000000000000000000000000000011111111111111111111111111111111 [
b11 -
b0000000000000000000000000000000011111111111111111111111111111111 t
bxxxxxxxxxxxxxxxxxxxxxxxxxxxxxxxx0000000000000000000000000000000000000000000000000000000000000000111111111111111111111111111111111111111111111111111111111111111100000000000000000000000000000000 l
b1111111111111111111111111111111100000000000000000000000000000000 v
b0000000000000000000000000000000011111111111111111111111111111111 r
b00000000000000000000000000000000xxxxxxxxxxxxxxxxxxxxxxxxxxxxxxxx z
b0000000000000000000000000000000000000000000000000000000000000001 s
b00000000000000000000000000000000xxxxxxxxxxxxxxxxxxxxxxxxxxxxxxxx {
b0000000000000000000000000000000100000000000000000000000000000000 w
b1000000000000000000000000000000000000000000000000000000000000000 q
b0111111111111111111111111111111100000000000000000000000000000000 x
bxxxxxxxxxxxxxxxxxxxxxxxxxxxxxxxx00000000000000000000000000000000 y
b0000000000000000000000000000000010000000000000000000000000000000 u
bxxxxxxxxxxxxxxxxxxxxxxxxxxxxxxxx0000000000000000000000000000000000000000000000000000000000000000100000000000000000000000000000001000000000000000000000000000000000000000000000000000000000000000 n
bxxxxxxxxxxxxxxxxxxxxxxxxxxxxxxxx00000000000000000000000000000000xxxxxxxxxxxxxxxxxxxxxxxxxxxxxxxxxxxxxxxxxxxxxxxxxxxxxxxxxxxxxxxx1000000000000000000000000000000000000000000000000000000000000000 j
bxxxxxxxxxxxxxxxxxxxxxxxxxxxxxxxx00000000000000000000000000000000xxxxxxxxxxxxxxxxxxxxxxxxxxxxxxxxxxxxxxxxxxxxxxxxxxxxxxxxxxxxxxxx1000000000000000000000000000000000000000000000000000000000000000 a
bxxxxxxxxxxxxxxxxxxxxxxxxxxxxxxxx00000000000000000000000000000000 ""
b1000000000000000000000000000000000000000000000000000000000000000 |
b1xxxxxxxxxxxxxxxxxxxxxxxxxxxxxxxxxxxxxxxxxxxxxxxxxxxxxxxxxxxxxxx i
bxxxxxxxxxxxxxxxxxxxxxxxxxxxxxxxx000000000000000000000000000000000xxxxxxxxxxxxxxxxxxxxxxxxxxxxxxxxxxxxxxxxxxxxxxxxxxxxxxxxxxxxxxx1000000000000000000000000000000000000000000000000000000000000000 j
bxxxxxxxxxxxxxxxxxxxxxxxxxxxxxxxx000000000000000000000000000000000xxxxxxxxxxxxxxxxxxxxxxxxxxxxxxxxxxxxxxxxxxxxxxxxxxxxxxxxxxxxxxx1000000000000000000000000000000000000000000000000000000000000000 a
b0xxxxxxxxxxxxxxxxxxxxxxxxxxxxxxxxxxxxxxxxxxxxxxxxxxxxxxxxxxxxxxx ~
b00000000000000000000000000000000xxxxxxxxxxxxxxxxxxxxxxxxxxxxxxxx00000000000000000000000000000001000000000000000000000000000000000000000000000000000000000000000000000000000000000000000000000001 o
b0000000000000000000000000000000011111111111111111111111111111110 z
bxxxxxxxxxxxxxxxxxxxxxxxxxxxxxxxx0000000000000000000000000000000000000000000000000000000000000001000000000000000000000000000000001000000000000000000000000000000000000000000000000000000000000000 j
bxxxxxxxxxxxxxxxxxxxxxxxxxxxxxxxx0000000000000000000000000000000000000000000000000000000000000001000000000000000000000000000000001000000000000000000000000000000000000000000000000000000000000000 a
b0000000000000000000000000000000100000000000000000000000000000000 ~
b1xxxxxxxxxxxxxxxxxxxxxxxxxxxxxx100000000000000000000000000000000 i
bxxxxxxxxxxxxxxxxxxxxxxxxxxxxxxx00000000000000000000000000000000000000000000000000000000000000001000000000000000000000000000000001000000000000000000000000000000000000000000000000000000000000000 j
bxxxxxxxxxxxxxxxxxxxxxxxxxxxxxxx00000000000000000000000000000000000000000000000000000000000000001000000000000000000000000000000001000000000000000000000000000000000000000000000000000000000000000 a
bxxxxxxxxxxxxxxxxxxxxxxxxxxxxxxx000000000000000000000000000000000 ""
b0000000000000000000000000000000000000000000000000000000000000010 {
b011111111111111111111111111111110000000000000000000000000000000000000000000000000000000000000000111111111111111111111111111111111111111111111111111111111111111100000000000000000000000000000000 l
b0100000000000000000000000000000000000000000000000000000000000000 y
b1111xx }
b1000xx "!
b010000000000000000000000000000000000000000000000000000000000000000000000000000000000000000000001000000000000000000000000000000001000000000000000000000000000000000000000000000000000000000000000 j
b010000000000000000000000000000000000000000000000000000000000000000000000000000000000000000000001000000000000000000000000000000001000000000000000000000000000000000000000000000000000000000000000 a
b0100000000000000000000000000000000000000000000000000000000000000 ""
bxxxxxx1000xx1111xx b
b1100000000000000000000000000000100000000000000000000000000000000 i
b000000000000000000000000000000000000000000000000000000000000001000000000000000000000000000000001000000000000000000000000000000000000000000000000000000000000000000000000000000000000000000000001 o
b010000000000000000000000000000000000000000000000000000000000000000000000000000000000000000000000100000000000000000000000000000001000000000000000000000000000000000000000000000000000000000000000 n
b111111 }
b100000 "!
bxxxxxx100000111111 b
b111110 "#
b111110100000111111 b
#300
0!
0M
#450
1!
1M
#600
0!
0M
0"
0N
#750
1!
1M
#900
0!
0M
#920
b100000 =
b100000 >
b000 ?
b000 @
b000000 A
b000000 B
b000000000000000000 C
b000000000000000000 D
#1050
1!
1M
#1200
0!
0M
b11 E
b11 %
b11 Q
b000000000000000000000000000010000001 &
b000000000000000000000000000010000001 R
b000011 0
b00000000000000000000000000000011 5
b000000000000111111 1
b0111111111111111111111111111111100000000000000000000000000000000 4
b000000000000000100000011000010000001 &
b000000000000000100000011000010000001 R
b001111 0
b00000000000000000000000000000101 5
b000000100000111111 1
b0111111111111111111111111111111000000000000000000000000000000000 4
b000110000101000100000011000010000001 &
b000110000101000100000011000010000001 R
b111111 0
b00000000000000000000000000000111 5
b111110100000111111 1
b0011111111111111111111111111111000000000000000000000000000000000 4
b111110100000111111 Y
b111110100000111111 ,
b1100000000000000000000000000000100000000000000000000000000000000 `
b0011101 e
b0011111111111111111111111111111000000000000000000000000000000000 \
b111111 X
b111111 +
#1220
b111111 A
b111111 B
b111110100000111111 C
b111110100000111111 D
b0011101 2
#1350
1!
1M
b0011111111111111111111111111111000000000000000000000000000000000 L
b0011101 c
b0011101 d
b0011101 V
b0011101 .
b0011010 e
b00000000000000000000000000000000111111111111111111111111111111110011111111111111111111111111111000000000000000000000000000000000 g
b00000000000000000000000000000000111111111111111111111111111111110011111111111111111111111111111000000000000000000000000000000000 I
b0011111111111111111111111111111000000000000000000000000000000000 ]
b0011111111111111111111111111111000000000000000000000000000000000 h
b0011111111111111111111111111111000000000000000000000000000000000 p
b0011111111111111111111111111111000000000000000000000000000000000 x
b1111111111111111111111111111111100000000000000000000000000000000 \
b0000000000000000000000000000000001111111111111111111111111111100 t
b001111111111111111111111111111100000000000000000000000000000000000000000000000000000000000000000011111111111111111111111111111000011111111111111111111111111111000000000000000000000000000000000 l
b0011111111111111111111111111111000000000000000000000000000000000 v
b0000000000000000000000000000000001111111111111111111111111111100 r
b0000000000000000000000000000000001111111111111111111111111111100 z
b0000000000000000000000000000001000000000000000000000000000000000 w
b0000000000000000000000000000000000000000000000000000000000000100 s
b0000000000000000000000000000000000000000000000000000000000000100 {
b0000000000000000000000000000000001000000000000000000000000000000 u
b0010000000000000000000000000000000000000000000000000000000000000 q
b0001111111111111111111111111111000000000000000000000000000000000 x
b0010000000000000000000000000000000000000000000000000000000000000 y
b001000000000000000000000000000000000000000000000000000000000000000000000000000000000000000000000010000000000000000000000000000000010000000000000000000000000000000000000000000000000000000000000 n
b001000000000000000000000000000000000000000000000000000000000000000000000000000000000000000000001000000000000000000000000000000000010000000000000000000000000000000000000000000000000000000000000 j
b001000000000000000000000000000000000000000000000000000000000000000000000000000000000000000000001000000000000000000000000000000000010000000000000000000000000000000000000000000000000000000000000 a
b0010000000000000000000000000000000000000000000000000000000000000 ""
b0010000000000000000000000000000000000000000000000000000000000000 |
b0010000000000000000000000000000100000000000000000000000000000000 i
b000000000000000000000000000000000000000000000000000000000000010000000000000000000000000000000010000000000000000000000000000000000000000000000000000000000000000000000000000000000000000000000100 o
b0000000000000000000000000000000001111111111111111111111111111000 z
b001000000000000000000000000000000000000000000000000000000000000000000000000000000000000000000010000000000000000000000000000000000010000000000000000000000000000000000000000000000000000000000000 j
b001000000000000000000000000000000000000000000000000000000000000000000000000000000000000000000010000000000000000000000000000000000010000000000000000000000000000000000000000000000000000000000000 a
b0000000000000000000000000000001000000000000000000000000000000000 ~
b0010000000000000000000000000001000000000000000000000000000000000 i
b0000000000000000000000000000000000000000000000000000000000001000 {
b000111111111111111111111111111100000000000000000000000000000000000000000000000000000000000000000011111111111111111111111111111000011111111111111111111111111111000000000000000000000000000000000 l
b0010000000000000000000000000001000000000000000000000000000000000 `
b0001111111111111111111111111110000000000000000000000000000000000 \
b0001000000000000000000000000000000000000000000000000000000000000 y
b000100000000000000000000000000000000000000000000000000000000000000000000000000000000000000000010000000000000000000000000000000000010000000000000000000000000000000000000000000000000000000000000 j
b000100000000000000000000000000000000000000000000000000000000000000000000000000000000000000000010000000000000000000000000000000000010000000000000000000000000000000000000000000000000000000000000 a
b0001000000000000000000000000000000000000000000000000000000000000 ""
b0011000000000000000000000000001000000000000000000000000000000000 i
b000000000000000000000000000000000000000000000000000000000000100000000000000000000000000000000010000000000000000000000000000000000000000000000000000000000000000000000000000000000000000000000100 o
b000100000000000000000000000000000000000000000000000000000000000000000000000000000000000000000000010000000000000000000000000000000010000000000000000000000000000000000000000000000000000000000000 n
b111101 "#
b111101 }
b100001 "!
b0011000000000000000000000000001000000000000000000000000000000000 `
b0000111111111111111111111111110000000000000000000000000000000000 \
b111101100001111101 b
b111101100001111101 Y
b111101100001111101 ,
b111100 "#
b111100100001111101 b
b111100100001111101 Y
b111100100001111101 ,
#1500
0!
0M
b00 %
b00 Q
b000000000000000000000000000000000000 &
b000000000000000000000000000000000000 R
b000000 0
b000000000000000000 1
b00000000000000000000000000000010 6
b10 E
b10 %
b10 Q
b000000000000000000000000001000000111 &
b000000000000000000000000001000000111 R
b000011 0
b00000000000000000000000000001001 5
b000000000000111101 1
b0001111111111111111111111111111000000000000000000000000000000000 4
b000000000000001010001001001000000111 &
b000000000000001010001001001000000111 R
b001111 0
b00000000000000000000000000001011 5
b000000100001111101 1
b0001111111111111111111111111110000000000000000000000000000000000 4
b000000100001111101 Y
b000000100001111101 ,
b0010000000000000000000000000001000000000000000000000000000000000 `
b0011011 e
b0001111111111111111111111111110000000000000000000000000000000000 \
b001111 X
b001111 +
#1520
b011101 =
b011101 >
b001111 A
b001111 B
b000000100001111101 C
b000000100001111101 D
b0011011 2
#1650
1!
1M
b0001111111111111111111111111110000000000000000000000000000000000 L
b0011011 c
b0011011 d
b0011011 V
b0011011 .
b0011001 e
b00000000000000000000000000000000111111111111111111111111111111110001111111111111111111111111110000000000000000000000000000000000 g
b00000000000000000000000000000000111111111111111111111111111111110001111111111111111111111111110000000000000000000000000000000000 I
b0001111111111111111111111111110000000000000000000000000000000000 ]
b0001111111111111111111111111110000000000000000000000000000000000 h
b0001111111111111111111111111110000000000000000000000000000000000 p
b0001111111111111111111111111110000000000000000000000000000000000 x
b0011111111111111111111111111111000000000000000000000000000000000 \
b0000000000000000000000000000000000111111111111111111111111111000 t
b000111111111111111111111111111000000000000000000000000000000000000000000000000000000000000000000001111111111111111111111111110000001111111111111111111111111110000000000000000000000000000000000 l
b0001111111111111111111111111110000000000000000000000000000000000 v
b0000000000000000000000000000000000111111111111111111111111111000 r
b0000000000000000000000000000000000111111111111111111111111111000 z
b0000000000000000000000000000010000000000000000000000000000000000 w
b0000000000000000000000000000000000000000000000000000000000001000 s
b0000000000000000000000000000000000100000000000000000000000000000 u
b0001000000000000000000000000000000000000000000000000000000000000 q
b0000111111111111111111111111110000000000000000000000000000000000 x
b000100000000000000000000000000000000000000000000000000000000000000000000000000000000000000000000001000000000000000000000000000000001000000000000000000000000000000000000000000000000000000000000 n
b000100000000000000000000000000000000000000000000000000000000000000000000000000000000000000000010000000000000000000000000000000000001000000000000000000000000000000000000000000000000000000000000 j
b000100000000000000000000000000000000000000000000000000000000000000000000000000000000000000000010000000000000000000000000000000000001000000000000000000000000000000000000000000000000000000000000 a
b0001000000000000000000000000000000000000000000000000000000000000 |
b0001000000000000000000000000001000000000000000000000000000000000 i
b000000000000000000000000000000000000000000000000000000000000100000000000000000000000000000000100000000000000000000000000000000000000000000000000000000000000000000000000000000000000000000001000 o
b0000000000000000000000000000000000111111111111111111111111110000 z
b000100000000000000000000000000000000000000000000000000000000000000000000000000000000000000000100000000000000000000000000000000000001000000000000000000000000000000000000000000000000000000000000 j
b000100000000000000000000000000000000000000000000000000000000000000000000000000000000000000000100000000000000000000000000000000000001000000000000000000000000000000000000000000000000000000000000 a
b0000000000000000000000000000010000000000000000000000000000000000 ~
b0001000000000000000000000000010000000000000000000000000000000000 i
b0000000000000000000000000000000000000000000000000000000000010000 {
b000011111111111111111111111111000000000000000000000000000000000000000000000000000000000000000000001111111111111111111111111110000001111111111111111111111111110000000000000000000000000000000000 l
b0001000000000000000000000000010000000000000000000000000000000000 `
b0000111111111111111111111111100000000000000000000000000000000000 \
b0000100000000000000000000000000000000000000000000000000000000000 y
b000010000000000000000000000000000000000000000000000000000000000000000000000000000000000000000100000000000000000000000000000000000001000000000000000000000000000000000000000000000000000000000000 j
b000010000000000000000000000000000000000000000000000000000000000000000000000000000000000000000100000000000000000000000000000000000001000000000000000000000000000000000000000000000000000000000000 a
b0000100000000000000000000000000000000000000000000000000000000000 ""
b0001100000000000000000000000010000000000000000000000000000000000 i
b000000000000000000000000000000000000000000000000000000000001000000000000000000000000000000000100000000000000000000000000000000000000000000000000000000000000000000000000000000000000000000001000 o
b000010000000000000000000000000000000000000000000000000000000000000000000000000000000000000000000001000000000000000000000000000000001000000000000000000000000000000000000000000000000000000000000 n
b111100 }
b100010 "!
b111100100010111100 b
b000000100010111100 Y
b000000100010111100 ,
b111011 "#
b111011100010111100 b
#1800
0!
0M
b00 %
b00 Q
b000000000000000000000000000000000000 &
b000000000000000000000000000000000000 R
b000000 0
b000000000000000000 1
b00000000000000000000000000000011 6
b000000000000000000 Y
b000000000000000000 ,
b0000000000000000000000000000000000000000000000000000000000000000 `
b0011011 e
b0001111111111111111111111111110000000000000000000000000000000000 \
b000000 X
b000000 +
#1950
1!
1M
