uploads/frizzy.vcd
$date
	Mon Nov  4 18:27:33 2024
$end

$version
	Synopsys VCS version V-2023.12-SP2-1_Full64
$end

$timescale
	100ps
$end

$comment Csum: 1 548a42e20997a220 $end


$scope module testbench $end
$var reg 1 ! clock $end
$var reg 1 " reset $end
$var reg 1 # branch_mispredict $end
$var reg 3 $ branch_idx [2:0] $end
$var reg 2 % num_dispatch [1:0] $end
$var reg 36 & dispatch_complete_req [35:0] $end
$var reg 18 ' rob_complete_req [17:0] $end
$var reg 18 ( T_old [17:0] $end
$var reg 18 ) cdb [17:0] $end
$var reg 3 * rob_completed [2:0] $end
$var reg 6 + dispatch_completed [5:0] $end
$var reg 18 , free_PR [17:0] $end
$var reg 2 - open_spots [1:0] $end
$var reg 7 . available_spots_out [6:0] $end
$var reg 3 / rob_completed_CORRECT [2:0] $end
$var reg 6 0 dispatch_completed_CORRECT [5:0] $end
$var reg 18 1 free_PR_CORRECT [17:0] $end
$var reg 7 2 available_spots_CORRECT [6:0] $end
$var reg 64 3 ready_list_test [63:0] $end
$var reg 64 4 free_list_test [63:0] $end
$var reg 32 5 pr_ind [31:0] $end
$var reg 32 6 dispatch_size [31:0] $end
$var reg 32 7 complete_size [31:0] $end
$var reg 32 8 retire_size [31:0] $end
$var reg 32 9 num_completed [31:0] $end
$var reg 32 : cycle_counter [31:0] $end

$scope task exit_on_error $end
$var reg 1 ; clock $end
$var reg 1 < reset $end
$var reg 6 = available_spots_CORRECT [5:0] $end

$scope begin unnamed$$_0 $end
$upscope $end

$upscope $end


$scope task assert_correct_neg $end
$var reg 6 > available_spots [5:0] $end
$var reg 6 ? available_spots_CORRECT [5:0] $end
$var reg 3 @ rob_completed [2:0] $end
$var reg 3 A rob_completed_CORRECT [2:0] $end
$var reg 6 B dispatch_completed [5:0] $end
$var reg 6 C dispatch_completed_CORRECT [5:0] $end
$var reg 18 D free_PR [17:0] $end
$var reg 18 E free_PR_CORRECT [17:0] $end
$upscope $end


$scope task assert_correct_pos $end
$upscope $end


$scope task assert_checkpoint $end

$scope begin unnamed$$_0 $end
$upscope $end

$upscope $end


$scope task reset_inputs $end

$scope begin unnamed$$_0 $end
$upscope $end

$upscope $end


$scope task print_frizzy_table_entries $end

$scope begin unnamed$$_0 $end
$upscope $end

$upscope $end


$scope task print_free_PR $end

$scope begin unnamed$$_0 $end
$upscope $end

$upscope $end


$scope task dispatch_k_instructions $end
$var reg 2 F k [1:0] $end

$scope begin unnamed$$_0 $end

$scope begin unnamed$$_1 $end
$upscope $end


$scope begin unnamed$$_2 $end
$upscope $end


$scope begin unnamed$$_3 $end
$upscope $end

$upscope $end

$upscope $end


$scope task complete_k_instructions $end
$var reg 2 G k [1:0] $end

$scope begin unnamed$$_0 $end

$scope begin unnamed$$_1 $end
$upscope $end

$upscope $end

$upscope $end


$scope task retire_k_instructions $end
$var reg 2 H k [1:0] $end

$scope begin unnamed$$_0 $end

$scope begin unnamed$$_1 $end
$upscope $end

$upscope $end

$upscope $end

$var reg 128 I branch_recover [127:0] $end
$var reg 128 J checkpoint [127:0] $end
$var reg 128 K checkpoint_CORRECT [127:0] $end

$scope begin unnamed$$_0 $end
$upscope $end


$scope begin unnamed$$_1 $end
$upscope $end


$scope module DUT $end
$var reg 64 L ready_bits [63:0] $end
$var reg 64 M free_list [63:0] $end
$var wire 1 N clock $end
$var wire 1 O reset $end
$var wire 1 P branch_mispredict $end
$var wire 3 Q branch_idx [2:0] $end
$var wire 2 R num_dispatch [1:0] $end
$var reg 36 S dispatch_complete_req [35:0] $end
$var reg 18 T T_old [17:0] $end
$var reg 18 U rob_complete_req [17:0] $end
$var reg 18 V cdb [17:0] $end
$var reg 7 W available_spots_out [6:0] $end
$var reg 3 X rob_completed [2:0] $end
$var reg 6 Y dispatch_completed [5:0] $end
$var reg 18 Z free_PR [17:0] $end
$var reg 2 [ open_spots [1:0] $end
$var reg 64 \ ready_bits_n [63:0] $end
$var reg 64 ] free_list_n [63:0] $end
$var reg 64 ^ free_list_retired [63:0] $end
$var wor 64 _ chkpt_ready_bits [63:0] $end
$var wor 64 ` chkpt_free_list [63:0] $end
$var reg 64 a gnt [63:0] $end
$var reg 192 b gnt_bus [191:0] $end
$var reg 18 c encoder_free_list [17:0] $end
$var reg 7 d num_free_regs [6:0] $end
$var reg 7 e num_free_regs_retire [6:0] $end
$var reg 7 f num_free_regs_n [6:0] $end
$var reg 128 g branch_recover [127:0] $end
$var reg 128 h checkpoint [127:0] $end

$scope begin unnamed$$_0 $end
$upscope $end


$scope begin unnamed$$_1 $end
$upscope $end


$scope begin unnamed$$_2 $end
$upscope $end


$scope begin unnamed$$_3 $end
$upscope $end


$scope begin unnamed$$_4 $end

$scope begin unnamed$$_5 $end
$upscope $end

$upscope $end


$scope begin unnamed$$_6 $end
$upscope $end


$scope begin unnamed$$_7 $end

$scope begin unnamed$$_8 $end
$upscope $end

$upscope $end


$scope begin unnamed$$_9 $end

$scope begin unnamed$$_10 $end

$scope begin unnamed$$_11 $end
$upscope $end

$upscope $end

$upscope $end


$scope begin unnamed$$_12 $end
$upscope $end


$scope begin unnamed$$_13 $end
$upscope $end


$scope module psel $end
$var wire 64 i req [63:0] $end
$var wor 64 j gnt [63:0] $end
$var wand 192 k gnt_bus [191:0] $end
$var wire 1 l empty $end
$var wire 192 m tmp_reqs [191:0] $end
$var wire 192 n tmp_reqs_rev [191:0] $end
$var wire 192 o tmp_gnts [191:0] $end
$var wire 192 p tmp_gnts_rev [191:0] $end

$scope module foo[0].psel $end
$var wire 64 q req [63:0] $end
$var wand 64 r gnt [63:0] $end
$var wire 64 s req_r [63:0] $end
$var wand 64 t gnt_r [63:0] $end
$upscope $end


$scope module foo[1].psel $end
$var wire 64 u req [63:0] $end
$var wand 64 v gnt [63:0] $end
$var wire 64 w req_r [63:0] $end
$var wand 64 x gnt_r [63:0] $end
$upscope $end


$scope module foo[2].psel $end
$var wire 64 y req [63:0] $end
$var wand 64 z gnt [63:0] $end
$var wire 64 { req_r [63:0] $end
$var wand 64 | gnt_r [63:0] $end
$upscope $end

$upscope $end


$scope module psels[0].encoded_PR $end
$var wire 64 } one_hot_in [63:0] $end
$var wor 6 ~ num_out [5:0] $end
$upscope $end


$scope module psels[1].encoded_PR $end
$var wire 64 "! one_hot_in [63:0] $end
$var wor 6 "" num_out [5:0] $end
$upscope $end


$scope module psels[2].encoded_PR $end
$var wire 64 "# one_hot_in [63:0] $end
$var wor 6 "$ num_out [5:0] $end
$upscope $end

$upscope $end

$upscope $end

$enddefinitions $end

#0
$dumpvars
0#
0!
x;
x<
1"
b000000000000000000 (
bxxxxxxxxxxxxxxxxxxxxxxxxxxxxxxxxxxxxxxxxxxxxxxxxxxxxxxxxxxxxxxxxxxxxxxxxxxxxxxxxxxxxxxxxxxxxxxxxxxxxxxxxxxxxxxxxxxxxxxxxxxxxxxxx I
b000000000000000000 )
bxxxxxxxxxxxxxxxxxxxxxxxxxxxxxxxxxxxxxxxxxxxxxxxxxxxxxxxxxxxxxxxxxxxxxxxxxxxxxxxxxxxxxxxxxxxxxxxxxxxxxxxxxxxxxxxxxxxxxxxxxxxxxxxx K
bxxxxxxxxxxxxxxxxxxxxxxxxxxxxxxxxxxxxxxxxxxxxxxxxxxxxxxxxxxxxxxxxxxxxxxxxxxxxxxxxxxxxxxxxxxxxxxxxxxxxxxxxxxxxxxxxxxxxxxxxxxxxxxxx J
b000000000000000000000000000000000000 &
b000000 +
b000000 0
b000000000000000000 ,
b000000000000000000 1
b000000000000000000 '
bxxxxxx B
bxxxxxx C
bxxxxxxxxxxxxxxxxxx D
bxxxxxxxxxxxxxxxxxx E
bxxxxxx >
bxxxxxx ?
bxxx @
bxxx A
b0100000 2
bxxxxxxx .
b000 $
bxx G
bxx F
bxxxxxx =
b1111111111111111111111111111111100000000000000000000000000000000 4
b00 %
bxx -
b0000000000000000000000000000000011111111111111111111111111111111 3
bxx H
b000 *
b000 /
b00000000000000000000000000000011 7
b00000000000000000000000000000000 :
b00000000000000000000000000000011 6
b00000000000000000000000000100000 9
b00000000000000000000000000000001 5
b00000000000000000000000000000011 8
xl
b000000000000000000 T
bxxxxxxxxxxxxxxxxxxxxxxxxxxxxxxxxxxxxxxxxxxxxxxxxxxxxxxxxxxxxxxxxxxxxxxxxxxxxxxxxxxxxxxxxxxxxxxxxxxxxxxxxxxxxxxxxxxxxxxxxxxxxxxxx g
b000000000000000000 V
bxxxxxxxxxxxxxxxxxxxxxxxxxxxxxxxxxxxxxxxxxxxxxxxxxxxxxxxxxxxxxxxxxxxxxxxxxxxxxxxxxxxxxxxxxxxxxxxxxxxxxxxxxxxxxxxxxxxxxxxxxxxxxxxx h
b000000000000000000000000000000000000 S
b000000 Y
bxxxxxxxxxxxxxxxxxx c
b000000000000000000 Z
bxxxxxxxxxxxxxxxxxxxxxxxxxxxxxxxxxxxxxxxxxxxxxxxxxxxxxxxxxxxxxxxxxxxxxxxxxxxxxxxxxxxxxxxxxxxxxxxxxxxxxxxxxxxxxxxxxxxxxxxxxxxxxxxxxxxxxxxxxxxxxxxxxxxxxxxxxxxxxxxxxxxxxxxxxxxxxxxxxxxxxxxxxxxxxxxx b
b000000000000000000 U
bxxxxxxx W
bzzzzzzzzzzzzzzzzzzzzzzzzzzzzzzzzzzzzzzzzzzzzzzzzzzzzzzzzzzzzzzzz `
bzzzzzzzzzzzzzzzzzzzzzzzzzzzzzzzzzzzzzzzzzzzzzzzzzzzzzzzzzzzzzzzz _
bxxxxxxxxxxxxxxxxxxxxxxxxxxxxxxxxxxxxxxxxxxxxxxxxxxxxxxxxxxxxxxxx M
bxxxxxxxxxxxxxxxxxxxxxxxxxxxxxxxxxxxxxxxxxxxxxxxxxxxxxxxxxxxxxxxx ]
bxxxxxxxxxxxxxxxxxxxxxxxxxxxxxxxxxxxxxxxxxxxxxxxxxxxxxxxxxxxxxxxx ^
b0000000000000000000000000000000000000000000000000000000000000000 a
bxxxxxxxxxxxxxxxxxxxxxxxxxxxxxxxxxxxxxxxxxxxxxxxxxxxxxxxxxxxxxxxxxxxxxxxxxxxxxxxxxxxxxxxxxxxxxxxxxxxxxxxxxxxxxxxxxxxxxxxxxxxxxxxxxxxxxxxxxxxxxxxxxxxxxxxxxxxxxxxxxxxxxxxxxxxxxxxxxxxxxxxxxxxxxxxx k
bxxxxxxx d
bxxxxxxx f
bxxxxxxx e
bxx [
bxxxxxxxxxxxxxxxxxxxxxxxxxxxxxxxxxxxxxxxxxxxxxxxxxxxxxxxxxxxxxxxx j
bxxxxxxxxxxxxxxxxxxxxxxxxxxxxxxxxxxxxxxxxxxxxxxxxxxxxxxxxxxxxxxxx L
bxxxxxxxxxxxxxxxxxxxxxxxxxxxxxxxxxxxxxxxxxxxxxxxxxxxxxxxxxxxxxxxx \
bxxxxxxxxxxxxxxxxxxxxxxxxxxxxxxxxxxxxxxxxxxxxxxxxxxxxxxxxxxxxxxxx i
b000 X
bxxxxxxxxxxxxxxxxxxxxxxxxxxxxxxxxxxxxxxxxxxxxxxxxxxxxxxxxxxxxxxxxxxxxxxxxxxxxxxxxxxxxxxxxxxxxxxxxxxxxxxxxxxxxxxxxxxxxxxxxxxxxxxxxxxxxxxxxxxxxxxxxxxxxxxxxxxxxxxxxxxxxxxxxxxxxxxxxxxxxxxxxxxxxxxxx p
bzzzzzzzzzzzzzzzzzzzzzzzzzzzzzzzzzzzzzzzzzzzzzzzzzzzzzzzzzzzzzzzzzzzzzzzzzzzzzzzzzzzzzzzzzzzzzzzzzzzzzzzzzzzzzzzzzzzzzzzzzzzzzzzzzzzzzzzzzzzzzzzzzzzzzzzzzzzzzzzzzzzzzzzzzzzzzzzzzzzzzzzzzzzzzzzz n
bxxxxxxxxxxxxxxxxxxxxxxxxxxxxxxxxxxxxxxxxxxxxxxxxxxxxxxxxxxxxxxxx t
bxxxxxxxxxxxxxxxxxxxxxxxxxxxxxxxxxxxxxxxxxxxxxxxxxxxxxxxxxxxxxxxx s
bxxxxxxxxxxxxxxxxxxxxxxxxxxxxxxxxxxxxxxxxxxxxxxxxxxxxxxxxxxxxxxxx x
bxxxxxxxxxxxxxxxxxxxxxxxxxxxxxxxxxxxxxxxxxxxxxxxxxxxxxxxxxxxxxxxx w
bxxxxxxxxxxxxxxxxxxxxxxxxxxxxxxxxxxxxxxxxxxxxxxxxxxxxxxxxxxxxxxxx |
bxxxxxxxxxxxxxxxxxxxxxxxxxxxxxxxxxxxxxxxxxxxxxxxxxxxxxxxxxxxxxxxx {
bxxxxxx ~
bxxxxxx ""
bxxxxxx "$
0N
1O
0P
b000 Q
b00 R
bxxxxxxxxxxxxxxxxxxxxxxxxxxxxxxxxxxxxxxxxxxxxxxxxxxxxxxxxxxxxxxxxxxxxxxxxxxxxxxxxxxxxxxxxxxxxxxxxxxxxxxxxxxxxxxxxxxxxxxxxxxxxxxxxxxxxxxxxxxxxxxxxxxxxxxxxxxxxxxxxxxxxxxxxxxxxxxxxxxxxxxxxxxxxxxxx m
bxxxxxxxxxxxxxxxxxxxxxxxxxxxxxxxxxxxxxxxxxxxxxxxxxxxxxxxxxxxxxxxxxxxxxxxxxxxxxxxxxxxxxxxxxxxxxxxxxxxxxxxxxxxxxxxxxxxxxxxxxxxxxxxxxxxxxxxxxxxxxxxxxxxxxxxxxxxxxxxxxxxxxxxxxxxxxxxxxxxxxxxxxxxxxxxx o
bxxxxxxxxxxxxxxxxxxxxxxxxxxxxxxxxxxxxxxxxxxxxxxxxxxxxxxxxxxxxxxxx q
bxxxxxxxxxxxxxxxxxxxxxxxxxxxxxxxxxxxxxxxxxxxxxxxxxxxxxxxxxxxxxxxx r
bxxxxxxxxxxxxxxxxxxxxxxxxxxxxxxxxxxxxxxxxxxxxxxxxxxxxxxxxxxxxxxxx y
bxxxxxxxxxxxxxxxxxxxxxxxxxxxxxxxxxxxxxxxxxxxxxxxxxxxxxxxxxxxxxxxx z
bxxxxxxxxxxxxxxxxxxxxxxxxxxxxxxxxxxxxxxxxxxxxxxxxxxxxxxxxxxxxxxxx }
bxxxxxxxxxxxxxxxxxxxxxxxxxxxxxxxxxxxxxxxxxxxxxxxxxxxxxxxxxxxxxxxx "!
bxxxxxxxxxxxxxxxxxxxxxxxxxxxxxxxxxxxxxxxxxxxxxxxxxxxxxxxxxxxxxxxx "#
bxxxxxxxxxxxxxxxxxxxxxxxxxxxxxxxxxxxxxxxxxxxxxxxxxxxxxxxxxxxxxxxx u
bxxxxxxxxxxxxxxxxxxxxxxxxxxxxxxxxxxxxxxxxxxxxxxxxxxxxxxxxxxxxxxxx v
$end
#150
1!
1N
b0000000000000000000000000000000011111111111111111111111111111111 L
b1111111111111111111111111111111100000000000000000000000000000000 M
b0100000 d
b00000000000000000000000000000001 :
b0100000 e
b0100000 W
b0100000 .
b11 [
b0100000 f
b00000000000000000000000000000000111111111111111111111111111111111111111111111111111111111111111100000000000000000000000000000000 h
b00000000000000000000000000000000111111111111111111111111111111111111111111111111111111111111111100000000000000000000000000000000 J
b1111111111111111111111111111111100000000000000000000000000000000 ^
b1111111111111111111111111111111100000000000000000000000000000000 i
b1111111111111111111111111111111100000000000000000000000000000000 q
bxxxxxxxxxxxxxxxxxxxxxxxxxxxxxxxx00000000000000000000000000000000 y
0l
b1111111111111111111111111111111100000000000000000000000000000000 ]
b0000000000000000000000000000000011111111111111111111111111111111 \
b11 -
b0000000000000000000000000000000011111111111111111111111111111111 u
bxxxxxxxxxxxxxxxxxxxxxxxxxxxxxxxx0000000000000000000000000000000000000000000000000000000000000000111111111111111111111111111111111111111111111111111111111111111100000000000000000000000000000000 m
b1111111111111111111111111111111100000000000000000000000000000000 w
b0000000000000000000000000000000011111111111111111111111111111111 s
b00000000000000000000000000000000xxxxxxxxxxxxxxxxxxxxxxxxxxxxxxxx {
b0000000000000000000000000000000000000000000000000000000000000001 t
b00000000000000000000000000000000xxxxxxxxxxxxxxxxxxxxxxxxxxxxxxxx |
b0000000000000000000000000000000100000000000000000000000000000000 x
b1000000000000000000000000000000000000000000000000000000000000000 r
b0111111111111111111111111111111100000000000000000000000000000000 y
bxxxxxxxxxxxxxxxxxxxxxxxxxxxxxxxx00000000000000000000000000000000 z
b0000000000000000000000000000000010000000000000000000000000000000 v
bxxxxxxxxxxxxxxxxxxxxxxxxxxxxxxxx0000000000000000000000000000000000000000000000000000000000000000100000000000000000000000000000001000000000000000000000000000000000000000000000000000000000000000 o
bxxxxxxxxxxxxxxxxxxxxxxxxxxxxxxxx00000000000000000000000000000000xxxxxxxxxxxxxxxxxxxxxxxxxxxxxxxxxxxxxxxxxxxxxxxxxxxxxxxxxxxxxxxx1000000000000000000000000000000000000000000000000000000000000000 k
bxxxxxxxxxxxxxxxxxxxxxxxxxxxxxxxx00000000000000000000000000000000xxxxxxxxxxxxxxxxxxxxxxxxxxxxxxxxxxxxxxxxxxxxxxxxxxxxxxxxxxxxxxxx1000000000000000000000000000000000000000000000000000000000000000 b
bxxxxxxxxxxxxxxxxxxxxxxxxxxxxxxxx00000000000000000000000000000000 "#
b1000000000000000000000000000000000000000000000000000000000000000 }
b1xxxxxxxxxxxxxxxxxxxxxxxxxxxxxxxxxxxxxxxxxxxxxxxxxxxxxxxxxxxxxxx j
bxxxxxxxxxxxxxxxxxxxxxxxxxxxxxxxx000000000000000000000000000000000xxxxxxxxxxxxxxxxxxxxxxxxxxxxxxxxxxxxxxxxxxxxxxxxxxxxxxxxxxxxxxx1000000000000000000000000000000000000000000000000000000000000000 k
bxxxxxxxxxxxxxxxxxxxxxxxxxxxxxxxx000000000000000000000000000000000xxxxxxxxxxxxxxxxxxxxxxxxxxxxxxxxxxxxxxxxxxxxxxxxxxxxxxxxxxxxxxx1000000000000000000000000000000000000000000000000000000000000000 b
b0xxxxxxxxxxxxxxxxxxxxxxxxxxxxxxxxxxxxxxxxxxxxxxxxxxxxxxxxxxxxxxx "!
b00000000000000000000000000000000xxxxxxxxxxxxxxxxxxxxxxxxxxxxxxxx00000000000000000000000000000001000000000000000000000000000000000000000000000000000000000000000000000000000000000000000000000001 p
b0000000000000000000000000000000011111111111111111111111111111110 {
bxxxxxxxxxxxxxxxxxxxxxxxxxxxxxxxx0000000000000000000000000000000000000000000000000000000000000001000000000000000000000000000000001000000000000000000000000000000000000000000000000000000000000000 k
bxxxxxxxxxxxxxxxxxxxxxxxxxxxxxxxx0000000000000000000000000000000000000000000000000000000000000001000000000000000000000000000000001000000000000000000000000000000000000000000000000000000000000000 b
b0000000000000000000000000000000100000000000000000000000000000000 "!
b1xxxxxxxxxxxxxxxxxxxxxxxxxxxxxx100000000000000000000000000000000 j
bxxxxxxxxxxxxxxxxxxxxxxxxxxxxxxx00000000000000000000000000000000000000000000000000000000000000001000000000000000000000000000000001000000000000000000000000000000000000000000000000000000000000000 k
bxxxxxxxxxxxxxxxxxxxxxxxxxxxxxxx00000000000000000000000000000000000000000000000000000000000000001000000000000000000000000000000001000000000000000000000000000000000000000000000000000000000000000 b
bxxxxxxxxxxxxxxxxxxxxxxxxxxxxxxx000000000000000000000000000000000 "#
b0000000000000000000000000000000000000000000000000000000000000010 |
b011111111111111111111111111111110000000000000000000000000000000000000000000000000000000000000000111111111111111111111111111111111111111111111111111111111111111100000000000000000000000000000000 m
b0100000000000000000000000000000000000000000000000000000000000000 z
b1111xx ~
b1000xx ""
b010000000000000000000000000000000000000000000000000000000000000000000000000000000000000000000001000000000000000000000000000000001000000000000000000000000000000000000000000000000000000000000000 k
b010000000000000000000000000000000000000000000000000000000000000000000000000000000000000000000001000000000000000000000000000000001000000000000000000000000000000000000000000000000000000000000000 b
b0100000000000000000000000000000000000000000000000000000000000000 "#
bxxxxxx1000xx1111xx c
b1100000000000000000000000000000100000000000000000000000000000000 j
b000000000000000000000000000000000000000000000000000000000000001000000000000000000000000000000001000000000000000000000000000000000000000000000000000000000000000000000000000000000000000000000001 p
b010000000000000000000000000000000000000000000000000000000000000000000000000000000000000000000000100000000000000000000000000000001000000000000000000000000000000000000000000000000000000000000000 o
b111111 ~
b100000 ""
bxxxxxx100000111111 c
b111110 "$
b111110100000111111 c
#300
0!
0N
#450
1!
1N
b00000000000000000000000000000010 :
#600
0!
0N
0"
0O
#750
1!
1N
b00000000000000000000000000000011 :
#900
0!
0N
#920
b100000 >
b100000 ?
b000 @
b000 A
b000000 B
b000000 C
b000000000000000000 D
b000000000000000000 E
#1050
1!
1N
b00000000000000000000000000000100 :
#1200
0!
0N
b11 F
b11 %
b11 R
b000000000000000000000000000010000001 &
b000000000000000000000000000010000001 S
b000011 0
b00000000000000000000000000000011 5
b000000000000111111 1
b0111111111111111111111111111111100000000000000000000000000000000 4
b000000000000000100000011000010000001 &
b000000000000000100000011000010000001 S
b001111 0
b00000000000000000000000000000101 5
b000000100000111111 1
b0111111111111111111111111111111000000000000000000000000000000000 4
b000110000101000100000011000010000001 &
b000110000101000100000011000010000001 S
b111111 0
b00000000000000000000000000000111 5
b111110100000111111 1
b0011111111111111111111111111111000000000000000000000000000000000 4
b111110100000111111 Z
b111110100000111111 ,
b1100000000000000000000000000000100000000000000000000000000000000 a
b0011101 f
b0011111111111111111111111111111000000000000000000000000000000000 ]
b111111 Y
b111111 +
#1220
b111111 B
b111111 C
b111110100000111111 D
b111110100000111111 E
b0011101 2
#1350
1!
1N
b0011111111111111111111111111111000000000000000000000000000000000 M
b0011101 d
b00000000000000000000000000000101 :
b0011101 e
b0011101 W
b0011101 .
b0011010 f
b00000000000000000000000000000000111111111111111111111111111111110011111111111111111111111111111000000000000000000000000000000000 h
b00000000000000000000000000000000111111111111111111111111111111110011111111111111111111111111111000000000000000000000000000000000 J
b0011111111111111111111111111111000000000000000000000000000000000 ^
b0011111111111111111111111111111000000000000000000000000000000000 i
b0011111111111111111111111111111000000000000000000000000000000000 q
b0011111111111111111111111111111000000000000000000000000000000000 y
b1111111111111111111111111111111100000000000000000000000000000000 ]
b0000000000000000000000000000000001111111111111111111111111111100 u
b001111111111111111111111111111100000000000000000000000000000000000000000000000000000000000000000011111111111111111111111111111000011111111111111111111111111111000000000000000000000000000000000 m
b0011111111111111111111111111111000000000000000000000000000000000 w
b0000000000000000000000000000000001111111111111111111111111111100 s
b0000000000000000000000000000000001111111111111111111111111111100 {
b0000000000000000000000000000001000000000000000000000000000000000 x
b0000000000000000000000000000000000000000000000000000000000000100 t
b0000000000000000000000000000000000000000000000000000000000000100 |
b0000000000000000000000000000000001000000000000000000000000000000 v
b0010000000000000000000000000000000000000000000000000000000000000 r
b0001111111111111111111111111111000000000000000000000000000000000 y
b0010000000000000000000000000000000000000000000000000000000000000 z
b001000000000000000000000000000000000000000000000000000000000000000000000000000000000000000000000010000000000000000000000000000000010000000000000000000000000000000000000000000000000000000000000 o
b001000000000000000000000000000000000000000000000000000000000000000000000000000000000000000000001000000000000000000000000000000000010000000000000000000000000000000000000000000000000000000000000 k
b001000000000000000000000000000000000000000000000000000000000000000000000000000000000000000000001000000000000000000000000000000000010000000000000000000000000000000000000000000000000000000000000 b
b0010000000000000000000000000000000000000000000000000000000000000 "#
b0010000000000000000000000000000000000000000000000000000000000000 }
b0010000000000000000000000000000100000000000000000000000000000000 j
b000000000000000000000000000000000000000000000000000000000000010000000000000000000000000000000010000000000000000000000000000000000000000000000000000000000000000000000000000000000000000000000100 p
b0000000000000000000000000000000001111111111111111111111111111000 {
b001000000000000000000000000000000000000000000000000000000000000000000000000000000000000000000010000000000000000000000000000000000010000000000000000000000000000000000000000000000000000000000000 k
b001000000000000000000000000000000000000000000000000000000000000000000000000000000000000000000010000000000000000000000000000000000010000000000000000000000000000000000000000000000000000000000000 b
b0000000000000000000000000000001000000000000000000000000000000000 "!
b0010000000000000000000000000001000000000000000000000000000000000 j
b0000000000000000000000000000000000000000000000000000000000001000 |
b000111111111111111111111111111100000000000000000000000000000000000000000000000000000000000000000011111111111111111111111111111000011111111111111111111111111111000000000000000000000000000000000 m
b0010000000000000000000000000001000000000000000000000000000000000 a
b0001111111111111111111111111110000000000000000000000000000000000 ]
b0001000000000000000000000000000000000000000000000000000000000000 z
b000100000000000000000000000000000000000000000000000000000000000000000000000000000000000000000010000000000000000000000000000000000010000000000000000000000000000000000000000000000000000000000000 k
b000100000000000000000000000000000000000000000000000000000000000000000000000000000000000000000010000000000000000000000000000000000010000000000000000000000000000000000000000000000000000000000000 b
b0001000000000000000000000000000000000000000000000000000000000000 "#
b0011000000000000000000000000001000000000000000000000000000000000 j
b000000000000000000000000000000000000000000000000000000000000100000000000000000000000000000000010000000000000000000000000000000000000000000000000000000000000000000000000000000000000000000000100 p
b000100000000000000000000000000000000000000000000000000000000000000000000000000000000000000000000010000000000000000000000000000000010000000000000000000000000000000000000000000000000000000000000 o
b111101 "$
b111101 ~
b100001 ""
b0011000000000000000000000000001000000000000000000000000000000000 a
b0000111111111111111111111111110000000000000000000000000000000000 ]
b111101100001111101 c
b111101100001111101 Z
b111101100001111101 ,
b111100 "$
b111100100001111101 c
b111100100001111101 Z
b111100100001111101 ,
#1500
0!
0N
b00 %
b00 R
b000000000000000000000000000000000000 &
b000000000000000000000000000000000000 S
b000000 0
b000000000000000000 1
b00000000000000000000000000000010 6
b10 F
b10 %
b10 R
b000000000000000000000000001000000111 &
b000000000000000000000000001000000111 S
b000011 0
b00000000000000000000000000001001 5
b000000000000111101 1
b0001111111111111111111111111111000000000000000000000000000000000 4
b000000000000001010001001001000000111 &
b000000000000001010001001001000000111 S
b001111 0
b00000000000000000000000000001011 5
b000000100001111101 1
b0001111111111111111111111111110000000000000000000000000000000000 4
b000000100001111101 Z
b000000100001111101 ,
b0010000000000000000000000000001000000000000000000000000000000000 a
b0011011 f
b0001111111111111111111111111110000000000000000000000000000000000 ]
b001111 Y
b001111 +
#1520
b011101 >
b011101 ?
b001111 B
b001111 C
b000000100001111101 D
b000000100001111101 E
b0011011 2
#1650
1!
1N
b0001111111111111111111111111110000000000000000000000000000000000 M
b0011011 d
b00000000000000000000000000000110 :
b0011011 e
b0011011 W
b0011011 .
b0011001 f
b00000000000000000000000000000000111111111111111111111111111111110001111111111111111111111111110000000000000000000000000000000000 h
b00000000000000000000000000000000111111111111111111111111111111110001111111111111111111111111110000000000000000000000000000000000 J
b0001111111111111111111111111110000000000000000000000000000000000 ^
b0001111111111111111111111111110000000000000000000000000000000000 i
b0001111111111111111111111111110000000000000000000000000000000000 q
b0001111111111111111111111111110000000000000000000000000000000000 y
b0011111111111111111111111111111000000000000000000000000000000000 ]
b0000000000000000000000000000000000111111111111111111111111111000 u
b000111111111111111111111111111000000000000000000000000000000000000000000000000000000000000000000001111111111111111111111111110000001111111111111111111111111110000000000000000000000000000000000 m
b0001111111111111111111111111110000000000000000000000000000000000 w
b0000000000000000000000000000000000111111111111111111111111111000 s
b0000000000000000000000000000000000111111111111111111111111111000 {
b0000000000000000000000000000010000000000000000000000000000000000 x
b0000000000000000000000000000000000000000000000000000000000001000 t
b0000000000000000000000000000000000100000000000000000000000000000 v
b0001000000000000000000000000000000000000000000000000000000000000 r
b0000111111111111111111111111110000000000000000000000000000000000 y
b000100000000000000000000000000000000000000000000000000000000000000000000000000000000000000000000001000000000000000000000000000000001000000000000000000000000000000000000000000000000000000000000 o
b000100000000000000000000000000000000000000000000000000000000000000000000000000000000000000000010000000000000000000000000000000000001000000000000000000000000000000000000000000000000000000000000 k
b000100000000000000000000000000000000000000000000000000000000000000000000000000000000000000000010000000000000000000000000000000000001000000000000000000000000000000000000000000000000000000000000 b
b0001000000000000000000000000000000000000000000000000000000000000 }
b0001000000000000000000000000001000000000000000000000000000000000 j
b000000000000000000000000000000000000000000000000000000000000100000000000000000000000000000000100000000000000000000000000000000000000000000000000000000000000000000000000000000000000000000001000 p
b0000000000000000000000000000000000111111111111111111111111110000 {
b000100000000000000000000000000000000000000000000000000000000000000000000000000000000000000000100000000000000000000000000000000000001000000000000000000000000000000000000000000000000000000000000 k
b000100000000000000000000000000000000000000000000000000000000000000000000000000000000000000000100000000000000000000000000000000000001000000000000000000000000000000000000000000000000000000000000 b
b0000000000000000000000000000010000000000000000000000000000000000 "!
b0001000000000000000000000000010000000000000000000000000000000000 j
b0000000000000000000000000000000000000000000000000000000000010000 |
b000011111111111111111111111111000000000000000000000000000000000000000000000000000000000000000000001111111111111111111111111110000001111111111111111111111111110000000000000000000000000000000000 m
b0001000000000000000000000000010000000000000000000000000000000000 a
b0000111111111111111111111111100000000000000000000000000000000000 ]
b0000100000000000000000000000000000000000000000000000000000000000 z
b000010000000000000000000000000000000000000000000000000000000000000000000000000000000000000000100000000000000000000000000000000000001000000000000000000000000000000000000000000000000000000000000 k
b000010000000000000000000000000000000000000000000000000000000000000000000000000000000000000000100000000000000000000000000000000000001000000000000000000000000000000000000000000000000000000000000 b
b0000100000000000000000000000000000000000000000000000000000000000 "#
b0001100000000000000000000000010000000000000000000000000000000000 j
b000000000000000000000000000000000000000000000000000000000001000000000000000000000000000000000100000000000000000000000000000000000000000000000000000000000000000000000000000000000000000000001000 p
b000010000000000000000000000000000000000000000000000000000000000000000000000000000000000000000000001000000000000000000000000000000001000000000000000000000000000000000000000000000000000000000000 o
b111100 ~
b100010 ""
b111100100010111100 c
b000000100010111100 Z
b000000100010111100 ,
b111011 "$
b111011100010111100 c
#1800
0!
0N
b00 %
b00 R
b000000000000000000000000000000000000 &
b000000000000000000000000000000000000 S
b000000 0
b000000000000000000 1
b00000000000000000000000000000011 6
b000000000000000000 Z
b000000000000000000 ,
b0000000000000000000000000000000000000000000000000000000000000000 a
b0011011 f
b0001111111111111111111111111110000000000000000000000000000000000 ]
b000000 Y
b000000 +
#1950
1!
1N
b00000000000000000000000000000111 :
