uploads/icache.vcd
$date
	Sun Dec  1 21:46:11 2024
$end

$version
	Synopsys VCS version V-2023.12-SP2-1_Full64
$end

$timescale
	100ps
$end

$comment Csum: 1 8378e01a80eda39a $end


$scope module testbench $end
$var reg 1 ! clock $end
$var reg 1 " reset $end
$var reg 4 # Imem2proc_transaction_tag [3:0] $end
$var reg 4 $ Imem2proc_data_tag [3:0] $end
$var reg 96 % proc2Icache_addr [95:0] $end
$var reg 2 & valid_fetches [1:0] $end
$var reg 2 ' proc2Imem_command [1:0] $end
$var reg 32 ( proc2Imem_addr [31:0] $end
$var reg 96 ) Icache_data_out [95:0] $end
$var reg 2 * Icache_valid_out [1:0] $end
$var reg 2 + proc2Imem_command_correct [1:0] $end
$var reg 32 , proc2Imem_addr_correct [31:0] $end
$var reg 96 - Icache_data_out_correct [95:0] $end
$var reg 3 . Icache_valid_out_correct [2:0] $end
$var reg 1 / take_branch $end
$var integer 32 0 cycle_count $end
$var reg 32 1 addr_cnt [31:0] $end

$scope task exit_on_error $end

$scope begin unnamed$$_0 $end
$upscope $end

$upscope $end


$scope task assert_correct $end

$scope begin unnamed$$_0 $end
$upscope $end

$upscope $end


$scope task reset_inputs $end
$upscope $end


$scope task reset_corrects $end
$upscope $end

$var reg 64 2 Imem2proc_data [63:0] $end

$scope begin unnamed$$_0 $end
$upscope $end


$scope begin unnamed$$_1 $end
$upscope $end


$scope begin unnamed$$_2 $end
$upscope $end


$scope begin unnamed$$_3 $end
$upscope $end


$scope begin unnamed$$_4 $end
$upscope $end


$scope begin unnamed$$_5 $end
$upscope $end


$scope begin unnamed$$_6 $end
$upscope $end


$scope module DUT $end
$var wire 1 3 clock $end
$var wire 1 4 reset $end
$var reg 4 5 Imem2proc_transaction_tag [3:0] $end
$var reg 4 6 Imem2proc_data_tag [3:0] $end
$var reg 96 7 proc2Icache_addr [95:0] $end
$var reg 2 8 valid_fetches [1:0] $end
$var wire 1 9 take_branch $end
$var reg 2 : proc2Imem_command [1:0] $end
$var reg 32 ; proc2Imem_addr [31:0] $end
$var reg 2 < Icache_valid_out [1:0] $end
$var reg 16 = tags [15:0] $end
$var reg 13 > last_request [12:0] $end
$var reg 10 ? indexes [9:0] $end
$var reg 2 @ res [1:0] $end
$var reg 2 A Icache_valid [1:0] $end
$var reg 1 B wr_idx [0:0] $end
$var reg 4 C last_tag [3:0] $end
$var reg 2 D Icache_valid_out_unclamped [1:0] $end
$var reg 1 E got_mem_data $end
$var reg 1 F took_branch $end
$var reg 1 G need_load $end
$var reg 1 H needed_load $end
$var reg 1 I tag_updated $end
$var reg 64 J Imem2proc_data [63:0] $end
$var reg 96 K Icache_data_out [95:0] $end
$var reg 128 L Icache_data [127:0] $end
$var reg 288 M icache_tags [287:0] $end
$var reg 288 N icache_tags_n [287:0] $end

$scope begin unnamed$$_0 $end
$upscope $end


$scope begin unnamed$$_1 $end
$upscope $end


$scope module wr_idx_finder $end
$var wire 2 O vector_in [1:0] $end
$var wor 1 P num_out [0:0] $end
$var reg 2 Q psel_in [1:0] $end
$var reg 2 R one_hot_vector [1:0] $end
$var reg 2 S encoder_in [1:0] $end

$scope module make_one_hot $end
$var wire 2 T req [1:0] $end
$var wor 2 U gnt [1:0] $end
$var wand 2 V gnt_bus [1:0] $end
$var wire 1 W empty $end
$var wire 2 X tmp_reqs [1:0] $end
$var wire 2 Y tmp_reqs_rev [1:0] $end
$var wire 2 Z tmp_gnts [1:0] $end
$var wire 2 [ tmp_gnts_rev [1:0] $end

$scope module foo[0].psel $end
$var wire 2 X req [1:0] $end
$var wand 2 \ gnt [1:0] $end
$var wire 2 ] req_r [1:0] $end
$var wand 2 ^ gnt_r [1:0] $end
$upscope $end

$upscope $end


$scope module indexer $end
$var wire 2 _ one_hot_in [1:0] $end
$var wor 1 P num_out [0:0] $end
$upscope $end

$upscope $end


$scope module icache_mem $end
$var reg 2048 ` memData [2047:0] $end
$var wire 1 3 clock $end
$var wire 1 4 reset $end
$var wire 2 a re [1:0] $end
$var wire 10 b raddr [9:0] $end
$var reg 128 c rdata [127:0] $end
$var wire 1 d we $end
$var wire 5 e waddr [4:0] $end
$var wire 64 f wdata [63:0] $end

$scope begin genblk1[0].bypass_path $end
$upscope $end


$scope begin genblk1[0].non_bypass_path $end
$upscope $end


$scope begin genblk1[1].bypass_path $end
$upscope $end


$scope begin genblk1[1].non_bypass_path $end
$upscope $end

$upscope $end

$upscope $end

$upscope $end

$enddefinitions $end

#0
$dumpvars
14
09
0!
1W
0E
0G
xH
0P
1"
xI
0/
xF
0d
0B
b00 <
b0000 6
b0000000000000000000000000000000000000000000000000000000000000000 J
b0000 5
b000000000000000000000000000000000000000000000000000000000000000000000000000000000000000000000000 7
b00000000000000000000000000000000 ;
b00 :
b00 8
b11 A
b00 *
bxxx .
b11 D
b000000000000000000000000000000000000000000000000000000000000000000000000000000000000000000000000 )
bxxxxxxxxxxxxxxxxxxxxxxxxxxxxxxxxxxxxxxxxxxxxxxxxxxxxxxxxxxxxxxxxxxxxxxxxxxxxxxxxxxxxxxxxxxxxxxxx -
b000000000000000000000000000000000000000000000000000000000000000000000000000000000000000000000000 K
b00000000000000000000000000000000000000000000000000000000000000000000000000000000000000000000000000000000000000000000000000000000 L
b0000 $
b0000000000000000000000000000000000000000000000000000000000000000 2
b0000 #
b00000000000000000000000000000000 1
bxxxxxxxxxxxxxxxxxxxxxxxxxxxxxxxxxxxxxxxxxxxxxxxxxxxxxxxxxxxxxxxxxxxxxxxxxxxxxxxxxxxxxxxxxxxxxxxxxxxxxxxxxxxxxxxxxxxxxxxxxxxxxxxxxxxxxxxxxxxxxxxxxxxxxxxxxxxxxxxxxxxxxxxxxxxxxxxxxxxxxxxxxxxxxxxxxxxxxxxxxxxxxxxxxxxxxxxxxxxxxxxxxxxxxxxxxxxxxxxxxxxxxxxxxxxxxxxxxxxxxxxxxxxxxxxxxxxxxxxxxxxxxxxx N
bxxxxxxxxxxxxxxxxxxxxxxxxxxxxxxxxxxxxxxxxxxxxxxxxxxxxxxxxxxxxxxxxxxxxxxxxxxxxxxxxxxxxxxxxxxxxxxxxxxxxxxxxxxxxxxxxxxxxxxxxxxxxxxxxxxxxxxxxxxxxxxxxxxxxxxxxxxxxxxxxxxxxxxxxxxxxxxxxxxxxxxxxxxxxxxxxxxxxxxxxxxxxxxxxxxxxxxxxxxxxxxxxxxxxxxxxxxxxxxxxxxxxxxxxxxxxxxxxxxxxxxxxxxxxxxxxxxxxxxxxxxxxxxxx M
b0000000000 ?
bxxxx C
bxxxxxxxxxxxxxxxxxxxxxxxxxxxxxxxxxxxxxxxxxxxxxxxxxxxxxxxxxxxxxxxxxxxxxxxxxxxxxxxxxxxxxxxxxxxxxxxxxxxxxxxxxxxxxxxxxxxxxxxxxxxxxxxxxxxxxxxxxxxxxxxxxxxxxxxxxxxxxxxxxxxxxxxxxxxxxxxxxxxxxxxxxxxxxxxxxxxxxxxxxxxxxxxxxxxxxxxxxxxxxxxxxxxxxxxxxxxxxxxxxxxxxxxxxxxxxxxxxxxxxxxxxxxxxxxxxxxxxxxxxxxxxxxxxxxxxxxxxxxxxxxxxxxxxxxxxxxxxxxxxxxxxxxxxxxxxxxxxxxxxxxxxxxxxxxxxxxxxxxxxxxxxxxxxxxxxxxxxxxxxxxxxxxxxxxxxxxxxxxxxxxxxxxxxxxxxxxxxxxxxxxxxxxxxxxxxxxxxxxxxxxxxxxxxxxxxxxxxxxxxxxxxxxxxxxxxxxxxxxxxxxxxxxxxxxxxxxxxxxxxxxxxxxxxxxxxxxxxxxxxxxxxxxxxxxxxxxxxxxxxxxxxxxxxxxxxxxxxxxxxxxxxxxxxxxxxxxxxxxxxxxxxxxxxxxxxxxxxxxxxxxxxxxxxxxxxxxxxxxxxxxxxxxxxxxxxxxxxxxxxxxxxxxxxxxxxxxxxxxxxxxxxxxxxxxxxxxxxxxxxxxxxxxxxxxxxxxxxxxxxxxxxxxxxxxxxxxxxxxxxxxxxxxxxxxxxxxxxxxxxxxxxxxxxxxxxxxxxxxxxxxxxxxxxxxxxxxxxxxxxxxxxxxxxxxxxxxxxxxxxxxxxxxxxxxxxxxxxxxxxxxxxxxxxxxxxxxxxxxxxxxxxxxxxxxxxxxxxxxxxxxxxxxxxxxxxxxxxxxxxxxxxxxxxxxxxxxxxxxxxxxxxxxxxxxxxxxxxxxxxxxxxxxxxxxxxxxxxxxxxxxxxxxxxxxxxxxxxxxxxxxxxxxxxxxxxxxxxxxxxxxxxxxxxxxxxxxxxxxxxxxxxxxxxxxxxxxxxxxxxxxxxxxxxxxxxxxxxxxxxxxxxxxxxxxxxxxxxxxxxxxxxxxxxxxxxxxxxxxxxxxxxxxxxxxxxxxxxxxxxxxxxxxxxxxxxxxxxxxxxxxxxxxxxxxxxxxxxxxxxxxxxxxxxxxxxxxxxxxxxxxxxxxxxxxxxxxxxxxxxxxxxxxxxxxxxxxxxxxxxxxxxxxxxxxxxxxxxxxxxxxxxxxxxxxxxxxxxxxxxxxxxxxxxxxxxxxxxxxxxxxxxxxxxxxxxxxxxxxxxxxxxxxxxxxxxxxxxxxxxxxxxxxxxxxxxxxxxxxxxxxxxxxxxxxxxxxxxxxxxxxxxxxxxxxxxxxxxxxxxxxxxxxxxxxxxxxxxxxxxxxxxxxxxxxxxxxxxxxxxxxxxxxxxxxxxxxxxxxxxxxxxxxxxxxxxxxxxxxxxxxxxxxxxxxxxxxxxxxxxxxxxxxxxxxxxxxxxxxxxxxxxxxxxxxxxxxxxxxxxxxxxxxxxxxxxxxxxxxxxxxxxxxxxxxxxxxxxxxxxxxxxxxxxxxxxxxxxxxxxxxxxxxxxxxxxxxxxxxxxxxxxxxxxxxxxxxxxxxxxxxxxxxxxxxxxxxxxxxxxxxxxxxxxxxxxxxxxxxxxxxxxxxxxxxxxxxxxxxxxxxxxxxxxxxxxxxxxxxxxxxxxxxxxxxxxxxxxxxxxxxxxxxxxxxxxxxxxxxxxxxxxxxxxxxxxxxxxxxxxxxxxxxxxxxxxxxxxxxxxxxxxxxxxxxxxxxxxxxxxxxxxxxxxxxxxxxxxxxxxxxxxxxxxxxxxxxxxxxxxxxxxxxxxxxxxxxxxxxxxxxxxxxxxxxxxxxxxxxxxxxxxxxxxxxxxxxxxxxxxxxxxxxxxxxxxxxxxxxxxxxxxxxxxxxxxxxxxxxxxxxxxxxxxxxxxxxxxxxxxxxxxxxxxxxxxxxxxxxxxxxxxxxxxxxxxxxxxxxxxxxxxxxxxxxxxxxxxxxxxxxxxxxxxxxxxxxxxxxxxxxxxxxxxxxxxxxxxxxxxxxxxxxx `
b000000000000000000000000000000000000000000000000000000000000000000000000000000000000000000000000 %
b00000000000000000000000000000000 (
bxxxxxxxxxxxxxxxxxxxxxxxxxxxxxxxx ,
b0000000000 b
b00000000000000000000000000000000000000000000000000000000000000000000000000000000000000000000000000000000000000000000000000000000 c
b0000000000000000 =
bxxxxxxxxxxxxxxxxxxxxxxxxxxxxxxxx 0
b00 S
b00 \
b00 U
b00 V
b00 ^
bxxxxxxxxxxxxx >
b00 _
b00 R
b00 '
bxx +
b00 Q
b00 a
b00 T
b00 ]
b00 @
b00 Z
b00 [
b00 X
bzz Y
b00 &
b00 O
bxxxxx e
b0000000000000000000000000000000000000000000000000000000000000000 f
03
$end
#150
1!
13
b0000 C
b000000000000000000000000000000000000000000000000000000000000000000000000000000000000000000000000000000000000000000000000000000000000000000000000000000000000000000000000000000000000000000000000000000000000000000000000000000000000000000000000000000000000000000000000000000000000000000000000 M
b1111111111111 >
b11111 e
0H
0F
b00000000000000000000000000000000000000000000000000000000000000000000000000000000000000000000000000000000000000000000000000000000000000000000000000000000000000000000000000000000000000000000000000000000000000000000000000000000000000000000000000000000000000000000000000000000000000000000000000000000000000000000000000000000000000000000000000000000000000000000000000000000000000000000000000000000000000000000000000000000000000000000000000000000000000000000000000000000000000000000000000000000000000000000000000000000000000000000000000000000000000000000000000000000000000000000000000000000000000000000000000000000000000000000000000000000000000000000000000000000000000000000000000000000000000000000000000000000000000000000000000000000000000000000000000000000000000000000000000000000000000000000000000000000000000000000000000000000000000000000000000000000000000000000000000000000000000000000000000000000000000000000000000000000000000000000000000000000000000000000000000000000000000000000000000000000000000000000000000000000000000000000000000000000000000000000000000000000000000000000000000000000000000000000000000000000000000000000000000000000000000000000000000000000000000000000000000000000000000000000000000000000000000000000000000000000000000000000000000000000000000000000000000000000000000000000000000000000000000000000000000000000000000000000000000000000000000000000000000000000000000000000000000000000000000000000000000000000000000000000000000000000000000000000000000000000000000000000000000000000000000000000000000000000000000000000000000000000000000000000000000000000000000000000000000000000000000000000000000000000000000000000000000000000000000000000000000000000000000000000000000000000000000000000000000000000000000000000000000000000000000000000000000000000000000000000000000000000000000000000000000000000000000000000000000000000000000000000000000000000000000000000000000000000000000000000000000000000000000000000000000000000000000000000000000000000000000000000000000000000000000000000000000000000000000000000000000000000000000000000000000000000 `
b00000000000000000000000000000000 0
b000000000000000000000000000000000000000000000000000000000000000000000000000000000000000000000000000000000000000000000000000000000000000000000000000000000000000000000000000000000000000000000000000000000000000000000000000000000000000000000000000000000000000000000000000000000000000000000000 N
1I
#300
0!
03
#450
1!
13
#600
0!
03
0"
04
b00 +
b00000000000000000000000000000000 ,
b000000000000000000000000000000000000000000000000000000000000000000000000000000000000000000000000 -
b000 .
b00000000000000000000000000001000 1
#750
1!
13
b0000000000000 >
b00000 e
b00000000000000000000000000000001 0
0I
#770
b000000000000000000000000000100000000000000000000000000000000110000000000000000000000000000001000 %
b000000000000000000000000000100000000000000000000000000000000110000000000000000000000000000001000 7
b0001000000 ?
b0001000000 b
b0001000001 ?
b0001000001 b
b00000000000000000000000000010100 1
b11 &
b11 8
b01 +
b00000000000000000000000000001000 ,
b00000000000000000000000000001000 ;
b00000000000000000000000000001000 (
1I
b11 <
b11 *
b01 @
b01 a
b10 A
b01 O
b11 @
b11 a
b00 A
b11 O
b11 T
b11 X
b01 ]
b11 ]
0W
b11 Q
b01 :
b01 '
1G
b00 D
b01 ^
b00 <
b00 *
b10 \
b10 Z
b10 V
b10 R
b10 U
b01 _
b01 S
b01 [
#900
0!
03
#920
b1111 #
b1111 5
0G
#1050
1!
13
b1111 C
b0000000000001 >
b00001 e
b00000000000000000000000000000010 0
0I
b00 :
b00 '
#1070
b00 +
#1090
b0000 #
b0000 5
b000000000000000000000000000000000000000000000000000000000000000000000000000000000000000000000000 %
b000000000000000000000000000000000000000000000000000000000000000000000000000000000000000000000000 7
b0000000001 ?
b0000000001 b
b0000000000 ?
b0000000000 b
b00 &
b00 8
b00000000000000000000000000000000 ,
b00000000000000000000000000000000 ;
b00000000000000000000000000000000 (
1I
b10 @
b10 a
b01 A
b10 O
b00 @
b00 a
b11 A
b00 O
b00 T
b00 X
b10 ]
b00 ]
1W
b00 Q
b11 D
b00 ^
b00 \
b00 Z
b00 V
b00 R
b00 U
b00 _
b00 S
b00 [
#1200
0!
03
b00000000000000000000000000001100 1
#1350
1!
13
b0000 C
b0000000000000 >
b00000 e
b00000000000000000000000000000011 0
0I
#1370
b000000000000000000000000000101000000000000000000000000000001000000000000000000000000000000001100 %
b000000000000000000000000000101000000000000000000000000000001000000000000000000000000000000001100 7
b0001000000 ?
b0001000000 b
b0001000001 ?
b0001000001 b
b00000000000000000000000000011000 1
b11 &
b11 8
b01 +
b00000000000000000000000000001000 ,
b00000000000000000000000000001000 ;
b00000000000000000000000000001000 (
1I
b11 <
b11 *
b01 @
b01 a
b10 A
b01 O
b11 @
b11 a
b00 A
b11 O
b11 T
b11 X
b01 ]
b11 ]
0W
b11 Q
b01 :
b01 '
1G
b00 D
b01 ^
b00 <
b00 *
b10 \
b10 Z
b10 V
b10 R
b10 U
b01 _
b01 S
b01 [
#1500
0!
03
#1520
b1111 #
b1111 5
0G
#1650
1!
13
b1111 C
b0000000000001 >
b00001 e
b00000000000000000000000000000100 0
0I
b00 :
b00 '
#1670
b00 +
#1690
b0000 #
b0000 5
b000000000000000000000000000000000000000000000000000000000000000000000000000000000000000000000000 %
b000000000000000000000000000000000000000000000000000000000000000000000000000000000000000000000000 7
b0000000001 ?
b0000000001 b
b0000000000 ?
b0000000000 b
b00 &
b00 8
b00000000000000000000000000000000 ,
b00000000000000000000000000000000 ;
b00000000000000000000000000000000 (
1I
b10 @
b10 a
b01 A
b10 O
b00 @
b00 a
b11 A
b00 O
b00 T
b00 X
b10 ]
b00 ]
1W
b00 Q
b11 D
b00 ^
b00 \
b00 Z
b00 V
b00 R
b00 U
b00 _
b00 S
b00 [
#1800
0!
03
b00000000000000000000000000010000 1
#1950
1!
13
b0000 C
b0000000000000 >
b00000 e
b00000000000000000000000000000101 0
0I
#1970
b000000000000000000000000000110000000000000000000000000000001010000000000000000000000000000010000 %
b000000000000000000000000000110000000000000000000000000000001010000000000000000000000000000010000 7
b0001100000 ?
b0001100000 b
b0001100010 ?
b0001100010 b
b00000000000000000000000000011100 1
b11 &
b11 8
b01 +
b00000000000000000000000000010000 ,
b00000000000000000000000000010000 ;
b00000000000000000000000000010000 (
1I
b11 <
b11 *
b01 @
b01 a
b10 A
b01 O
b11 @
b11 a
b00 A
b11 O
b11 T
b11 X
b01 ]
b11 ]
0W
b11 Q
b01 :
b01 '
1G
b00 D
b01 ^
b00 <
b00 *
b10 \
b10 Z
b10 V
b10 R
b10 U
b01 _
b01 S
b01 [
#2100
0!
03
#2120
b1111 #
b1111 5
0G
#2250
1!
13
b1111 C
b0000000000010 >
b00010 e
b00000000000000000000000000000110 0
0I
b00 :
b00 '
#2270
b00 +
#2290
b0000 #
b0000 5
b000000000000000000000000000000000000000000000000000000000000000000000000000000000000000000000000 %
b000000000000000000000000000000000000000000000000000000000000000000000000000000000000000000000000 7
b0000000010 ?
b0000000010 b
b0000000000 ?
b0000000000 b
b00 &
b00 8
b00000000000000000000000000000000 ,
b00000000000000000000000000000000 ;
b00000000000000000000000000000000 (
1I
b10 @
b10 a
b01 A
b10 O
b00 @
b00 a
b11 A
b00 O
b00 T
b00 X
b10 ]
b00 ]
1W
b00 Q
b11 D
b00 ^
b00 \
b00 Z
b00 V
b00 R
b00 U
b00 _
b00 S
b00 [
#2400
0!
03
b00000000000000000000000000001000 1
#2550
1!
13
b0000 C
b0000000000000 >
b00000 e
b00000000000000000000000000000111 0
0I
#2570
b000000000000000000000000000100000000000000000000000000000000110000000000000000000000000000001000 %
b000000000000000000000000000100000000000000000000000000000000110000000000000000000000000000001000 7
b0001000000 ?
b0001000000 b
b0001000001 ?
b0001000001 b
b00000000000000000000000000010100 1
b11 &
b11 8
b01 +
b00000000000000000000000000001000 ,
b00000000000000000000000000001000 ;
b00000000000000000000000000001000 (
1I
b11 <
b11 *
b01 @
b01 a
b10 A
b01 O
b11 @
b11 a
b00 A
b11 O
b11 T
b11 X
b01 ]
b11 ]
0W
b11 Q
b01 :
b01 '
1G
b00 D
b01 ^
b00 <
b00 *
b10 \
b10 Z
b10 V
b10 R
b10 U
b01 _
b01 S
b01 [
#2700
0!
03
#2850
1!
13
b0000000000001 >
b00001 e
1H
b00000000000000000000000000001000 0
0I
#3000
0!
03
#3150
1!
13
b00000000000000000000000000001001 0
#3300
0!
03
#3320
b1111 #
b1111 5
0G
#3450
1!
13
b1111 C
0H
b00000000000000000000000000001010 0
b00 :
b00 '
#3470
b00 +
#3490
b0000 #
b0000 5
b000000000000000000000000000000000000000000000000000000000000000000000000000000000000000000000000 %
b000000000000000000000000000000000000000000000000000000000000000000000000000000000000000000000000 7
b0000000001 ?
b0000000001 b
b0000000000 ?
b0000000000 b
b00 &
b00 8
b00000000000000000000000000000000 ,
b00000000000000000000000000000000 ;
b00000000000000000000000000000000 (
1I
b10 @
b10 a
b01 A
b10 O
b00 @
b00 a
b11 A
b00 O
b00 T
b00 X
b10 ]
b00 ]
1W
b00 Q
b11 D
b00 ^
b00 \
b00 Z
b00 V
b00 R
b00 U
b00 _
b00 S
b00 [
#3600
0!
03
b00000000000000000000000000010000 1
#3750
1!
13
b0000 C
b0000000000000 >
b00000 e
b00000000000000000000000000001011 0
0I
#3770
b000000000000000000000000000110000000000000000000000000000001010000000000000000000000000000010000 %
b000000000000000000000000000110000000000000000000000000000001010000000000000000000000000000010000 7
b0001100000 ?
b0001100000 b
b0001100010 ?
b0001100010 b
b00000000000000000000000000011100 1
b11 &
b11 8
b01 +
b00000000000000000000000000010000 ,
b00000000000000000000000000010000 ;
b00000000000000000000000000010000 (
1I
b11 <
b11 *
b01 @
b01 a
b10 A
b01 O
b11 @
b11 a
b00 A
b11 O
b11 T
b11 X
b01 ]
b11 ]
0W
b11 Q
b01 :
b01 '
1G
b00 D
b01 ^
b00 <
b00 *
b10 \
b10 Z
b10 V
b10 R
b10 U
b01 _
b01 S
b01 [
#3900
0!
03
#4050
1!
13
b0000000000010 >
b00010 e
1H
b00000000000000000000000000001100 0
0I
#4200
0!
03
#4350
1!
13
b00000000000000000000000000001101 0
#4500
0!
03
#4520
b1111 #
b1111 5
0G
#4650
1!
13
b1111 C
0H
b00000000000000000000000000001110 0
b00 :
b00 '
#4670
b00 +
b0000 #
b0000 5
#4800
0!
03
#4950
1!
13
b0000 C
b00000000000000000000000000001111 0
#4970
b00000000000000000000000000011000 1
#5100
0!
03
#5250
1!
13
b00000000000000000000000000010000 0
#5270
b000000000000000000000000001000000000000000000000000000000001110000000000000000000000000000011000 %
b000000000000000000000000001000000000000000000000000000000001110000000000000000000000000000011000 7
b0010000010 ?
b0010000010 b
b0010000011 ?
b0010000011 b
b00000000000000000000000000100100 1
b01 +
b00000000000000000000000000011000 ,
b00000000000000000000000000011000 ;
b00000000000000000000000000011000 (
1I
b01 :
b01 '
1G
#5400
0!
03
#5420
b000000000000000000000000000000000000000000000000000000000000000000000000000000000000000000000000 %
b000000000000000000000000000000000000000000000000000000000000000000000000000000000000000000000000 7
b0000000011 ?
b0000000011 b
b0000000000 ?
b0000000000 b
b00 &
b00 8
b00 +
b00000000000000000000000000000000 ,
b00000000000000000000000000000000 ;
b00000000000000000000000000000000 (
b10 @
b10 a
b01 A
b10 O
b00 @
b00 a
b11 A
b00 O
b00 :
b00 '
0G
b00 T
b00 X
b10 ]
b00 ]
1W
b00 Q
b11 D
b00 ^
b00 \
b00 Z
b00 V
b00 R
b00 U
b00 _
b00 S
b00 [
#5550
1!
13
b0000000000000 >
b00000 e
b00000000000000000000000000010001 0
0I
#5700
0!
03
b00000000000000000000000000001000 1
#5850
1!
13
b00000000000000000000000000010010 0
#5870
b000000000000000000000000000100000000000000000000000000000000110000000000000000000000000000001000 %
b000000000000000000000000000100000000000000000000000000000000110000000000000000000000000000001000 7
b0001000000 ?
b0001000000 b
b0001000001 ?
b0001000001 b
b00000000000000000000000000010100 1
b11 &
b11 8
b01 +
b00000000000000000000000000001000 ,
b00000000000000000000000000001000 ;
b00000000000000000000000000001000 (
1I
b11 <
b11 *
b01 @
b01 a
b10 A
b01 O
b11 @
b11 a
b00 A
b11 O
b11 T
b11 X
b01 ]
b11 ]
0W
b11 Q
b01 :
b01 '
1G
b00 D
b01 ^
b00 <
b00 *
b10 \
b10 Z
b10 V
b10 R
b10 U
b01 _
b01 S
b01 [
#6000
0!
03
#6020
b1111 #
b1111 5
0G
#6150
1!
13
b1111 C
b0000000000001 >
b00001 e
b00000000000000000000000000010011 0
0I
b00 :
b00 '
#6170
b00 +
#6300
0!
03
b0000000001010011100100010101101111111010110011101011111011101111 2
b0000000001010011100100010101101111111010110011101011111011101111 J
b0000000001010011100100010101101111111010110011101011111011101111 f
b1111 $
b1111 6
1d
b00000000000000000000000000000000000000000000000000000000000000000000000001010011100100010101101111111010110011101011111011101111 c
b00000000000000000000000000000000000000000000000000000000000000000000000001010011100100010101101111111010110011101011111011101111 L
b000000000000000000000000000000000000000000000000000000000000000000000000000000000000000000000000000000000000000000000000000000000000000000000000000000000000000000000000000000000000000000000000000000000000000000000000000000000000000000000000000000000000000000000000000000000000001000000000 N
b000000000000000000000000000000000000000001010011100100010101101111111010110011101011111011101111 K
b000000000000000000000000000000000000000001010011100100010101101111111010110011101011111011101111 )
#6450
1!
13
b01 +
b00000000000000000000000000010000 ,
b010 .
b000000000000000000000000000000000000000001010011100100010101101111111010110011101011111011101111 -
b000000000000000000000000000000000000000000000000000000000000000000000000000000000000000000000000000000000000000000000000000000000000000000000000000000000000000000000000000000000000000000000000000000000000000000000000000000000000000000000000000000000000000000000000000000000000001000000000 M
b00000000000000000000000000000000000000000000000000000000000000000000000000000000000000000000000000000000000000000000000000000000000000000000000000000000000000000000000000000000000000000000000000000000000000000000000000000000000000000000000000000000000000000000000000000000000000000000000000000000000000000000000000000000000000000000000000000000000000000000000000000000000000000000000000000000000000000000000000000000000000000000000000000000000000000000000000000000000000000000000000000000000000000000000000000000000000000000000000000000000000000000000000000000000000000000000000000000000000000000000000000000000000000000000000000000000000000000000000000000000000000000000000000000000000000000000000000000000000000000000000000000000000000000000000000000000000000000000000000000000000000000000000000000000000000000000000000000000000000000000000000000000000000000000000000000000000000000000000000000000000000000000000000000000000000000000000000000000000000000000000000000000000000000000000000000000000000000000000000000000000000000000000000000000000000000000000000000000000000000000000000000000000000000000000000000000000000000000000000000000000000000000000000000000000000000000000000000000000000000000000000000000000000000000000000000000000000000000000000000000000000000000000000000000000000000000000000000000000000000000000000000000000000000000000000000000000000000000000000000000000000000000000000000000000000000000000000000000000000000000000000000000000000000000000000000000000000000000000000000000000000000000000000000000000000000000000000000000000000000000000000000000000000000000000000000000000000000000000000000000000000000000000000000000000000000000000000000000000000000000000000000000000000000000000000000000000000000000000000000000000000000000000000000000000000000000000000000000000000000000000000000000000000000000000000000000000000000000000000000000000000000000000000000000000000000000000000000000000000000000000000000010100111001000101011011111110101100111010111110111011110000000000000000000000000000000000000000000000000000000000000000 `
b00000000000000000000000000010100 0
b01 A
b10 O
b01 T
b01 X
b10 ]
b01 Q
b10 ^
b11 \
b11 Z
b11 V
b11 R
b11 U
b01 \
b01 Z
b01 V
b01 R
b01 U
b10 _
1P
1B
b10 S
b10 [
b00000000000000000000000000010000 ;
b00000000000000000000000000010000 (
1I
b10 D
b01 :
b01 '
b10 <
b10 *
#6490
b0000 #
b0000 5
1G
b0000000000000000000000000000000000000000000000000000000000000000 2
b0000000000000000000000000000000000000000000000000000000000000000 J
b0000000000000000000000000000000000000000000000000000000000000000 f
b0000 $
b0000 6
0d
b000000000000000000000000000000000000000000000000000000000000000000000000000000000000000000000000 %
b000000000000000000000000000000000000000000000000000000000000000000000000000000000000000000000000 7
b0000000001 ?
b0000000001 b
b0000000000 ?
b0000000000 b
b00 &
b00 8
b00 +
b00000000000000000000000000000000 ,
b000000000000000000000000000000000000000000000000000000000000000000000000000000000000000000000000 -
b000 .
b00000000000000000000000000000000000000000000000000000000000000000000000000000000000000000000000000000000000000000000000000000000 c
b00000000000000000000000000000000000000000000000000000000000000000000000000000000000000000000000000000000000000000000000000000000 L
b00000000000000000000000000000000 ;
b00000000000000000000000000000000 (
b00 <
b00 *
b10 @
b10 a
b00 @
b00 a
b11 A
b00 O
b00 :
b00 '
0G
b000000000000000000000000000000000000000000000000000000000000000000000000000000000000000000000000 K
b000000000000000000000000000000000000000000000000000000000000000000000000000000000000000000000000 )
b00 T
b00 X
b00 ]
1W
b00 Q
b11 D
b00 ^
b00 \
b00 Z
b00 V
b00 R
b00 U
b00 _
0P
0B
b00 S
b00 [
