uploads/rob.vcd
$date
	Mon Oct 21 23:17:43 2024
$end

$version
	Synopsys VCS version V-2023.12-SP2-1_Full64
$end

$timescale
	100ps
$end

$comment Csum: 1 a88861a34ba639eb $end


$scope module testbench $end
$var reg 1 ! clock $end
$var reg 1 " reset $end
$var reg 21 # cdb [20:0] $end
$var reg 1 $ branch_mispredict $end
$var reg 21 % old_tags [20:0] $end
$var reg 21 & new_tags [20:0] $end
$var reg 15 ' arch_reg [14:0] $end
$var reg 6 ( open_spots_correct [5:0] $end
$var reg 21 ) old_tags_correct [20:0] $end
$var reg 21 * new_tags_correct [20:0] $end
$var integer 32 + tag_ind $end
$var integer 32 , cdb_ind $end
$var integer 32 - input_size $end
$var integer 32 . retire_size $end

$scope task exit_on_error $end
$var reg 1 / clock $end
$var reg 1 0 reset $end
$var reg 6 1 open_spots_correct [5:0] $end
$var reg 21 2 old_tags [20:0] $end
$var reg 21 3 old_tags_correct [20:0] $end
$var reg 21 4 new_tags [20:0] $end
$var reg 21 5 new_tags_correct [20:0] $end

$scope begin unnamed$$_0 $end
$upscope $end

$upscope $end


$scope task print_rob_entries $end

$scope begin unnamed$$_0 $end
$upscope $end

$upscope $end


$scope task assert_correct $end
$var reg 6 6 open_spots_correct [5:0] $end
$var reg 21 7 old_tags [20:0] $end
$var reg 21 8 old_tags_correct [20:0] $end
$var reg 21 9 new_tags [20:0] $end
$var reg 21 : new_tags_correct [20:0] $end
$upscope $end


$scope task reset_inputs $end

$scope begin unnamed$$_0 $end
$upscope $end

$upscope $end


$scope task dispatch_n_instructions $end
$var reg 1 ; input_size $end
$upscope $end

$var reg 63 < ROB_in [62:0] $end

$scope begin unnamed$$_0 $end
$upscope $end


$scope begin unnamed$$_1 $end
$upscope $end


$scope begin unnamed$$_2 $end
$upscope $end


$scope begin unnamed$$_3 $end
$upscope $end


$scope begin unnamed$$_4 $end
$upscope $end


$scope begin unnamed$$_5 $end
$upscope $end


$scope begin unnamed$$_6 $end
$upscope $end


$scope begin unnamed$$_7 $end
$upscope $end


$scope begin unnamed$$_8 $end
$upscope $end


$scope begin unnamed$$_9 $end
$upscope $end


$scope begin unnamed$$_10 $end
$upscope $end


$scope begin unnamed$$_11 $end
$upscope $end


$scope begin unnamed$$_12 $end
$upscope $end


$scope begin unnamed$$_13 $end
$upscope $end


$scope begin unnamed$$_14 $end
$upscope $end


$scope begin unnamed$$_15 $end
$upscope $end


$scope begin unnamed$$_16 $end
$upscope $end


$scope begin unnamed$$_17 $end
$upscope $end


$scope begin unnamed$$_18 $end
$upscope $end


$scope begin unnamed$$_19 $end
$upscope $end


$scope begin unnamed$$_20 $end
$upscope $end


$scope begin unnamed$$_21 $end
$upscope $end


$scope module DUT $end
$var reg 6 = head [5:0] $end
$var reg 6 > tail [5:0] $end
$var reg 6 ? available_spots [5:0] $end
$var reg 1 @ clock $end
$var reg 1 A reset $end
$var reg 21 B cdb [20:0] $end
$var reg 21 C free_tags [20:0] $end
$var reg 21 D new_tags [20:0] $end
$var reg 15 E arch_reg [14:0] $end
$var reg 6 F open_spots [5:0] $end
$var reg 1 G next_direction [0:0] $end
$var reg 1 H last_direction [0:0] $end
$var reg 6 I head_n [5:0] $end
$var reg 6 J tail_n [5:0] $end
$var reg 6 K retireable_cnt [5:0] $end
$var reg 6 L head_growth [5:0] $end
$var reg 6 M tail_growth [5:0] $end
$var reg 1 N empty $end
$var reg 672 O entries [671:0] $end
$var reg 63 P dispatched_ins [62:0] $end
$var reg 552 Q decoded_instruction [551:0] $end
$var reg 672 R entries_n [671:0] $end

$scope begin unnamed$$_0 $end
$upscope $end


$scope begin unnamed$$_1 $end
$upscope $end


$scope begin unnamed$$_2 $end

$scope begin unnamed$$_3 $end
$upscope $end

$upscope $end


$scope begin unnamed$$_4 $end
$upscope $end

$upscope $end

$upscope $end

$enddefinitions $end

#0
$dumpvars
x$
0!
x;
x/
x0
1"
b000000000000000000000000000000000000000000000000000000000000000 <
bxxxxxxxxxxxxxxx '
b000000000000000000000 #
b000000000000000000000 &
b000000000000000000000 *
b000000000000000000000 %
b000000000000000000000 )
bxxxxxxxxxxxxxxxxxxxxx 9
bxxxxxxxxxxxxxxxxxxxxx :
bxxxxxxxxxxxxxxxxxxxxx 7
bxxxxxxxxxxxxxxxxxxxxx 8
bxxxxxx 6
b00000000000000000000000000000000 ,
bxxxxxxxxxxxxxxxxxxxxx 4
bxxxxxxxxxxxxxxxxxxxxx 5
bxxxxxxxxxxxxxxxxxxxxx 2
bxxxxxxxxxxxxxxxxxxxxx 3
bxxxxxx 1
b00000000000000000000000000000011 -
bxxxxxx (
b00000000000000000000000000000011 .
b00000000000000000000000000000000 +
0N
0H
0G
bxxxxxxxxxxxxxxx E
b000000000000000000000 B
bxxxxxxxxxxxxxxxxxxxxxxxxxxxxxxxxxxxxxxxxxxxxxxxxxxxxxxxxxxxxxxxxxxxxxxxxxxxxxxxxxxxxxxxxxxxxxxxxxxxxxxxxxxxxxxxxxxxxxxxxxxxxxxxxxxxxxxxxxxxxxxxxxxxxxxxxxxxxxxxxxxxxxxxxxxxxxxxxxxxxxxxxxxxxxxxxxxxxxxxxxxxxxxxxxxxxxxxxxxxxxxxxxxxxxxxxxxxxxxxxxxxxxxxxxxxxxxxxxxxxxxxxxxxxxxxxxxxxxxxxxxxxxxxxxxxxxxxxxxxxxxxxxxxxxxxxxxxxxxxxxxxxxxxxxxxxxxxxxxxxxxxxxxxxxxxxxxxxxxxxxxxxxxxxxxxxxxxxxxxxxxxxxxxxxxxxxxxxxxxxxxxxxxxxxxxxxxxxxxxxxxxxxxxxxxxxxxxxxxxxxxxxxxxxxxxxxxxxxxxxxxxxxxxxxxxxxxxxxxxxxxxxxxxxxxxxxxxxxxxxxxxxxxxxxxxxxxxxxxxxxxxxxxxxxxxxxxxxxxxxxxxxxxxxxxxx Q
b000000000000000000000000000000000000000000000000000000000000000 P
bxxxxxxxxxxxxxxxxxxxxxxxxxxxxxxxxxxxxxxxxxxxxxxxxxxxxxxxxxxxxxxxxxxxxxxxxxxxxxxxxxxxxxxxxxxxxxxxxxxxxxxxxxxxxxxxxxxxxxxxxxxxxxxxxxxxxxxxxxxxxxxxxxxxxxxxxxxxxxxxxxxxxxxxxxxxxxxxxxxxxxxxxxxxxxxxxxxxxxxxxxxxxxxxxxxxxxxxxxxxxxxxxxxxxxxxxxxxxxxxxxxxxxxxxxxxxxxxxxxxxxxxxxxxxxxxxxxxxxxxxxxxxxxxxxxxxxxxxxxxxxxxxxxxxxxxxxxxxxxxxxxxxxxxxxxxxxxxxxxxxxxxxxxxxxxxxxxxxxxxxxxxxxxxxxxxxxxxxxxxxxxxxxxxxxxxxxxxxxxxxxxxxxxxxxxxxxxxxxxxxxxxxxxxxxxxxxxxxxxxxxxxxxxxxxxxxxxxxxxxxxxxxxxxxxxxxxxxxxxxxxxxxxxxxxxxxxxxxxxxxxxxxxxxxxxxxxxxxxxxxxxxxxxxxxxxxxxxxxxxxxxxxxxxxxxxxxxxxxxxxxxxxxxxxxxxxxxxxxxxxxxxxxxxxxxxxxxxxxxxxxxxxxxxxxxxxxxxxxxxxxxxxxxxxxxxxxxxxxxxxxxxxxxxxxxxxxxxxxxxxxxxxxxxxxxxx R
bxxxxxxxxxxxxxxxxxxxxxxxxxxxxxxxxxxxxxxxxxxxxxxxxxxxxxxxxxxxxxxxxxxxxxxxxxxxxxxxxxxxxxxxxxxxxxxxxxxxxxxxxxxxxxxxxxxxxxxxxxxxxxxxxxxxxxxxxxxxxxxxxxxxxxxxxxxxxxxxxxxxxxxxxxxxxxxxxxxxxxxxxxxxxxxxxxxxxxxxxxxxxxxxxxxxxxxxxxxxxxxxxxxxxxxxxxxxxxxxxxxxxxxxxxxxxxxxxxxxxxxxxxxxxxxxxxxxxxxxxxxxxxxxxxxxxxxxxxxxxxxxxxxxxxxxxxxxxxxxxxxxxxxxxxxxxxxxxxxxxxxxxxxxxxxxxxxxxxxxxxxxxxxxxxxxxxxxxxxxxxxxxxxxxxxxxxxxxxxxxxxxxxxxxxxxxxxxxxxxxxxxxxxxxxxxxxxxxxxxxxxxxxxxxxxxxxxxxxxxxxxxxxxxxxxxxxxxxxxxxxxxxxxxxxxxxxxxxxxxxxxxxxxxxxxxxxxxxxxxxxxxxxxxxxxxxxxxxxxxxxxxxxxxxxxxxxxxxxxxxxxxxxxxxxxxxxxxxxxxxxxxxxxxxxxxxxxxxxxxxxxxxxxxxxxxxxxxxxxxxxxxxxxxxxxxxxxxxxxxxxxxxxxxxxxxxxxxxxxxxxxxxxxxxxxxx O
b000000000000000000000 C
b000000000000000000000 D
bxxxxxx ?
bxxxxxx =
bxxxxxx L
bxxxxxx I
bxxxxxx F
b000000 K
bxxxxxx >
bxxxxxx M
bxxxxxx J
0@
1A
$end
#150
1!
1@
b000000 =
b000000 >
b000000000000000000000000000000000000000000000000000000000000000000000000000000000000000000000000000000000000000000000000000000000000000000000000000000000000000000000000000000000000000000000000000000000000000000000000000000000000000000000000000000000000000000000000000000000000000000000000000000000000000000000000000000000000000000000000000000000000000000000000000000000000000000000000000000000000000000000000000000000000000000000000000000000000000000000000000000000000000000000000000000000000000000000000000000000000000000000000000000000000000000000000000000000000000000000000000000000000000000000000000000000000000000000000000000000000000000000000000000000000000000000000 O
1H
b000000000000000000000000000000000000000000000000000000000000000000000000000000000000000000000000000000000000000000000000000000000000000000000000000000000000000000000000000000000000000000000000000000000000000000000000000000000000000000000000000000000000000000000000000000000000000000000000000000000000000000000000000000000000000000000000000000000000000000000000000000000000000000000000000000000000000000000000000000000000000000000000000000000000000000000000000000000000000000000000000000000000000000000000000000000000000000000000000000000000000000000000000000000000000000000000000000000000000000000000000000000000000000000000000000000000000000000000000000000000000000000000 R
b000000 J
b000000 M
b000000 I
b000000 L
b000000 ?
b000000 F
1N
1G
b100000 ?
b000011 F
#300
0!
0@
0"
0A
b100000 (
#450
1!
1@
#600
0!
0@
#620
b100000 6
b000000000000000000000 7
b000000000000000000000 8
b000000000000000000000 9
b000000000000000000000 :
#750
1!
1@
#900
0!
0@
b000001100000110000010000001000000100000010000000100000010000010 <
b000001100000110000010000001000000100000010000000100000010000010 P
b00000000000000000000000000000011 +
b011101 (
b000000000000000000000000000000000000000000000000000000000000000000000000000000000000000000000000000000000000000000000000000000000000000000000000000000000000000000000000000000000000000000000000000000000000000000000000000000000000000000000000000000000000000000000000000000000000000000000000000000000000000000000000000000000000000000000000000000000000000000000000000000000000000000000000000000000000000000000000000000000000000000000000000000000000000000000000000000000000000000000000000000000000000000000000000000000000000000000000000000000000000000000000000000000000000000000000000000000000000000000000000000000000001100000110000010000001000000100000010000000100000010000010 R
b000011 J
b000011 M
0G
#1050
1!
1@
b000011 >
b000000 M
b000000000000000000000000000000000000000000000000000000000000000000000000000000000000000000000000000000000000000000000000000000000000000000000000000000000000000000000000000000000000000000000000000000000000000000000000000000000000000000000000000000000000000000000000000000000000000000000000000000000000000000000000000000000000000000000000000000000000000000000000000000000000000000000000000000000000000000000000000000000000000000000000000000000000000000000000000000000000000000000000000000000000000000000000000000000000000000000000000000000000000000000000000000000000000000000000000000000000000000000000000000000000001100000110000010000001000000100000010000000100000010000010 O
0H
0N
0G
b000000000000000000000000000000000000000000000000000000000000000000000000000000000000000000000000000000000000000000000000000000000000000000000000000000000000000000000000000000000000000000000000000000000000000000000000000000000000000000000000000000000000000000000000000000000000000000000000000000000000000000000000000000000000000000000000000000000000000000000000000000000000000000000000000000000000000000000000000000000000000000000000000000000000000000000000000000000000000000000000000000000000000000000000000000000000000000000000000000000000000000000001100000110000010000001000000100000010000000100000010000010000001100000110000010000001000000100000010000000100000010000010 R
b000110 J
b000011 M
b011101 ?
#1070
b011101 6
#1200
0!
0@
b000000000000000000000000000000000000000000000000000000000000000 <
b000000000000000000000000000000000000000000000000000000000000000 P
b000011000001100000010000010100001010000010000010000001000000010 <
b000011000001100000010000010100001010000010000010000001000000010 P
b00000000000000000000000000000110 +
b011010 (
b000000000000000000000000000000000000000000000000000000000000000000000000000000000000000000000000000000000000000000000000000000000000000000000000000000000000000000000000000000000000000000000000000000000000000000000000000000000000000000000000000000000000000000000000000000000000000000000000000000000000000000000000000000000000000000000000000000000000000000000000000000000000000000000000000000000000000000000000000000000000000000000000000000000000000000000000000000000000000000000000000000000000000000000000000000000000000000000000000000000000000000000011000001100000010000010100001010000010000010000001000000010000001100000110000010000001000000100000010000000100000010000010 R
#1350
1!
1@
b000110 >
b000000 M
b000000000000000000000000000000000000000000000000000000000000000000000000000000000000000000000000000000000000000000000000000000000000000000000000000000000000000000000000000000000000000000000000000000000000000000000000000000000000000000000000000000000000000000000000000000000000000000000000000000000000000000000000000000000000000000000000000000000000000000000000000000000000000000000000000000000000000000000000000000000000000000000000000000000000000000000000000000000000000000000000000000000000000000000000000000000000000000000000000000000000000000000011000001100000010000010100001010000010000010000001000000010000001100000110000010000001000000100000010000000100000010000010 O
b011010 ?
b000000000000000000000000000000000000000000000000000000000000000000000000000000000000000000000000000000000000000000000000000000000000000000000000000000000000000000000000000000000000000000000000000000000000000000000000000000000000000000000000000000000000000000000000000000000000000000000000000000000000000000000000000000000000000000000000000000000000000000000000000000000000000000000000000000000000000000000000000000000000000000000000000000000000000000000000000000000000000000000000000000011000001100000010000010100001010000010000010000001000000010000011000001100000010000010100001010000010000010000001000000010000001100000110000010000001000000100000010000000100000010000010 R
b001001 J
b000011 M
#1370
b011010 6
#1500
0!
0@
b000000000000000000000000000000000000000000000000000000000000000 <
b000000000000000000000000000000000000000000000000000000000000000 P
b000001100000100000001 #
b000001100000100000001 B
b000001100000100000001 *
b000001100000100000001 )
b00000000000000000000000000000011 ,
b000000000000000000000000000000000000000000000000000000000000000000000000000000000000000000000000000000000000000000000000000000000000000000000000000000000000000000000000000000000000000000000000000000000000000000000000000000000000000000000000000000000000000000000000000000000000000000000000000000000000000000000000000000000000000000000000000000000000000000000000000000000000000000000000000000000000000000000000000000000000000000000000000000000000000000000000000000000000000000000000000000000000000000000000000000000000000000000000000000000000000000000011000001100000010000010100001010000010000010000001000000010000001100000110000011000001000000100000011000000100000010000011 R
b000110 J
b000000 M
#1650
1!
1@
b011101 (
b000000000000000000000000000000000000000000000000000000000000000000000000000000000000000000000000000000000000000000000000000000000000000000000000000000000000000000000000000000000000000000000000000000000000000000000000000000000000000000000000000000000000000000000000000000000000000000000000000000000000000000000000000000000000000000000000000000000000000000000000000000000000000000000000000000000000000000000000000000000000000000000000000000000000000000000000000000000000000000000000000000000000000000000000000000000000000000000000000000000000000000000011000001100000010000010100001010000010000010000001000000010000001100000110000011000001000000100000011000000100000010000011 O
b000000000000000000000000000000000000000000000000000000000000000000000000000000000000000000000000000000000000000000000000000000000000000000000000000000000000000000000000000000000000000000000000000000000000000000000000000000000000000000000000000000000000000000000000000000000000000000000000000000000000000000000000000000000000000000000000000000000000000000000000000000000000000000000000000000000000000000000000000000000000000000000000000000000000000000000000000000000000000000000000000000000000000000000000000000000000000000000000000000000000000000000011000001100000010000010100001010000010000010000001000000010000001100000110000001000001000000100000001000000100000010000001 R
b000011 I
b000011 L
b000011 K
b000001100000100000001 D
b000001100000100000001 &
b000001100000100000001 C
b000001100000100000001 %
1G
b011101 ?
#1670
b011101 6
b000001100000100000001 7
b000001100000100000001 8
b000001100000100000001 9
b000001100000100000001 :
#1800
0!
0@
b000000000000000000000 *
b000000000000000000000 )
#1950
1!
1@
b000011 =
b000000 L
b000000000000000000000000000000000000000000000000000000000000000000000000000000000000000000000000000000000000000000000000000000000000000000000000000000000000000000000000000000000000000000000000000000000000000000000000000000000000000000000000000000000000000000000000000000000000000000000000000000000000000000000000000000000000000000000000000000000000000000000000000000000000000000000000000000000000000000000000000000000000000000000000000000000000000000000000000000000000000000000000000000000000000000000000000000000000000000000000000000000000000000000011000001100000010000010100001010000010000010000001000000010000001100000110000001000001000000100000001000000100000010000001 O
1H
b100000 ?
1G
b000000 K
b000000000000000000000 D
b000000000000000000000 &
b000000000000000000000 C
b000000000000000000000 %
b011101 ?
#1970
b000000000000000000000 7
b000000000000000000000 8
b000000000000000000000 9
b000000000000000000000 :
#2100
0!
0@
b000000000000000000000 #
b000000000000000000000 B
#2250
1!
1@
#2400
0!
0@
b000100100010010000010000100000010000000010000011100001110000010 <
b000100100010010000010000100000010000000010000011100001110000010 P
b000011000001010000100 #
b000011000001010000100 B
b000011000001010000100 *
b000011000001010000100 )
b00000000000000000000000000001001 +
b00000000000000000000000000000110 ,
b000000000000000000000000000000000000000000000000000000000000000000000000000000000000000000000000000000000000000000000000000000000000000000000000000000000000000000000000000000000000000000000000000000000000000000000000000000000000000000000000000000000000000000000000000000000000000000000000000000000000000000000000000000000000000000000000000000000000000000000000000000000000000000000000000000000000000000000000000000000000000000000000000000000000000000000000000000000000000000000000000000100100010010000010000100000010000000010000011100001110000010000011000001100000011000010100001010000011000010000001000000011000001100000110000001000001000000100000001000000100000010000001 R
b001001 J
b000011 M
0G
#2550
1!
1@
b001001 >
b000000 M
b000000000000000000000000000000000000000000000000000000000000000000000000000000000000000000000000000000000000000000000000000000000000000000000000000000000000000000000000000000000000000000000000000000000000000000000000000000000000000000000000000000000000000000000000000000000000000000000000000000000000000000000000000000000000000000000000000000000000000000000000000000000000000000000000000000000000000000000000000000000000000000000000000000000000000000000000000000000000000000000000000000100100010010000010000100000010000000010000011100001110000010000011000001100000011000010100001010000011000010000001000000011000001100000110000001000001000000100000001000000100000010000001 O
0H
b011010 ?
0G
b000000000000000000000000000000000000000000000000000000000000000000000000000000000000000000000000000000000000000000000000000000000000000000000000000000000000000000000000000000000000000000000000000000000000000000000000000000000000000000000000000000000000000000000000000000000000000000000000000000000000000000000000000000000000000000000000000000000000000000000000000000000000000000000000000000000000000000000000000000000000000100100010010000010000100000010000000010000011100001110000010000100100010010000010000100000010000000010000011100001110000010000011000001100000001000010100001010000001000010000001000000001000001100000110000001000001000000100000001000000100000010000001 R
b001100 J
b000011 M
b000110 I
b000011 L
b000011 K
b000011000001010000100 D
b000011000001010000100 &
b000011000001010000100 C
b000011000001010000100 %
b011101 ?
#2570
b000011000001010000100 7
b000011000001010000100 8
b000011000001010000100 9
b000011000001010000100 :
#2700
0!
0@
b000000000000000000000000000000000000000000000000000000000000000 <
b000000000000000000000000000000000000000000000000000000000000000 P
b000000000000000000000 #
b000000000000000000000 B
b000000000000000000000 *
b000000000000000000000 )
b000110000011000000000000101100010110000000000101000010100000000 <
b000110000011000000000000101100010110000000000101000010100000000 P
b000000000000000000000000000000000000000000000000000000000000000000000000000000000000000000000000000000000000000000000000000000000000000000000000000000000000000000000000000000000000000000000000000000000000000000000000000000000000000000000000000000000000000000000000000000000000000000000000000000000000000000000000000000000000000000000000000000000000000000000000000000000000000000000000000000000000000000000000000000000000000000000000000000000000000000000000000000000000000000000000000000100100010010000010000100000010000000010000011100001110000010000011000001100000000000010100001010000000000010000001000000000000001100000110000001000001000000100000001000000100000010000001 R
b001001 J
b000000 M
1G
#2850
1!
1@
b000110 =
b000000 L
b000000000000000000000000000000000000000000000000000000000000000000000000000000000000000000000000000000000000000000000000000000000000000000000000000000000000000000000000000000000000000000000000000000000000000000000000000000000000000000000000000000000000000000000000000000000000000000000000000000000000000000000000000000000000000000000000000000000000000000000000000000000000000000000000000000000000000000000000000000000000000000000000000000000000000000000000000000000000000000000000000000100100010010000010000100000010000000010000011100001110000010000011000001100000000000010100001010000000000010000001000000000000001100000110000001000001000000100000001000000100000010000001 O
1H
b100000 ?
1G
b000000 K
b000000000000000000000 D
b000000000000000000000 &
b000000000000000000000 C
b000000000000000000000 %
b011101 ?
#2870
b000000000000000000000 7
b000000000000000000000 8
b000000000000000000000 9
b000000000000000000000 :
#3000
0!
0@
b000000000000000000000000000000000000000000000000000000000000000 <
b000000000000000000000000000000000000000000000000000000000000000 P
#3150
1!
1@
#3300
0!
0@
b000100100010000000111 #
b000100100010000000111 B
b000100100010000000111 *
b000100100010000000111 )
b00000000000000000000000000001001 ,
b100000 (
b000000000000000000000000000000000000000000000000000000000000000000000000000000000000000000000000000000000000000000000000000000000000000000000000000000000000000000000000000000000000000000000000000000000000000000000000000000000000000000000000000000000000000000000000000000000000000000000000000000000000000000000000000000000000000000000000000000000000000000000000000000000000000000000000000000000000000000000000000000000000000000000000000000000000000000000000000000000000000000000000000000100100010010000011000100000010000000011000011100001110000011000011000001100000000000010100001010000000000010000001000000000000001100000110000001000001000000100000001000000100000010000001 R
#3450
1!
1@
b000000000000000000000000000000000000000000000000000000000000000000000000000000000000000000000000000000000000000000000000000000000000000000000000000000000000000000000000000000000000000000000000000000000000000000000000000000000000000000000000000000000000000000000000000000000000000000000000000000000000000000000000000000000000000000000000000000000000000000000000000000000000000000000000000000000000000000000000000000000000000000000000000000000000000000000000000000000000000000000000000000100100010010000011000100000010000000011000011100001110000011000011000001100000000000010100001010000000000010000001000000000000001100000110000001000001000000100000001000000100000010000001 O
b000000000000000000000000000000000000000000000000000000000000000000000000000000000000000000000000000000000000000000000000000000000000000000000000000000000000000000000000000000000000000000000000000000000000000000000000000000000000000000000000000000000000000000000000000000000000000000000000000000000000000000000000000000000000000000000000000000000000000000000000000000000000000000000000000000000000000000000000000000000000000000000000000000000000000000000000000000000000000000000000000000100100010010000001000100000010000000001000011100001110000001000011000001100000000000010100001010000000000010000001000000000000001100000110000001000001000000100000001000000100000010000001 R
b001001 I
b000011 L
b000011 K
b000100100010000000111 D
b000100100010000000111 &
b000100100010000000111 C
b000100100010000000111 %
b100000 ?
#3470
b100000 6
b000100100010000000111 7
b000100100010000000111 8
b000100100010000000111 9
b000100100010000000111 :
#3600
0!
0@
b000000000000000000000 #
b000000000000000000000 B
b000000000000000000000 *
b000000000000000000000 )
b000110000011000000010000101100010110000010000101000010100000010 <
b000110000011000000010000101100010110000010000101000010100000010 P
b00000000000000000000000000001100 +
b011101 (
b000000000000000000000000000000000000000000000000000000000000000000000000000000000000000000000000000000000000000000000000000000000000000000000000000000000000000000000000000000000000000000000000000000000000000000000000000000000000000000000000000000000000000000000000000000000000000000000000000000000000000000000000000000000000000000000000000000000000000000000000000000000000000000000000000000000000000000000000000000000000000110000011000000010000101100010110000010000101000010100000010000100100010010000000000100000010000000000000011100001110000000000011000001100000000000010100001010000000000010000001000000000000001100000110000001000001000000100000001000000100000010000001 R
b001100 J
b000011 M
#3750
1!
1@
b001001 =
b000000 L
b001100 >
b000000 M
b000000000000000000000000000000000000000000000000000000000000000000000000000000000000000000000000000000000000000000000000000000000000000000000000000000000000000000000000000000000000000000000000000000000000000000000000000000000000000000000000000000000000000000000000000000000000000000000000000000000000000000000000000000000000000000000000000000000000000000000000000000000000000000000000000000000000000000000000000000000000000110000011000000010000101100010110000010000101000010100000010000100100010010000000000100000010000000000000011100001110000000000011000001100000000000010100001010000000000010000001000000000000001100000110000001000001000000100000001000000100000010000001 O
b100000 ?
0N
1G
b000000000000000000000000000000000000000000000000000000000000000000000000000000000000000000000000000000000000000000000000000000000000000000000000000000000000000000000000000000000000000000000000000000000000000000000000000000000000000000000000000000000000000000000000000000000000000000000000000000000000000000000000000000000000000000000000000000000000000000000000110000011000000010000101100010110000010000101000010100000010000110000011000000010000101100010110000010000101000010100000010000100100010010000000000100000010000000000000011100001110000000000011000001100000000000010100001010000000000010000001000000000000001100000110000001000001000000100000001000000100000010000001 R
b001111 J
b000011 M
b000000 K
b000000000000000000000 D
b000000000000000000000 &
b000000000000000000000 C
b000000000000000000000 %
0G
b011101 ?
#3770
b011101 6
b000000000000000000000 7
b000000000000000000000 8
b000000000000000000000 9
b000000000000000000000 :
#3900
0!
0@
b000000000000000000000000000000000000000000000000000000000000000 <
b000000000000000000000000000000000000000000000000000000000000000 P
b000000000000000000000000000000000000000000000000000000000000000000000000000000000000000000000000000000000000000000000000000000000000000000000000000000000000000000000000000000000000000000000000000000000000000000000000000000000000000000000000000000000000000000000000000000000000000000000000000000000000000000000000000000000000000000000000000000000000000000000000000000000000000000000000000000000000000000000000000000000000000110000011000000010000101100010110000010000101000010100000010000100100010010000000000100000010000000000000011100001110000000000011000001100000000000010100001010000000000010000001000000000000001100000110000001000001000000100000001000000100000010000001 R
b001100 J
b000000 M
1G
#4050
1!
1@
#4200
0!
0@
b00000000000000000000000000000010 .
b000000000011000001011 #
b000000000011000001011 B
b000000000000000000000000000000000000000000000000000000000000000000000000000000000000000000000000000000000000000000000000000000000000000000000000000000000000000000000000000000000000000000000000000000000000000000000000000000000000000000000000000000000000000000000000000000000000000000000000000000000000000000000000000000000000000000000000000000000000000000000000000000000000000000000000000000000000000000000000000000000000000110000011000000011000101100010110000011000101000010100000010000100100010010000000000100000010000000000000011100001110000000000011000001100000000000010100001010000000000010000001000000000000001100000110000001000001000000100000001000000100000010000001 R
#4350
1!
1@
b000000000000000000000000000000000000000000000000000000000000000000000000000000000000000000000000000000000000000000000000000000000000000000000000000000000000000000000000000000000000000000000000000000000000000000000000000000000000000000000000000000000000000000000000000000000000000000000000000000000000000000000000000000000000000000000000000000000000000000000000000000000000000000000000000000000000000000000000000000000000000110000011000000011000101100010110000011000101000010100000010000100100010010000000000100000010000000000000011100001110000000000011000001100000000000010100001010000000000010000001000000000000001100000110000001000001000000100000001000000100000010000001 O
#4500
0!
0@
b000000000011000001010 #
b000000000011000001010 B
b000110000010110001010 *
b000110000010110001010 )
b100000 (
b00000000000000000000000000001100 ,
b000000000000000000000000000000000000000000000000000000000000000000000000000000000000000000000000000000000000000000000000000000000000000000000000000000000000000000000000000000000000000000000000000000000000000000000000000000000000000000000000000000000000000000000000000000000000000000000000000000000000000000000000000000000000000000000000000000000000000000000000000000000000000000000000000000000000000000000000000000000000000110000011000000011000101100010110000011000101000010100000011000100100010010000000000100000010000000000000011100001110000000000011000001100000000000010100001010000000000010000001000000000000001100000110000001000001000000100000001000000100000010000001 R
#4650
1!
1@
b000000000000000000000000000000000000000000000000000000000000000000000000000000000000000000000000000000000000000000000000000000000000000000000000000000000000000000000000000000000000000000000000000000000000000000000000000000000000000000000000000000000000000000000000000000000000000000000000000000000000000000000000000000000000000000000000000000000000000000000000000000000000000000000000000000000000000000000000000000000000000110000011000000011000101100010110000011000101000010100000011000100100010010000000000100000010000000000000011100001110000000000011000001100000000000010100001010000000000010000001000000000000001100000110000001000001000000100000001000000100000010000001 O
b000000000000000000000000000000000000000000000000000000000000000000000000000000000000000000000000000000000000000000000000000000000000000000000000000000000000000000000000000000000000000000000000000000000000000000000000000000000000000000000000000000000000000000000000000000000000000000000000000000000000000000000000000000000000000000000000000000000000000000000000000000000000000000000000000000000000000000000000000000000000000110000011000000001000101100010110000000000101000010100000001000100100010010000000000100000010000000000000011100001110000000000011000001100000000000010100001010000000000010000001000000000000001100000110000001000001000000100000001000000100000010000001 R
b001100 I
b000011 L
b000011 K
b000110000010110001010 D
b000110000010110001010 &
b000110000010110001010 C
b000110000010110001010 %
b100000 ?
#4670
b100000 6
b000110000010110001010 7
b000110000010110001010 8
b000110000010110001010 9
b000110000010110001010 :
#4800
0!
0@
b000000000000000000000 #
b000000000000000000000 B
b000000000000000000000 *
b000000000000000000000 )
b000000000000000000000000000000000000000000000000000000000000000000000000000000000000000000000000000000000000000000000000000000000000000000000000000000000000000000000000000000000000000000000000000000000000000000000000000000000000000000000000000000000000000000000000000000000000000000000000000000000000000000000000000000000000000000000000000000000000000000000000000000000000000000000000000000000000000000000000000000000000000110000011000000000000101100010110000000000101000010100000000000100100010010000000000100000010000000000000011100001110000000000011000001100000000000010100001010000000000010000001000000000000001100000110000001000001000000100000001000000100000010000001 R
#4950
1!
1@
b001100 =
b000000 L
b000000000000000000000000000000000000000000000000000000000000000000000000000000000000000000000000000000000000000000000000000000000000000000000000000000000000000000000000000000000000000000000000000000000000000000000000000000000000000000000000000000000000000000000000000000000000000000000000000000000000000000000000000000000000000000000000000000000000000000000000000000000000000000000000000000000000000000000000000000000000000110000011000000000000101100010110000000000101000010100000000000100100010010000000000100000010000000000000011100001110000000000011000001100000000000010100001010000000000010000001000000000000001100000110000001000001000000100000001000000100000010000001 O
b000011 ?
1N
b000000 K
b000000000000000000000 D
b000000000000000000000 &
b000000000000000000000 C
b000000000000000000000 %
b100000 ?
#4970
b000000000000000000000 7
b000000000000000000000 8
b000000000000000000000 9
b000000000000000000000 :
#5100
0!
0@
b00000000000000000000000000000011 .
b00000000000000000000000000000000 ,
b00000000000000000000000000000000 +
1"
1A
#5250
1!
1@
b000000 =
b001100 L
b000000 >
b001100 M
b000000000000000000000000000000000000000000000000000000000000000000000000000000000000000000000000000000000000000000000000000000000000000000000000000000000000000000000000000000000000000000000000000000000000000000000000000000000000000000000000000000000000000000000000000000000000000000000000000000000000000000000000000000000000000000000000000000000000000000000000000000000000000000000000000000000000000000000000000000000000000000000000000000000000000000000000000000000000000000000000000000000000000000000000000000000000000000000000000000000000000000000000000000000000000000000000000000000000000000000000000000000000000000000000000000000000000000000000000000000000000000000000 O
1N
b000000000000000000000000000000000000000000000000000000000000000000000000000000000000000000000000000000000000000000000000000000000000000000000000000000000000000000000000000000000000000000000000000000000000000000000000000000000000000000000000000000000000000000000000000000000000000000000000000000000000000000000000000000000000000000000000000000000000000000000000000000000000000000000000000000000000000000000000000000000000000000000000000000000000000000000000000000000000000000000000000000000000000000000000000000000000000000000000000000000000000000000000000000000000000000000000000000000000000000000000000000000000000000000000000000000000000000000000000000000000000000000000 R
b000000 J
b000000 M
b000000 I
b000000 L
#5400
0!
0@
0"
0A
#5550
1!
1@
