uploads/rob.vcd
$date
	Thu Oct 24 00:50:49 2024
$end

$version
	Synopsys VCS version V-2023.12-SP2-1_Full64
$end

$timescale
	100ps
$end

$comment Csum: 1 d16510d2d5bd5557 $end


$scope module testbench $end
$var reg 1 ! clock $end
$var reg 1 " reset $end
$var reg 18 # cdb [17:0] $end
$var reg 1 $ branch_mispredict $end
$var reg 18 % old_tags [17:0] $end
$var reg 18 & new_tags [17:0] $end
$var reg 15 ' arch_reg [14:0] $end
$var reg 6 ( open_spots_correct [5:0] $end
$var reg 6 ) available_spots_out [5:0] $end
$var reg 18 * old_tags_correct [17:0] $end
$var reg 18 + new_tags_correct [17:0] $end
$var integer 32 , tag_ind $end
$var integer 32 - cdb_ind $end
$var integer 32 . input_size $end
$var integer 32 / retire_size $end

$scope task exit_on_error $end
$var reg 1 0 clock $end
$var reg 1 1 reset $end
$var reg 6 2 open_spots_correct [5:0] $end
$var reg 18 3 old_tags [17:0] $end
$var reg 18 4 old_tags_correct [17:0] $end
$var reg 18 5 new_tags [17:0] $end
$var reg 18 6 new_tags_correct [17:0] $end

$scope begin unnamed$$_0 $end
$upscope $end

$upscope $end


$scope task print_rob_entries $end

$scope begin unnamed$$_0 $end
$upscope $end

$upscope $end


$scope task assert_correct $end
$var reg 6 7 open_spots_correct [5:0] $end
$var reg 18 8 old_tags [17:0] $end
$var reg 18 9 old_tags_correct [17:0] $end
$var reg 18 : new_tags [17:0] $end
$var reg 18 ; new_tags_correct [17:0] $end
$upscope $end


$scope task reset_inputs $end

$scope begin unnamed$$_0 $end
$upscope $end

$upscope $end

$var reg 57 < ROB_in [56:0] $end

$scope begin unnamed$$_0 $end
$upscope $end


$scope begin unnamed$$_1 $end
$upscope $end


$scope begin unnamed$$_2 $end
$upscope $end


$scope begin unnamed$$_3 $end
$upscope $end


$scope begin unnamed$$_4 $end
$upscope $end


$scope begin unnamed$$_5 $end
$upscope $end


$scope begin unnamed$$_6 $end
$upscope $end


$scope begin unnamed$$_7 $end
$upscope $end


$scope begin unnamed$$_8 $end
$upscope $end


$scope begin unnamed$$_9 $end
$upscope $end


$scope begin unnamed$$_10 $end
$upscope $end


$scope begin unnamed$$_11 $end
$upscope $end


$scope begin unnamed$$_12 $end
$upscope $end


$scope begin unnamed$$_13 $end
$upscope $end


$scope begin unnamed$$_14 $end
$upscope $end


$scope begin unnamed$$_15 $end
$upscope $end


$scope begin unnamed$$_16 $end
$upscope $end


$scope begin unnamed$$_17 $end
$upscope $end


$scope begin unnamed$$_18 $end
$upscope $end


$scope begin unnamed$$_19 $end
$upscope $end


$scope begin unnamed$$_20 $end
$upscope $end


$scope module DUT $end
$var reg 6 = head [5:0] $end
$var reg 6 > tail [5:0] $end
$var reg 1 ? clock $end
$var reg 1 @ reset $end
$var reg 18 A cdb [17:0] $end
$var reg 6 B available_spots_out [5:0] $end
$var reg 18 C free_tags [17:0] $end
$var reg 18 D new_tags [17:0] $end
$var reg 15 E arch_reg [14:0] $end
$var reg 6 F open_spots [5:0] $end
$var reg 1 G next_direction [0:0] $end
$var reg 1 H last_direction [0:0] $end
$var reg 6 I head_n [5:0] $end
$var reg 6 J tail_n [5:0] $end
$var reg 6 K retireable_cnt [5:0] $end
$var reg 6 L available_spots [5:0] $end
$var reg 6 M head_growth [5:0] $end
$var reg 6 N tail_growth [5:0] $end
$var reg 1 O empty $end
$var reg 608 P entries [607:0] $end
$var reg 57 Q dispatched_ins [56:0] $end
$var reg 552 R decoded_instruction [551:0] $end
$var reg 608 S entries_n [607:0] $end

$scope begin unnamed$$_0 $end
$upscope $end


$scope begin unnamed$$_1 $end
$upscope $end


$scope begin unnamed$$_2 $end

$scope begin unnamed$$_3 $end
$upscope $end

$upscope $end


$scope begin unnamed$$_4 $end
$upscope $end

$upscope $end

$upscope $end

$enddefinitions $end

#0
$dumpvars
x$
0!
x0
x1
1"
b000000000000xxxxx00000000000000xxxxx00000000000000xxxxx00 <
bxxxxxxxxxxxxxxx '
b000000000000000000 #
b000000000000000000 &
b000000000000000000 +
b000000000000000000 %
b000000000000000000 *
bxxxxxxxxxxxxxxxxxx :
bxxxxxxxxxxxxxxxxxx ;
bxxxxxxxxxxxxxxxxxx 8
bxxxxxxxxxxxxxxxxxx 9
bxxxxxx 7
bxxxxxx )
b00000000000000000000000000000000 -
bxxxxxxxxxxxxxxxxxx 5
bxxxxxxxxxxxxxxxxxx 6
bxxxxxxxxxxxxxxxxxx 3
bxxxxxxxxxxxxxxxxxx 4
bxxxxxx 2
b00000000000000000000000000000011 .
bxxxxxx (
b00000000000000000000000000000011 /
b00000000000000000000000000000000 ,
0O
0H
0G
bxxxxxxxxxxxxxxx E
b000000000000000000 A
bxxxxxxxxxxxxxxxxxxxxxxxxxxxxxxxxxxxxxxxxxxxxxxxxxxxxxxxxxxxxxxxxxxxxxxxxxxxxxxxxxxxxxxxxxxxxxxxxxxxxxxxxxxxxxxxxxxxxxxxxxxxxxxxxxxxxxxxxxxxxxxxxxxxxxxxxxxxxxxxxxxxxxxxxxxxxxxxxxxxxxxxxxxxxxxxxxxxxxxxxxxxxxxxxxxxxxxxxxxxxxxxxxxxxxxxxxxxxxxxxxxxxxxxxxxxxxxxxxxxxxxxxxxxxxxxxxxxxxxxxxxxxxxxxxxxxxxxxxxxxxxxxxxxxxxxxxxxxxxxxxxxxxxxxxxxxxxxxxxxxxxxxxxxxxxxxxxxxxxxxxxxxxxxxxxxxxxxxxxxxxxxxxxxxxxxxxxxxxxxxxxxxxxxxxxxxxxxxxxxxxxxxxxxxxxxxxxxxxxxxxxxxxxxxxxxxxxxxxxxxxxxxxxxxxxxxxxxxxxxxxxxxxxxxxxxxxxxxxxxxxxxxxxxxxxxxxxxxxxxxxxxxxxxxxxxxxxxxxxxxxxxxxxxxxxxx R
b000000000000xxxxx00000000000000xxxxx00000000000000xxxxx00 Q
bxxxxxxxxxxxxxxxxxxxxxxxxxxxxxxxxxxxxxxxxxxxxxxxxxxxxxxxxxxxxxxxxxxxxxxxxxxxxxxxxxxxxxxxxxxxxxxxxxxxxxxxxxxxxxxxxxxxxxxxxxxxxxxxxxxxxxxxxxxxxxxxxxxxxxxxxxxxxxxxxxxxxxxxxxxxxxxxxxxxxxxxxxxxxxxxxxxxxxxxxxxxxxxxxxxxxxxxxxxxxxxxxxxxxxxxxxxxxxxxxxxxxxxxxxxxxxxxxxxxxxxxxxxxxxxxxxxxxxxxxxxxxxxxxxxxxxxxxxxxxxxxxxxxxxxxxxxxxxxxxxxxxxxxxxxxxxxxxxxxxxxxxxxxxxxxxxxxxxxxxxxxxxxxxxxxxxxxxxxxxxxxxxxxxxxxxxxxxxxxxxxxxxxxxxxxxxxxxxxxxxxxxxxxxxxxxxxxxxxxxxxxxxxxxxxxxxxxxxxxxxxxxxxxxxxxxxxxxxxxxxxxxxxxxxxxxxxxxxxxxxxxxxxxxxxxxxxxxxxxxxxxxxxxxxxxxxxxxxxxxxxxxxxxxxxxxxxxxxxxxxxxxxxxxxxxxxxxxxxxxxxxxxxxxxxxxxxxxxxxxxxxxxxxx S
bxxxxxxxxxxxxxxxxxxxxxxxxxxxxxxxxxxxxxxxxxxxxxxxxxxxxxxxxxxxxxxxxxxxxxxxxxxxxxxxxxxxxxxxxxxxxxxxxxxxxxxxxxxxxxxxxxxxxxxxxxxxxxxxxxxxxxxxxxxxxxxxxxxxxxxxxxxxxxxxxxxxxxxxxxxxxxxxxxxxxxxxxxxxxxxxxxxxxxxxxxxxxxxxxxxxxxxxxxxxxxxxxxxxxxxxxxxxxxxxxxxxxxxxxxxxxxxxxxxxxxxxxxxxxxxxxxxxxxxxxxxxxxxxxxxxxxxxxxxxxxxxxxxxxxxxxxxxxxxxxxxxxxxxxxxxxxxxxxxxxxxxxxxxxxxxxxxxxxxxxxxxxxxxxxxxxxxxxxxxxxxxxxxxxxxxxxxxxxxxxxxxxxxxxxxxxxxxxxxxxxxxxxxxxxxxxxxxxxxxxxxxxxxxxxxxxxxxxxxxxxxxxxxxxxxxxxxxxxxxxxxxxxxxxxxxxxxxxxxxxxxxxxxxxxxxxxxxxxxxxxxxxxxxxxxxxxxxxxxxxxxxxxxxxxxxxxxxxxxxxxxxxxxxxxxxxxxxxxxxxxxxxxxxxxxxxxxxxxxxxxxxxxxxx P
b000000000000000000 C
b000000000000000000 D
bxxxxxx L
bxxxxxx B
bxxxxxx =
bxxxxxx M
bxxxxxx I
bxxxxxx F
b000000 K
bxxxxxx >
bxxxxxx N
bxxxxxx J
0?
1@
$end
#150
1!
1?
b000000 =
b000000 >
b00000000000000000000000000000000000000000000000000000000000000000000000000000000000000000000000000000000000000000000000000000000000000000000000000000000000000000000000000000000000000000000000000000000000000000000000000000000000000000000000000000000000000000000000000000000000000000000000000000000000000000000000000000000000000000000000000000000000000000000000000000000000000000000000000000000000000000000000000000000000000000000000000000000000000000000000000000000000000000000000000000000000000000000000000000000000000000000000000000000000000000000000000000000000000000000000000000000000000000000000000000000 P
1H
b00000000000000000000000000000000000000000000000000000000000000000000000000000000000000000000000000000000000000000000000000000000000000000000000000000000000000000000000000000000000000000000000000000000000000000000000000000000000000000000000000000000000000000000000000000000000000000000000000000000000000000000000000000000000000000000000000000000000000000000000000000000000000000000000000000000000000000000000000000000000000000000000000000000000000000000000000000000000000000000000000000000000000000000000000000000000000000000000000000000000000000000000000000000000000000000000000000000000000000000000000000000 S
b000000 J
b000000 N
b000000 I
b000000 M
b000000 L
b000000 F
b000000 B
b000000 )
1O
1G
b100000 L
b000011 F
b100000 B
b100000 )
#300
0!
0?
0"
0@
b100000 (
#450
1!
1?
#600
0!
0?
#750
1!
1?
#770
b100000 7
b000000000000000000 8
b000000000000000000 9
b000000000000000000 :
b000000000000000000 ;
#900
0!
0?
b000011000011xxxxx10000010000010xxxxx10000001000001xxxxx10 <
b000011000011xxxxx10000010000010xxxxx10000001000001xxxxx10 Q
b00000000000000000000000000000011 ,
b011101 (
b00000000000000000000000000000000000000000000000000000000000000000000000000000000000000000000000000000000000000000000000000000000000000000000000000000000000000000000000000000000000000000000000000000000000000000000000000000000000000000000000000000000000000000000000000000000000000000000000000000000000000000000000000000000000000000000000000000000000000000000000000000000000000000000000000000000000000000000000000000000000000000000000000000000000000000000000000000000000000000000000000000000000000000000000000000000000000000000000000000000000000000000000000011000011xxxxx10000010000010xxxxx10000001000001xxxxx10 S
b000011 J
b000011 N
0G
#1050
1!
1?
b000011 >
b000000 N
b00000000000000000000000000000000000000000000000000000000000000000000000000000000000000000000000000000000000000000000000000000000000000000000000000000000000000000000000000000000000000000000000000000000000000000000000000000000000000000000000000000000000000000000000000000000000000000000000000000000000000000000000000000000000000000000000000000000000000000000000000000000000000000000000000000000000000000000000000000000000000000000000000000000000000000000000000000000000000000000000000000000000000000000000000000000000000000000000000000000000000000000000000011000011xxxxx10000010000010xxxxx10000001000001xxxxx10 P
0H
0O
0G
b00000000000000000000000000000000000000000000000000000000000000000000000000000000000000000000000000000000000000000000000000000000000000000000000000000000000000000000000000000000000000000000000000000000000000000000000000000000000000000000000000000000000000000000000000000000000000000000000000000000000000000000000000000000000000000000000000000000000000000000000000000000000000000000000000000000000000000000000000000000000000000000000000000000000000000000000000000000000000000000000000000000000000000011000011xxxxx10000010000010xxxxx10000001000001xxxxx10000011000011xxxxx10000010000010xxxxx10000001000001xxxxx10 S
b000110 J
b000011 N
b011101 L
b011101 B
b011101 )
#1070
b011101 7
#1200
0!
0?
b000000000000xxxxx00000000000000xxxxx00000000000000xxxxx00 <
b000000000000xxxxx00000000000000xxxxx00000000000000xxxxx00 Q
b000110000110xxxxx10000101000101xxxxx10000100000100xxxxx10 <
b000110000110xxxxx10000101000101xxxxx10000100000100xxxxx10 Q
b00000000000000000000000000000110 ,
b011010 (
b00000000000000000000000000000000000000000000000000000000000000000000000000000000000000000000000000000000000000000000000000000000000000000000000000000000000000000000000000000000000000000000000000000000000000000000000000000000000000000000000000000000000000000000000000000000000000000000000000000000000000000000000000000000000000000000000000000000000000000000000000000000000000000000000000000000000000000000000000000000000000000000000000000000000000000000000000000000000000000000000000000000000000000110000110xxxxx10000101000101xxxxx10000100000100xxxxx10000011000011xxxxx10000010000010xxxxx10000001000001xxxxx10 S
#1350
1!
1?
b000110 >
b000000 N
b00000000000000000000000000000000000000000000000000000000000000000000000000000000000000000000000000000000000000000000000000000000000000000000000000000000000000000000000000000000000000000000000000000000000000000000000000000000000000000000000000000000000000000000000000000000000000000000000000000000000000000000000000000000000000000000000000000000000000000000000000000000000000000000000000000000000000000000000000000000000000000000000000000000000000000000000000000000000000000000000000000000000000000110000110xxxxx10000101000101xxxxx10000100000100xxxxx10000011000011xxxxx10000010000010xxxxx10000001000001xxxxx10 P
b011010 L
b011010 B
b011010 )
b00000000000000000000000000000000000000000000000000000000000000000000000000000000000000000000000000000000000000000000000000000000000000000000000000000000000000000000000000000000000000000000000000000000000000000000000000000000000000000000000000000000000000000000000000000000000000000000000000000000000000000000000000000000000000000000000000000000000000000000000000000000000000000000000000000000000000000000000000000000000000000000000000000000110000110xxxxx10000101000101xxxxx10000100000100xxxxx10000110000110xxxxx10000101000101xxxxx10000100000100xxxxx10000011000011xxxxx10000010000010xxxxx10000001000001xxxxx10 S
b001001 J
b000011 N
#1370
b011010 7
#1500
0!
0?
b000000000000xxxxx00000000000000xxxxx00000000000000xxxxx00 <
b000000000000xxxxx00000000000000xxxxx00000000000000xxxxx00 Q
b000011000010000001 #
b000011000010000001 A
b000011000010000001 +
b000011000010000001 *
b00000000000000000000000000000011 -
b00000000000000000000000000000000000000000000000000000000000000000000000000000000000000000000000000000000000000000000000000000000000000000000000000000000000000000000000000000000000000000000000000000000000000000000000000000000000000000000000000000000000000000000000000000000000000000000000000000000000000000000000000000000000000000000000000000000000000000000000000000000000000000000000000000000000000000000000000000000000000000000000000000000000000000000000000000000000000000000000000000000000000000110000110xxxxx10000101000101xxxxx10000100000100xxxxx10000011000011xxxxx11000010000010xxxxx11000001000001xxxxx11 S
b000110 J
b000000 N
#1650
1!
1?
b011101 (
b00000000000000000000000000000000000000000000000000000000000000000000000000000000000000000000000000000000000000000000000000000000000000000000000000000000000000000000000000000000000000000000000000000000000000000000000000000000000000000000000000000000000000000000000000000000000000000000000000000000000000000000000000000000000000000000000000000000000000000000000000000000000000000000000000000000000000000000000000000000000000000000000000000000000000000000000000000000000000000000000000000000000000000110000110xxxxx10000101000101xxxxx10000100000100xxxxx10000011000011xxxxx11000010000010xxxxx11000001000001xxxxx11 P
b00000000000000000000000000000000000000000000000000000000000000000000000000000000000000000000000000000000000000000000000000000000000000000000000000000000000000000000000000000000000000000000000000000000000000000000000000000000000000000000000000000000000000000000000000000000000000000000000000000000000000000000000000000000000000000000000000000000000000000000000000000000000000000000000000000000000000000000000000000000000000000000000000000000000000000000000000000000000000000000000000000000000000000110000110xxxxx10000101000101xxxxx10000100000100xxxxx10000011000011xxxxx01000010000010xxxxx01000001000001xxxxx01 S
b000011 I
b000011 M
b000011 K
b000011000010000001 D
b000011000010000001 &
b000011000010000001 C
b000011000010000001 %
1G
b011101 L
b011101 B
b011101 )
#1670
b011101 7
b000011000010000001 8
b000011000010000001 9
b000011000010000001 :
b000011000010000001 ;
#1800
0!
0?
b000000000000000000 +
b000000000000000000 *
#1950
1!
1?
b000011 =
b000000 M
b00000000000000000000000000000000000000000000000000000000000000000000000000000000000000000000000000000000000000000000000000000000000000000000000000000000000000000000000000000000000000000000000000000000000000000000000000000000000000000000000000000000000000000000000000000000000000000000000000000000000000000000000000000000000000000000000000000000000000000000000000000000000000000000000000000000000000000000000000000000000000000000000000000000000000000000000000000000000000000000000000000000000000000110000110xxxxx10000101000101xxxxx10000100000100xxxxx10000011000011xxxxx01000010000010xxxxx01000001000001xxxxx01 P
1H
b100000 L
b100000 B
b100000 )
1G
b000000 K
b000000000000000000 D
b000000000000000000 &
b000000000000000000 C
b000000000000000000 %
b011101 L
b011101 B
b011101 )
#1970
b000000000000000000 8
b000000000000000000 9
b000000000000000000 :
b000000000000000000 ;
#2100
0!
0?
b000000000000000000 #
b000000000000000000 A
#2250
1!
1?
#2400
0!
0?
b001001001001xxxxx10001000001000xxxxx10000111000111xxxxx10 <
b001001001001xxxxx10001000001000xxxxx10000111000111xxxxx10 Q
b000110000101000100 #
b000110000101000100 A
b000110000101000100 +
b000110000101000100 *
b00000000000000000000000000001001 ,
b00000000000000000000000000000110 -
b00000000000000000000000000000000000000000000000000000000000000000000000000000000000000000000000000000000000000000000000000000000000000000000000000000000000000000000000000000000000000000000000000000000000000000000000000000000000000000000000000000000000000000000000000000000000000000000000000000000000000000000000000000000000000000000000000000000000000000000000000000000000000000000000000000000000000000000000000000000000000000000000000000001001001001xxxxx10001000001000xxxxx10000111000111xxxxx10000110000110xxxxx11000101000101xxxxx11000100000100xxxxx11000011000011xxxxx01000010000010xxxxx01000001000001xxxxx01 S
b001001 J
b000011 N
0G
#2550
1!
1?
b001001 >
b000000 N
b00000000000000000000000000000000000000000000000000000000000000000000000000000000000000000000000000000000000000000000000000000000000000000000000000000000000000000000000000000000000000000000000000000000000000000000000000000000000000000000000000000000000000000000000000000000000000000000000000000000000000000000000000000000000000000000000000000000000000000000000000000000000000000000000000000000000000000000000000000000000000000000000000000001001001001xxxxx10001000001000xxxxx10000111000111xxxxx10000110000110xxxxx11000101000101xxxxx11000100000100xxxxx11000011000011xxxxx01000010000010xxxxx01000001000001xxxxx01 P
0H
b011010 L
b011010 B
b011010 )
0G
b00000000000000000000000000000000000000000000000000000000000000000000000000000000000000000000000000000000000000000000000000000000000000000000000000000000000000000000000000000000000000000000000000000000000000000000000000000000000000000000000000000000000000000000000000000000000000000000000000000000000000000000000000000000000000000000000000000000000000000000000000000000000000000000001001001001xxxxx10001000001000xxxxx10000111000111xxxxx10001001001001xxxxx10001000001000xxxxx10000111000111xxxxx10000110000110xxxxx01000101000101xxxxx01000100000100xxxxx01000011000011xxxxx01000010000010xxxxx01000001000001xxxxx01 S
b001100 J
b000011 N
b000110 I
b000011 M
b000011 K
b000110000101000100 D
b000110000101000100 &
b000110000101000100 C
b000110000101000100 %
b011101 L
b011101 B
b011101 )
#2570
b000110000101000100 8
b000110000101000100 9
b000110000101000100 :
b000110000101000100 ;
#2700
0!
0?
b000000000000xxxxx00000000000000xxxxx00000000000000xxxxx00 <
b000000000000xxxxx00000000000000xxxxx00000000000000xxxxx00 Q
b000000000000000000 #
b000000000000000000 A
b000000000000000000 +
b000000000000000000 *
b001100001100xxxxx00001011001011xxxxx00001010001010xxxxx00 <
b001100001100xxxxx00001011001011xxxxx00001010001010xxxxx00 Q
b00000000000000000000000000000000000000000000000000000000000000000000000000000000000000000000000000000000000000000000000000000000000000000000000000000000000000000000000000000000000000000000000000000000000000000000000000000000000000000000000000000000000000000000000000000000000000000000000000000000000000000000000000000000000000000000000000000000000000000000000000000000000000000000000000000000000000000000000000000000000000000000000000000001001001001xxxxx10001000001000xxxxx10000111000111xxxxx10000110000110xxxxx00000101000101xxxxx00000100000100xxxxx00000011000011xxxxx01000010000010xxxxx01000001000001xxxxx01 S
b001001 J
b000000 N
1G
#2850
1!
1?
b000110 =
b000000 M
b00000000000000000000000000000000000000000000000000000000000000000000000000000000000000000000000000000000000000000000000000000000000000000000000000000000000000000000000000000000000000000000000000000000000000000000000000000000000000000000000000000000000000000000000000000000000000000000000000000000000000000000000000000000000000000000000000000000000000000000000000000000000000000000000000000000000000000000000000000000000000000000000000000001001001001xxxxx10001000001000xxxxx10000111000111xxxxx10000110000110xxxxx00000101000101xxxxx00000100000100xxxxx00000011000011xxxxx01000010000010xxxxx01000001000001xxxxx01 P
1H
b100000 L
b100000 B
b100000 )
1G
b000000 K
b000000000000000000 D
b000000000000000000 &
b000000000000000000 C
b000000000000000000 %
b011101 L
b011101 B
b011101 )
#2870
b000000000000000000 8
b000000000000000000 9
b000000000000000000 :
b000000000000000000 ;
#3000
0!
0?
b000000000000xxxxx00000000000000xxxxx00000000000000xxxxx00 <
b000000000000xxxxx00000000000000xxxxx00000000000000xxxxx00 Q
#3150
1!
1?
#3300
0!
0?
b001001001000000111 #
b001001001000000111 A
b001001001000000111 +
b001001001000000111 *
b00000000000000000000000000001001 -
b100000 (
b00000000000000000000000000000000000000000000000000000000000000000000000000000000000000000000000000000000000000000000000000000000000000000000000000000000000000000000000000000000000000000000000000000000000000000000000000000000000000000000000000000000000000000000000000000000000000000000000000000000000000000000000000000000000000000000000000000000000000000000000000000000000000000000000000000000000000000000000000000000000000000000000000000001001001001xxxxx11001000001000xxxxx11000111000111xxxxx11000110000110xxxxx00000101000101xxxxx00000100000100xxxxx00000011000011xxxxx01000010000010xxxxx01000001000001xxxxx01 S
#3450
1!
1?
b00000000000000000000000000000000000000000000000000000000000000000000000000000000000000000000000000000000000000000000000000000000000000000000000000000000000000000000000000000000000000000000000000000000000000000000000000000000000000000000000000000000000000000000000000000000000000000000000000000000000000000000000000000000000000000000000000000000000000000000000000000000000000000000000000000000000000000000000000000000000000000000000000000001001001001xxxxx11001000001000xxxxx11000111000111xxxxx11000110000110xxxxx00000101000101xxxxx00000100000100xxxxx00000011000011xxxxx01000010000010xxxxx01000001000001xxxxx01 P
b00000000000000000000000000000000000000000000000000000000000000000000000000000000000000000000000000000000000000000000000000000000000000000000000000000000000000000000000000000000000000000000000000000000000000000000000000000000000000000000000000000000000000000000000000000000000000000000000000000000000000000000000000000000000000000000000000000000000000000000000000000000000000000000000000000000000000000000000000000000000000000000000000000001001001001xxxxx01001000001000xxxxx01000111000111xxxxx01000110000110xxxxx00000101000101xxxxx00000100000100xxxxx00000011000011xxxxx01000010000010xxxxx01000001000001xxxxx01 S
b001001 I
b000011 M
b000011 K
b001001001000000111 D
b001001001000000111 &
b001001001000000111 C
b001001001000000111 %
b100000 L
b100000 B
b100000 )
#3470
b100000 7
b001001001000000111 8
b001001001000000111 9
b001001001000000111 :
b001001001000000111 ;
#3600
0!
0?
b000000000000000000 #
b000000000000000000 A
b000000000000000000 +
b000000000000000000 *
b001100001100xxxxx10001011001011xxxxx10001010001010xxxxx10 <
b001100001100xxxxx10001011001011xxxxx10001010001010xxxxx10 Q
b00000000000000000000000000001100 ,
b011101 (
b00000000000000000000000000000000000000000000000000000000000000000000000000000000000000000000000000000000000000000000000000000000000000000000000000000000000000000000000000000000000000000000000000000000000000000000000000000000000000000000000000000000000000000000000000000000000000000000000000000000000000000000000000000000000000000000000000000000000000000000000000000000000000000000001100001100xxxxx10001011001011xxxxx10001010001010xxxxx10001001001001xxxxx00001000001000xxxxx00000111000111xxxxx00000110000110xxxxx00000101000101xxxxx00000100000100xxxxx00000011000011xxxxx01000010000010xxxxx01000001000001xxxxx01 S
b001100 J
b000011 N
#3750
1!
1?
b001001 =
b000000 M
b001100 >
b000000 N
b00000000000000000000000000000000000000000000000000000000000000000000000000000000000000000000000000000000000000000000000000000000000000000000000000000000000000000000000000000000000000000000000000000000000000000000000000000000000000000000000000000000000000000000000000000000000000000000000000000000000000000000000000000000000000000000000000000000000000000000000000000000000000000000001100001100xxxxx10001011001011xxxxx10001010001010xxxxx10001001001001xxxxx00001000001000xxxxx00000111000111xxxxx00000110000110xxxxx00000101000101xxxxx00000100000100xxxxx00000011000011xxxxx01000010000010xxxxx01000001000001xxxxx01 P
b100000 L
0O
1G
b00000000000000000000000000000000000000000000000000000000000000000000000000000000000000000000000000000000000000000000000000000000000000000000000000000000000000000000000000000000000000000000000000000000000000000000000000000000000000000000000000000000000000000000000000000000000000000000000000000000000000000000000000000000000001100001100xxxxx10001011001011xxxxx10001010001010xxxxx10001100001100xxxxx10001011001011xxxxx10001010001010xxxxx10001001001001xxxxx00001000001000xxxxx00000111000111xxxxx00000110000110xxxxx00000101000101xxxxx00000100000100xxxxx00000011000011xxxxx01000010000010xxxxx01000001000001xxxxx01 S
b001111 J
b000011 N
b000000 K
b000000000000000000 D
b000000000000000000 &
b000000000000000000 C
b000000000000000000 %
0G
b011101 L
b011101 B
b011101 )
#3770
b011101 7
b000000000000000000 8
b000000000000000000 9
b000000000000000000 :
b000000000000000000 ;
#3900
0!
0?
b000000000000xxxxx00000000000000xxxxx00000000000000xxxxx00 <
b000000000000xxxxx00000000000000xxxxx00000000000000xxxxx00 Q
b00000000000000000000000000000000000000000000000000000000000000000000000000000000000000000000000000000000000000000000000000000000000000000000000000000000000000000000000000000000000000000000000000000000000000000000000000000000000000000000000000000000000000000000000000000000000000000000000000000000000000000000000000000000000000000000000000000000000000000000000000000000000000000000001100001100xxxxx10001011001011xxxxx10001010001010xxxxx10001001001001xxxxx00001000001000xxxxx00000111000111xxxxx00000110000110xxxxx00000101000101xxxxx00000100000100xxxxx00000011000011xxxxx01000010000010xxxxx01000001000001xxxxx01 S
b001100 J
b000000 N
1G
#4050
1!
1?
#4200
0!
0?
b00000000000000000000000000000010 /
b000000001100001011 #
b000000001100001011 A
b00000000000000000000000000000000000000000000000000000000000000000000000000000000000000000000000000000000000000000000000000000000000000000000000000000000000000000000000000000000000000000000000000000000000000000000000000000000000000000000000000000000000000000000000000000000000000000000000000000000000000000000000000000000000000000000000000000000000000000000000000000000000000000000001100001100xxxxx11001011001011xxxxx11001010001010xxxxx10001001001001xxxxx00001000001000xxxxx00000111000111xxxxx00000110000110xxxxx00000101000101xxxxx00000100000100xxxxx00000011000011xxxxx01000010000010xxxxx01000001000001xxxxx01 S
#4350
1!
1?
b00000000000000000000000000000000000000000000000000000000000000000000000000000000000000000000000000000000000000000000000000000000000000000000000000000000000000000000000000000000000000000000000000000000000000000000000000000000000000000000000000000000000000000000000000000000000000000000000000000000000000000000000000000000000000000000000000000000000000000000000000000000000000000000001100001100xxxxx11001011001011xxxxx11001010001010xxxxx10001001001001xxxxx00001000001000xxxxx00000111000111xxxxx00000110000110xxxxx00000101000101xxxxx00000100000100xxxxx00000011000011xxxxx01000010000010xxxxx01000001000001xxxxx01 P
#4500
0!
0?
b000000001100001010 #
b000000001100001010 A
b001100001011001010 +
b001100001011001010 *
b100000 (
b00000000000000000000000000001100 -
b00000000000000000000000000000000000000000000000000000000000000000000000000000000000000000000000000000000000000000000000000000000000000000000000000000000000000000000000000000000000000000000000000000000000000000000000000000000000000000000000000000000000000000000000000000000000000000000000000000000000000000000000000000000000000000000000000000000000000000000000000000000000000000000001100001100xxxxx11001011001011xxxxx11001010001010xxxxx11001001001001xxxxx00001000001000xxxxx00000111000111xxxxx00000110000110xxxxx00000101000101xxxxx00000100000100xxxxx00000011000011xxxxx01000010000010xxxxx01000001000001xxxxx01 S
#4650
1!
1?
b00000000000000000000000000000000000000000000000000000000000000000000000000000000000000000000000000000000000000000000000000000000000000000000000000000000000000000000000000000000000000000000000000000000000000000000000000000000000000000000000000000000000000000000000000000000000000000000000000000000000000000000000000000000000000000000000000000000000000000000000000000000000000000000001100001100xxxxx11001011001011xxxxx11001010001010xxxxx11001001001001xxxxx00001000001000xxxxx00000111000111xxxxx00000110000110xxxxx00000101000101xxxxx00000100000100xxxxx00000011000011xxxxx01000010000010xxxxx01000001000001xxxxx01 P
b00000000000000000000000000000000000000000000000000000000000000000000000000000000000000000000000000000000000000000000000000000000000000000000000000000000000000000000000000000000000000000000000000000000000000000000000000000000000000000000000000000000000000000000000000000000000000000000000000000000000000000000000000000000000000000000000000000000000000000000000000000000000000000000001100001100xxxxx01001011001011xxxxx00001010001010xxxxx01001001001001xxxxx00001000001000xxxxx00000111000111xxxxx00000110000110xxxxx00000101000101xxxxx00000100000100xxxxx00000011000011xxxxx01000010000010xxxxx01000001000001xxxxx01 S
b001100 I
b000011 M
b000011 K
b001100001011001010 D
b001100001011001010 &
b001100001011001010 C
b001100001011001010 %
b100000 L
b100000 B
b100000 )
#4670
b100000 7
b001100001011001010 8
b001100001011001010 9
b001100001011001010 :
b001100001011001010 ;
#4800
0!
0?
b000000000000000000 #
b000000000000000000 A
b000000000000000000 +
b000000000000000000 *
b00000000000000000000000000000000000000000000000000000000000000000000000000000000000000000000000000000000000000000000000000000000000000000000000000000000000000000000000000000000000000000000000000000000000000000000000000000000000000000000000000000000000000000000000000000000000000000000000000000000000000000000000000000000000000000000000000000000000000000000000000000000000000000000001100001100xxxxx00001011001011xxxxx00001010001010xxxxx00001001001001xxxxx00001000001000xxxxx00000111000111xxxxx00000110000110xxxxx00000101000101xxxxx00000100000100xxxxx00000011000011xxxxx01000010000010xxxxx01000001000001xxxxx01 S
#4950
1!
1?
b001100 =
b000000 M
b00000000000000000000000000000000000000000000000000000000000000000000000000000000000000000000000000000000000000000000000000000000000000000000000000000000000000000000000000000000000000000000000000000000000000000000000000000000000000000000000000000000000000000000000000000000000000000000000000000000000000000000000000000000000000000000000000000000000000000000000000000000000000000000001100001100xxxxx00001011001011xxxxx00001010001010xxxxx00001001001001xxxxx00001000001000xxxxx00000111000111xxxxx00000110000110xxxxx00000101000101xxxxx00000100000100xxxxx00000011000011xxxxx01000010000010xxxxx01000001000001xxxxx01 P
b000011 L
b000011 B
b000011 )
1O
b000000 K
b000000000000000000 D
b000000000000000000 &
b000000000000000000 C
b000000000000000000 %
b100000 L
b100000 B
b100000 )
#4970
b000000000000000000 8
b000000000000000000 9
b000000000000000000 :
b000000000000000000 ;
#5100
0!
0?
b00000000000000000000000000000011 /
b00000000000000000000000000000000 -
b00000000000000000000000000000000 ,
1"
1@
